[31mWARNING [0m Module                                                                 
         [35m/HA/sources/stg3/mambaforge/envs/env_fluidsim/lib/python3.10/site-packa[0m
         [35mges/fluidsim/base/output/[0m[95mspatiotemporal_spectra.py[0m has not been        
         compiled for Transonic-Pythran                                         
[31mWARNING [0m Module                                                                 
         [35m/HA/sources/stg3/mambaforge/envs/env_fluidsim/lib/python3.10/site-packa[0m
         [35mges/fluidsim/base/output/[0m[95mspatiotemporal_spectra.py[0m has not been        
         compiled for Transonic-Pythran                                         
params.nu_2 = 1.00e-01

--------
nb_proc: 2
N0 = 64 ; N1 = 64 ; N2 = 64
Initialization (FFT3DMPIWithFFTWMPI3D) done in 0.113166 s
*************************************
Program fluidsim
sim:                <class 'fluidsim_core.extend_simul.extend_simul_class.<locals>.NewSimul'>
sim.output:         <class 'fluidsim.solvers.ns3d.output.Output'>
sim.oper:           <class 'fluidsim.operators.operators3d.OperatorsPseudoSpectral3D'>
sim.state:          <class 'fluidsim.solvers.ns3d.state.StateNS3D'>
sim.time_stepping:  <class 'fluidsim.solvers.ns3d.time_stepping.TimeSteppingPseudoSpectralNS3D'>
sim.init_fields:    <class 'fluidsim.solvers.ns3d.init_fields.InitFieldsNS3D'>
sim.forcing:        <class 'fluidsim.solvers.ns3d.forcing.ForcingNS3D'>

solver ns3d, RK4 and parallel (2 proc.)
type fft: fluidfft.fft3d.mpi_with_fftwmpi3d
nx =     64 ; ny =     64 ; nz =     64
Lx = 2pi ; Ly = 2pi ; Lz = 2pi
path_run =
/HA/sources/stg3/Sim_data/examples/ns3d_kolmo_64x64x64_V2pix2pix2pi_2022-12-02_03-40-17
init_fields.type: noise

Initialization outputs:
sim.output.cross_corr:        <class 'fluidsim.base.output.cross_corr3d.CrossCorrelations'>
sim.output.phys_fields:       <class 'fluidsim.base.output.phys_fields3d.PhysFieldsBase3D'>
sim.output.spatial_means:     <class 'fluidsim.solvers.ns3d.output.spatial_means.SpatialMeansNS3D'>
sim.output.spatiotemporal_spectra:<class 'fluidsim.solvers.ns3d.output.spatiotemporal_spectra.SpatioTemporalSpectraNS3D'>
sim.output.spectra:           <class 'fluidsim.solvers.ns3d.output.spectra.SpectraNS3D'>
sim.output.spect_energy_budg: <class 'fluidsim.solvers.ns3d.output.spect_energy_budget.SpectralEnergyBudgetNS3D'>
sim.output.temporal_spectra:  <class 'fluidsim.base.output.temporal_spectra.TemporalSpectra3D'>
sim.output.horiz_means:       <class 'fluidsim.base.output.horiz_means.HorizontalMeans'>
[0, 32] [4096, 4096] [32, 32]

Memory usage at the end of init. (equiv. seq.): 435.32421875 Mo
Size of state_spect (equiv. seq.): 6.488064 Mo
*************************************
Beginning of the computation
save state_phys in file state_phys_t00000.000.h5
    compute until t =        200
it =      0 ; t =            0 ; deltat  =   0.039944
              energy = 6.587e-02 ; Delta energy = +0.000e+00

MEMORY_USAGE:                  437.35546875 Mo
it =     17 ; t =      1.01848 ; deltat  =   0.064954
              energy = 2.328e-01 ; Delta energy = +1.669e-01
              estimated remaining duration = 0:02:38
MEMORY_USAGE:                  462.96484375 Mo
it =     36 ; t =      2.04321 ; deltat  =   0.044973
              energy = 8.437e-01 ; Delta energy = +6.109e-01
              estimated remaining duration = 0:02:56
MEMORY_USAGE:                  463.66015625 Mo
it =     61 ; t =      3.03485 ; deltat  =   0.035105
              energy = 1.698e+00 ; Delta energy = +8.543e-01
              estimated remaining duration = 0:03:55
MEMORY_USAGE:                  463.66015625 Mo
it =     92 ; t =      4.01283 ; deltat  =   0.028453
              energy = 2.713e+00 ; Delta energy = +1.015e+00
              estimated remaining duration = 0:04:54
MEMORY_USAGE:                  463.66015625 Mo
it =    130 ; t =      5.02139 ; deltat  =     0.0245
              energy = 3.875e+00 ; Delta energy = +1.162e+00
              estimated remaining duration = 0:05:48
MEMORY_USAGE:                  463.66015625 Mo
it =    173 ; t =      6.00899 ; deltat  =   0.021587
              energy = 5.078e+00 ; Delta energy = +1.203e+00
              estimated remaining duration = 0:06:38
MEMORY_USAGE:                  463.66015625 Mo
it =    222 ; t =      7.00951 ; deltat  =   0.019457
              energy = 6.324e+00 ; Delta energy = +1.246e+00
              estimated remaining duration = 0:07:25
MEMORY_USAGE:                  463.66015625 Mo
it =    276 ; t =      8.01038 ; deltat  =   0.017914
              energy = 7.569e+00 ; Delta energy = +1.245e+00
              estimated remaining duration = 0:08:09
MEMORY_USAGE:                  463.66015625 Mo
it =    334 ; t =      9.00142 ; deltat  =   0.016502
              energy = 8.780e+00 ; Delta energy = +1.211e+00
              estimated remaining duration = 0:08:46
MEMORY_USAGE:                  463.66015625 Mo
it =    397 ; t =      10.0077 ; deltat  =   0.015536
              energy = 9.973e+00 ; Delta energy = +1.192e+00
              estimated remaining duration = 0:09:19
MEMORY_USAGE:                  463.66015625 Mo
it =    463 ; t =      11.0027 ; deltat  =   0.014632
              energy = 1.110e+01 ; Delta energy = +1.131e+00
              estimated remaining duration = 0:09:51
MEMORY_USAGE:                  463.66015625 Mo
it =    533 ; t =       12.007 ; deltat  =   0.014054
              energy = 1.219e+01 ; Delta energy = +1.086e+00
              estimated remaining duration = 0:10:16
MEMORY_USAGE:                  463.66015625 Mo
it =    606 ; t =      13.0104 ; deltat  =   0.013508
              energy = 1.322e+01 ; Delta energy = +1.025e+00
              estimated remaining duration = 0:10:39
MEMORY_USAGE:                  463.66015625 Mo
it =    681 ; t =      14.0043 ; deltat  =   0.012978
              energy = 1.417e+01 ; Delta energy = +9.542e-01
              estimated remaining duration = 0:11:01
MEMORY_USAGE:                  463.66015625 Mo
it =    759 ; t =      15.0054 ; deltat  =   0.012719
              energy = 1.507e+01 ; Delta energy = +8.991e-01
              estimated remaining duration = 0:11:17
MEMORY_USAGE:                  463.66015625 Mo
it =    839 ; t =      16.0038 ; deltat  =   0.012222
              energy = 1.590e+01 ; Delta energy = +8.350e-01
              estimated remaining duration = 0:11:32
MEMORY_USAGE:                  463.66015625 Mo
it =    921 ; t =      17.0009 ; deltat  =    0.01198
              energy = 1.668e+01 ; Delta energy = +7.743e-01
              estimated remaining duration = 0:11:48
MEMORY_USAGE:                  463.66015625 Mo
it =   1005 ; t =      18.0008 ; deltat  =   0.011744
              energy = 1.740e+01 ; Delta energy = +7.188e-01
              estimated remaining duration = 0:11:58
MEMORY_USAGE:                  463.859375 Mo
it =   1091 ; t =      19.0055 ; deltat  =   0.011513
              energy = 1.806e+01 ; Delta energy = +6.666e-01
              estimated remaining duration = 0:12:07
MEMORY_USAGE:                  463.86328125 Mo
it =   1178 ; t =       20.006 ; deltat  =   0.011287
              energy = 1.867e+01 ; Delta energy = +6.113e-01
              estimated remaining duration = 0:12:15
MEMORY_USAGE:                  463.87109375 Mo
it =   1267 ; t =      21.0106 ; deltat  =   0.011287
              energy = 1.924e+01 ; Delta energy = +5.641e-01
              estimated remaining duration = 0:12:24
MEMORY_USAGE:                  463.87109375 Mo
it =   1356 ; t =      22.0023 ; deltat  =   0.011066
              energy = 1.975e+01 ; Delta energy = +5.112e-01
              estimated remaining duration = 0:12:31
MEMORY_USAGE:                  463.875 Mo
it =   1447 ; t =      23.0093 ; deltat  =   0.011066
              energy = 2.023e+01 ; Delta energy = +4.757e-01
              estimated remaining duration = 0:12:31
MEMORY_USAGE:                  463.90625 Mo
it =   1539 ; t =      24.0082 ; deltat  =   0.010848
              energy = 2.066e+01 ; Delta energy = +4.317e-01
              estimated remaining duration = 0:12:40
MEMORY_USAGE:                  463.90625 Mo
it =   1631 ; t =      25.0062 ; deltat  =   0.010848
              energy = 2.105e+01 ; Delta energy = +3.943e-01
              estimated remaining duration = 0:12:37
MEMORY_USAGE:                  464.29296875 Mo
it =   1725 ; t =      26.0086 ; deltat  =   0.010635
              energy = 2.141e+01 ; Delta energy = +3.617e-01
              estimated remaining duration = 0:12:46
MEMORY_USAGE:                  464.29296875 Mo
it =   1819 ; t =      27.0082 ; deltat  =   0.010635
              energy = 2.174e+01 ; Delta energy = +3.290e-01
              estimated remaining duration = 0:12:45
MEMORY_USAGE:                  465.2578125 Mo
it =   1913 ; t =      28.0052 ; deltat  =   0.010426
              energy = 2.204e+01 ; Delta energy = +2.991e-01
              estimated remaining duration = 0:12:39
MEMORY_USAGE:                  465.2578125 Mo
it =   2009 ; t =      29.0061 ; deltat  =   0.010426
              energy = 2.231e+01 ; Delta energy = +2.736e-01
              estimated remaining duration = 0:12:48
MEMORY_USAGE:                  465.2578125 Mo
it =   2105 ; t =      30.0069 ; deltat  =   0.010426
              energy = 2.256e+01 ; Delta energy = +2.490e-01
              estimated remaining duration = 0:12:43
MEMORY_USAGE:                  465.26171875 Mo
it =   2201 ; t =      31.0078 ; deltat  =   0.010426
              energy = 2.279e+01 ; Delta energy = +2.265e-01
              estimated remaining duration = 0:12:38
MEMORY_USAGE:                  465.26171875 Mo
it =   2297 ; t =      32.0034 ; deltat  =   0.010221
              energy = 2.300e+01 ; Delta energy = +2.049e-01
              estimated remaining duration = 0:12:38
MEMORY_USAGE:                  465.38671875 Mo
it =   2395 ; t =      33.0051 ; deltat  =   0.010221
              energy = 2.318e+01 ; Delta energy = +1.874e-01
              estimated remaining duration = 0:12:45
MEMORY_USAGE:                  465.38671875 Mo
it =   2493 ; t =      34.0067 ; deltat  =   0.010221
              energy = 2.335e+01 ; Delta energy = +1.702e-01
              estimated remaining duration = 0:12:39
MEMORY_USAGE:                  465.38671875 Mo
it =   2591 ; t =      35.0084 ; deltat  =   0.010221
              energy = 2.351e+01 ; Delta energy = +1.545e-01
              estimated remaining duration = 0:12:34
MEMORY_USAGE:                  465.38671875 Mo
it =   2689 ; t =      36.0101 ; deltat  =   0.010221
              energy = 2.365e+01 ; Delta energy = +1.402e-01
              estimated remaining duration = 0:12:30
MEMORY_USAGE:                  465.5234375 Mo
it =   2786 ; t =      37.0016 ; deltat  =   0.010221
              energy = 2.377e+01 ; Delta energy = +1.260e-01
              estimated remaining duration = 0:12:25
MEMORY_USAGE:                  465.5234375 Mo
it =   2884 ; t =      38.0033 ; deltat  =   0.010221
              energy = 2.389e+01 ; Delta energy = +1.155e-01
              estimated remaining duration = 0:12:20
MEMORY_USAGE:                  465.5234375 Mo
it =   2983 ; t =      39.0025 ; deltat  =   0.010021
              energy = 2.399e+01 ; Delta energy = +1.045e-01
              estimated remaining duration = 0:12:26
MEMORY_USAGE:                  465.5234375 Mo
it =   3083 ; t =      40.0046 ; deltat  =   0.010021
              energy = 2.409e+01 ; Delta energy = +9.504e-02
              estimated remaining duration = 0:12:26
MEMORY_USAGE:                  465.5234375 Mo
it =   3183 ; t =      41.0067 ; deltat  =   0.010021
              energy = 2.417e+01 ; Delta energy = +8.614e-02
              estimated remaining duration = 0:12:20
MEMORY_USAGE:                  465.5234375 Mo
it =   3283 ; t =      42.0088 ; deltat  =   0.010021
              energy = 2.425e+01 ; Delta energy = +7.806e-02
              estimated remaining duration = 0:12:14
MEMORY_USAGE:                  465.5234375 Mo
it =   3382 ; t =      43.0008 ; deltat  =   0.010021
              energy = 2.432e+01 ; Delta energy = +7.006e-02
              estimated remaining duration = 0:12:08
MEMORY_USAGE:                  465.5234375 Mo
it =   3482 ; t =      44.0029 ; deltat  =   0.010021
              energy = 2.439e+01 ; Delta energy = +6.414e-02
              estimated remaining duration = 0:12:02
MEMORY_USAGE:                  465.5234375 Mo
it =   3582 ; t =       45.005 ; deltat  =   0.010021
              energy = 2.445e+01 ; Delta energy = +5.810e-02
              estimated remaining duration = 0:11:57
MEMORY_USAGE:                  466.1171875 Mo
it =   3682 ; t =       46.007 ; deltat  =   0.010021
              energy = 2.450e+01 ; Delta energy = +5.262e-02
              estimated remaining duration = 0:11:50
MEMORY_USAGE:                  466.1171875 Mo
it =   3782 ; t =      47.0091 ; deltat  =   0.010021
              energy = 2.455e+01 ; Delta energy = +4.766e-02
              estimated remaining duration = 0:11:46
MEMORY_USAGE:                  466.18359375 Mo
it =   3881 ; t =      48.0012 ; deltat  =   0.010021
              energy = 2.459e+01 ; Delta energy = +4.274e-02
              estimated remaining duration = 0:11:40
MEMORY_USAGE:                  466.18359375 Mo
it =   3981 ; t =      49.0032 ; deltat  =   0.010021
              energy = 2.463e+01 ; Delta energy = +3.911e-02
              estimated remaining duration = 0:11:35
MEMORY_USAGE:                  466.18359375 Mo
it =   4081 ; t =      50.0053 ; deltat  =   0.010021
              energy = 2.466e+01 ; Delta energy = +3.541e-02
              estimated remaining duration = 0:11:31
MEMORY_USAGE:                  466.30859375 Mo
it =   4181 ; t =      51.0074 ; deltat  =   0.010021
              energy = 2.469e+01 ; Delta energy = +3.206e-02
              estimated remaining duration = 0:11:26
MEMORY_USAGE:                  466.30859375 Mo
it =   4281 ; t =      52.0095 ; deltat  =   0.010021
              energy = 2.472e+01 ; Delta energy = +2.902e-02
              estimated remaining duration = 0:11:23
MEMORY_USAGE:                  466.33984375 Mo
it =   4380 ; t =      53.0015 ; deltat  =   0.010021
              energy = 2.475e+01 ; Delta energy = +2.602e-02
              estimated remaining duration = 0:11:17
MEMORY_USAGE:                  466.33984375 Mo
it =   4480 ; t =      54.0036 ; deltat  =   0.010021
              energy = 2.477e+01 ; Delta energy = +2.380e-02
              estimated remaining duration = 0:11:13
MEMORY_USAGE:                  466.33984375 Mo
it =   4580 ; t =      55.0056 ; deltat  =   0.010021
              energy = 2.480e+01 ; Delta energy = +2.154e-02
              estimated remaining duration = 0:11:08
MEMORY_USAGE:                  466.33984375 Mo
it =   4680 ; t =      56.0077 ; deltat  =   0.010021
              energy = 2.481e+01 ; Delta energy = +1.949e-02
              estimated remaining duration = 0:11:04
MEMORY_USAGE:                  466.33984375 Mo
it =   4780 ; t =      57.0098 ; deltat  =   0.010021
              energy = 2.483e+01 ; Delta energy = +1.764e-02
              estimated remaining duration = 0:10:59
MEMORY_USAGE:                  466.33984375 Mo
it =   4879 ; t =      58.0018 ; deltat  =   0.010021
              energy = 2.485e+01 ; Delta energy = +1.581e-02
              estimated remaining duration = 0:10:55
MEMORY_USAGE:                  466.33984375 Mo
it =   4979 ; t =      59.0039 ; deltat  =   0.010021
              energy = 2.486e+01 ; Delta energy = +1.446e-02
              estimated remaining duration = 0:10:50
MEMORY_USAGE:                  466.33984375 Mo
it =   5079 ; t =       60.006 ; deltat  =   0.010021
              energy = 2.488e+01 ; Delta energy = +1.309e-02
              estimated remaining duration = 0:10:45
MEMORY_USAGE:                  466.33984375 Mo
it =   5179 ; t =      61.0081 ; deltat  =   0.010021
              energy = 2.489e+01 ; Delta energy = +1.184e-02
              estimated remaining duration = 0:10:41
MEMORY_USAGE:                  466.33984375 Mo
it =   5278 ; t =      62.0001 ; deltat  =   0.010021
              energy = 2.490e+01 ; Delta energy = +1.061e-02
              estimated remaining duration = 0:10:36
MEMORY_USAGE:                  466.33984375 Mo
it =   5378 ; t =      63.0022 ; deltat  =   0.010021
              energy = 2.491e+01 ; Delta energy = +9.705e-03
              estimated remaining duration = 0:10:31
MEMORY_USAGE:                  466.33984375 Mo
it =   5478 ; t =      64.0043 ; deltat  =   0.010021
              energy = 2.492e+01 ; Delta energy = +8.782e-03
              estimated remaining duration = 0:10:27
MEMORY_USAGE:                  466.33984375 Mo
it =   5578 ; t =      65.0063 ; deltat  =   0.010021
              energy = 2.492e+01 ; Delta energy = +7.946e-03
              estimated remaining duration = 0:10:22
MEMORY_USAGE:                  466.33984375 Mo
it =   5678 ; t =      66.0084 ; deltat  =   0.010021
              energy = 2.493e+01 ; Delta energy = +7.189e-03
              estimated remaining duration = 0:10:18
MEMORY_USAGE:                  466.33984375 Mo
it =   5777 ; t =      67.0005 ; deltat  =   0.010021
              energy = 2.494e+01 ; Delta energy = +6.443e-03
              estimated remaining duration = 0:10:13
MEMORY_USAGE:                  466.33984375 Mo
it =   5877 ; t =      68.0025 ; deltat  =   0.010021
              energy = 2.494e+01 ; Delta energy = +5.891e-03
              estimated remaining duration = 0:10:08
MEMORY_USAGE:                  466.33984375 Mo
it =   5977 ; t =      69.0046 ; deltat  =   0.010021
              energy = 2.495e+01 ; Delta energy = +5.330e-03
              estimated remaining duration = 0:10:04
MEMORY_USAGE:                  466.33984375 Mo
it =   6077 ; t =      70.0067 ; deltat  =   0.010021
              energy = 2.495e+01 ; Delta energy = +4.822e-03
              estimated remaining duration = 0:09:59
MEMORY_USAGE:                  466.33984375 Mo
it =   6177 ; t =      71.0088 ; deltat  =   0.010021
              energy = 2.496e+01 ; Delta energy = +4.363e-03
              estimated remaining duration = 0:09:54
MEMORY_USAGE:                  466.33984375 Mo
it =   6276 ; t =      72.0008 ; deltat  =   0.010021
              energy = 2.496e+01 ; Delta energy = +3.910e-03
              estimated remaining duration = 0:09:50
MEMORY_USAGE:                  466.33984375 Mo
it =   6378 ; t =      73.0062 ; deltat  =  0.0098242
              energy = 2.497e+01 ; Delta energy = +3.586e-03
              estimated remaining duration = 0:09:55
MEMORY_USAGE:                  466.33984375 Mo
it =   6480 ; t =      74.0083 ; deltat  =  0.0098242
              energy = 2.497e+01 ; Delta energy = +3.233e-03
              estimated remaining duration = 0:09:52
MEMORY_USAGE:                  466.33984375 Mo
it =   6581 ; t =      75.0005 ; deltat  =  0.0098242
              energy = 2.497e+01 ; Delta energy = +2.898e-03
              estimated remaining duration = 0:09:48
MEMORY_USAGE:                  466.33984375 Mo
it =   6683 ; t =      76.0026 ; deltat  =  0.0098242
              energy = 2.497e+01 ; Delta energy = +2.649e-03
              estimated remaining duration = 0:09:43
MEMORY_USAGE:                  466.33984375 Mo
it =   6785 ; t =      77.0047 ; deltat  =  0.0098242
              energy = 2.498e+01 ; Delta energy = +2.396e-03
              estimated remaining duration = 0:09:38
MEMORY_USAGE:                  466.33984375 Mo
it =   6887 ; t =      78.0068 ; deltat  =  0.0098242
              energy = 2.498e+01 ; Delta energy = +2.168e-03
              estimated remaining duration = 0:09:33
MEMORY_USAGE:                  466.33984375 Mo
it =   6989 ; t =      79.0088 ; deltat  =  0.0098242
              energy = 2.498e+01 ; Delta energy = +1.961e-03
              estimated remaining duration = 0:09:29
MEMORY_USAGE:                  466.33984375 Mo
it =   7090 ; t =      80.0011 ; deltat  =  0.0098242
              energy = 2.498e+01 ; Delta energy = +1.758e-03
              estimated remaining duration = 0:09:24
MEMORY_USAGE:                  466.33984375 Mo
it =   7192 ; t =      81.0031 ; deltat  =  0.0098242
              energy = 2.498e+01 ; Delta energy = +1.607e-03
              estimated remaining duration = 0:09:19
MEMORY_USAGE:                  466.33984375 Mo
it =   7294 ; t =      82.0052 ; deltat  =  0.0098242
              energy = 2.499e+01 ; Delta energy = +1.454e-03
              estimated remaining duration = 0:09:15
MEMORY_USAGE:                  466.33984375 Mo
it =   7396 ; t =      83.0073 ; deltat  =  0.0098242
              energy = 2.499e+01 ; Delta energy = +1.315e-03
              estimated remaining duration = 0:09:10
MEMORY_USAGE:                  466.33984375 Mo
it =   7498 ; t =      84.0094 ; deltat  =  0.0098242
              energy = 2.499e+01 ; Delta energy = +1.190e-03
              estimated remaining duration = 0:09:05
MEMORY_USAGE:                  466.33984375 Mo
it =   7599 ; t =      85.0016 ; deltat  =  0.0098242
              energy = 2.499e+01 ; Delta energy = +1.066e-03
              estimated remaining duration = 0:09:00
MEMORY_USAGE:                  466.33984375 Mo
it =   7701 ; t =      86.0037 ; deltat  =  0.0098242
              energy = 2.499e+01 ; Delta energy = +9.747e-04
              estimated remaining duration = 0:08:56
MEMORY_USAGE:                  466.33984375 Mo
it =   7803 ; t =      87.0058 ; deltat  =  0.0098242
              energy = 2.499e+01 ; Delta energy = +8.817e-04
              estimated remaining duration = 0:08:51
MEMORY_USAGE:                  466.33984375 Mo
it =   7905 ; t =      88.0078 ; deltat  =  0.0098242
              energy = 2.499e+01 ; Delta energy = +7.977e-04
              estimated remaining duration = 0:08:46
MEMORY_USAGE:                  466.33984375 Mo
it =   8006 ; t =      89.0001 ; deltat  =  0.0098242
              energy = 2.499e+01 ; Delta energy = +7.149e-04
              estimated remaining duration = 0:08:42
MEMORY_USAGE:                  466.33984375 Mo
it =   8108 ; t =      90.0021 ; deltat  =  0.0098242
              energy = 2.499e+01 ; Delta energy = +6.535e-04
              estimated remaining duration = 0:08:37
MEMORY_USAGE:                  466.33984375 Mo
it =   8210 ; t =      91.0042 ; deltat  =  0.0098242
              energy = 2.499e+01 ; Delta energy = +5.912e-04
              estimated remaining duration = 0:08:32
MEMORY_USAGE:                  466.33984375 Mo
it =   8312 ; t =      92.0063 ; deltat  =  0.0098242
              energy = 2.499e+01 ; Delta energy = +5.348e-04
              estimated remaining duration = 0:08:28
MEMORY_USAGE:                  466.33984375 Mo
it =   8414 ; t =      93.0084 ; deltat  =  0.0098242
              energy = 2.500e+01 ; Delta energy = +4.838e-04
              estimated remaining duration = 0:08:23
MEMORY_USAGE:                  466.33984375 Mo
it =   8515 ; t =      94.0006 ; deltat  =  0.0098242
              energy = 2.500e+01 ; Delta energy = +4.336e-04
              estimated remaining duration = 0:08:19
MEMORY_USAGE:                  466.33984375 Mo
it =   8617 ; t =      95.0027 ; deltat  =  0.0098242
              energy = 2.500e+01 ; Delta energy = +3.964e-04
              estimated remaining duration = 0:08:14
MEMORY_USAGE:                  466.33984375 Mo
it =   8719 ; t =      96.0048 ; deltat  =  0.0098242
              energy = 2.500e+01 ; Delta energy = +3.586e-04
              estimated remaining duration = 0:08:09
MEMORY_USAGE:                  466.33984375 Mo
it =   8821 ; t =      97.0068 ; deltat  =  0.0098242
              energy = 2.500e+01 ; Delta energy = +3.244e-04
              estimated remaining duration = 0:08:04
MEMORY_USAGE:                  466.33984375 Mo
it =   8923 ; t =      98.0089 ; deltat  =  0.0098242
              energy = 2.500e+01 ; Delta energy = +2.935e-04
              estimated remaining duration = 0:08:00
MEMORY_USAGE:                  466.33984375 Mo
it =   9024 ; t =      99.0011 ; deltat  =  0.0098242
              energy = 2.500e+01 ; Delta energy = +2.630e-04
              estimated remaining duration = 0:07:55
MEMORY_USAGE:                  466.33984375 Mo
it =   9126 ; t =      100.003 ; deltat  =  0.0098242
              energy = 2.500e+01 ; Delta energy = +2.404e-04
              estimated remaining duration = 0:07:50
MEMORY_USAGE:                  466.33984375 Mo
it =   9228 ; t =      101.005 ; deltat  =  0.0098242
              energy = 2.500e+01 ; Delta energy = +2.175e-04
              estimated remaining duration = 0:07:45
MEMORY_USAGE:                  466.33984375 Mo
it =   9330 ; t =      102.007 ; deltat  =  0.0098242
              energy = 2.500e+01 ; Delta energy = +1.967e-04
              estimated remaining duration = 0:07:41
MEMORY_USAGE:                  466.33984375 Mo
it =   9432 ; t =      103.009 ; deltat  =  0.0098242
              energy = 2.500e+01 ; Delta energy = +1.780e-04
              estimated remaining duration = 0:07:36
MEMORY_USAGE:                  466.33984375 Mo
it =   9533 ; t =      104.002 ; deltat  =  0.0098242
              energy = 2.500e+01 ; Delta energy = +1.595e-04
              estimated remaining duration = 0:07:31
MEMORY_USAGE:                  466.33984375 Mo
it =   9635 ; t =      105.004 ; deltat  =  0.0098242
              energy = 2.500e+01 ; Delta energy = +1.458e-04
              estimated remaining duration = 0:07:27
MEMORY_USAGE:                  466.33984375 Mo
it =   9737 ; t =      106.006 ; deltat  =  0.0098242
              energy = 2.500e+01 ; Delta energy = +1.319e-04
              estimated remaining duration = 0:07:22
MEMORY_USAGE:                  466.33984375 Mo
it =   9839 ; t =      107.008 ; deltat  =  0.0098242
              energy = 2.500e+01 ; Delta energy = +1.193e-04
              estimated remaining duration = 0:07:17
MEMORY_USAGE:                  466.33984375 Mo
it =   9940 ; t =          108 ; deltat  =  0.0098242
              energy = 2.500e+01 ; Delta energy = +1.069e-04
              estimated remaining duration = 0:07:12
MEMORY_USAGE:                  466.33984375 Mo
it =  10042 ; t =      109.002 ; deltat  =  0.0098242
              energy = 2.500e+01 ; Delta energy = +9.775e-05
              estimated remaining duration = 0:07:08
MEMORY_USAGE:                  466.33984375 Mo
it =  10144 ; t =      110.004 ; deltat  =  0.0098242
              energy = 2.500e+01 ; Delta energy = +8.843e-05
              estimated remaining duration = 0:07:03
MEMORY_USAGE:                  466.33984375 Mo
it =  10246 ; t =      111.006 ; deltat  =  0.0098242
              energy = 2.500e+01 ; Delta energy = +8.000e-05
              estimated remaining duration = 0:06:58
MEMORY_USAGE:                  466.33984375 Mo
it =  10348 ; t =      112.008 ; deltat  =  0.0098242
              energy = 2.500e+01 ; Delta energy = +7.237e-05
              estimated remaining duration = 0:06:54
MEMORY_USAGE:                  466.33984375 Mo
it =  10449 ; t =      113.001 ; deltat  =  0.0098242
              energy = 2.500e+01 ; Delta energy = +6.486e-05
              estimated remaining duration = 0:06:49
MEMORY_USAGE:                  466.33984375 Mo
it =  10551 ; t =      114.003 ; deltat  =  0.0098242
              energy = 2.500e+01 ; Delta energy = +5.929e-05
              estimated remaining duration = 0:06:44
MEMORY_USAGE:                  466.33984375 Mo
it =  10653 ; t =      115.005 ; deltat  =  0.0098242
              energy = 2.500e+01 ; Delta energy = +5.363e-05
              estimated remaining duration = 0:06:40
MEMORY_USAGE:                  466.33984375 Mo
it =  10755 ; t =      116.007 ; deltat  =  0.0098242
              energy = 2.500e+01 ; Delta energy = +4.852e-05
              estimated remaining duration = 0:06:35
MEMORY_USAGE:                  466.33984375 Mo
it =  10857 ; t =      117.009 ; deltat  =  0.0098242
              energy = 2.500e+01 ; Delta energy = +4.389e-05
              estimated remaining duration = 0:06:30
MEMORY_USAGE:                  466.33984375 Mo
it =  10958 ; t =      118.001 ; deltat  =  0.0098242
              energy = 2.500e+01 ; Delta energy = +3.934e-05
              estimated remaining duration = 0:06:25
MEMORY_USAGE:                  466.33984375 Mo
it =  11060 ; t =      119.003 ; deltat  =  0.0098242
              energy = 2.500e+01 ; Delta energy = +3.596e-05
              estimated remaining duration = 0:06:21
MEMORY_USAGE:                  466.33984375 Mo
it =  11162 ; t =      120.005 ; deltat  =  0.0098242
              energy = 2.500e+01 ; Delta energy = +3.253e-05
              estimated remaining duration = 0:06:16
MEMORY_USAGE:                  466.33984375 Mo
it =  11264 ; t =      121.007 ; deltat  =  0.0098242
              energy = 2.500e+01 ; Delta energy = +2.943e-05
              estimated remaining duration = 0:06:11
MEMORY_USAGE:                  466.33984375 Mo
it =  11366 ; t =       122.01 ; deltat  =  0.0098242
              energy = 2.500e+01 ; Delta energy = +2.662e-05
              estimated remaining duration = 0:06:07
MEMORY_USAGE:                  466.33984375 Mo
it =  11467 ; t =      123.002 ; deltat  =  0.0098242
              energy = 2.500e+01 ; Delta energy = +2.386e-05
              estimated remaining duration = 0:06:02
MEMORY_USAGE:                  466.33984375 Mo
it =  11569 ; t =      124.004 ; deltat  =  0.0098242
              energy = 2.500e+01 ; Delta energy = +2.181e-05
              estimated remaining duration = 0:05:57
MEMORY_USAGE:                  466.33984375 Mo
it =  11671 ; t =      125.006 ; deltat  =  0.0098242
              energy = 2.500e+01 ; Delta energy = +1.973e-05
              estimated remaining duration = 0:05:52
MEMORY_USAGE:                  466.33984375 Mo
it =  11773 ; t =      126.008 ; deltat  =  0.0098242
              energy = 2.500e+01 ; Delta energy = +1.785e-05
              estimated remaining duration = 0:05:48
MEMORY_USAGE:                  466.33984375 Mo
it =  11874 ; t =          127 ; deltat  =  0.0098242
              energy = 2.500e+01 ; Delta energy = +1.600e-05
              estimated remaining duration = 0:05:43
MEMORY_USAGE:                  466.33984375 Mo
it =  11976 ; t =      128.002 ; deltat  =  0.0098242
              energy = 2.500e+01 ; Delta energy = +1.462e-05
              estimated remaining duration = 0:05:38
MEMORY_USAGE:                  466.33984375 Mo
it =  12078 ; t =      129.004 ; deltat  =  0.0098242
              energy = 2.500e+01 ; Delta energy = +1.323e-05
              estimated remaining duration = 0:05:34
MEMORY_USAGE:                  466.33984375 Mo
it =  12180 ; t =      130.006 ; deltat  =  0.0098242
              energy = 2.500e+01 ; Delta energy = +1.197e-05
              estimated remaining duration = 0:05:29
MEMORY_USAGE:                  466.33984375 Mo
it =  12282 ; t =      131.009 ; deltat  =  0.0098242
              energy = 2.500e+01 ; Delta energy = +1.082e-05
              estimated remaining duration = 0:05:24
MEMORY_USAGE:                  466.33984375 Mo
it =  12383 ; t =      132.001 ; deltat  =  0.0098242
              energy = 2.500e+01 ; Delta energy = +9.701e-06
              estimated remaining duration = 0:05:20
MEMORY_USAGE:                  466.33984375 Mo
it =  12485 ; t =      133.003 ; deltat  =  0.0098242
              energy = 2.500e+01 ; Delta energy = +8.867e-06
              estimated remaining duration = 0:05:15
MEMORY_USAGE:                  466.33984375 Mo
it =  12587 ; t =      134.005 ; deltat  =  0.0098242
              energy = 2.500e+01 ; Delta energy = +8.022e-06
              estimated remaining duration = 0:05:10
MEMORY_USAGE:                  466.33984375 Mo
it =  12689 ; t =      135.007 ; deltat  =  0.0098242
              energy = 2.500e+01 ; Delta energy = +7.257e-06
              estimated remaining duration = 0:05:06
MEMORY_USAGE:                  466.33984375 Mo
it =  12791 ; t =      136.009 ; deltat  =  0.0098242
              energy = 2.500e+01 ; Delta energy = +6.565e-06
              estimated remaining duration = 0:05:01
MEMORY_USAGE:                  466.33984375 Mo
it =  12892 ; t =      137.001 ; deltat  =  0.0098242
              energy = 2.500e+01 ; Delta energy = +5.884e-06
              estimated remaining duration = 0:04:56
MEMORY_USAGE:                  466.33984375 Mo
it =  12994 ; t =      138.003 ; deltat  =  0.0098242
              energy = 2.500e+01 ; Delta energy = +5.378e-06
              estimated remaining duration = 0:04:51
MEMORY_USAGE:                  466.33984375 Mo
it =  13096 ; t =      139.005 ; deltat  =  0.0098242
              energy = 2.500e+01 ; Delta energy = +4.865e-06
              estimated remaining duration = 0:04:47
MEMORY_USAGE:                  466.33984375 Mo
it =  13198 ; t =      140.008 ; deltat  =  0.0098242
              energy = 2.500e+01 ; Delta energy = +4.401e-06
              estimated remaining duration = 0:04:42
MEMORY_USAGE:                  466.33984375 Mo
it =  13300 ; t =       141.01 ; deltat  =  0.0098242
              energy = 2.500e+01 ; Delta energy = +3.982e-06
              estimated remaining duration = 0:04:37
MEMORY_USAGE:                  466.33984375 Mo
it =  13401 ; t =      142.002 ; deltat  =  0.0098242
              energy = 2.500e+01 ; Delta energy = +3.568e-06
              estimated remaining duration = 0:04:33
MEMORY_USAGE:                  466.33984375 Mo
it =  13503 ; t =      143.004 ; deltat  =  0.0098242
              energy = 2.500e+01 ; Delta energy = +3.262e-06
              estimated remaining duration = 0:04:28
MEMORY_USAGE:                  466.33984375 Mo
it =  13605 ; t =      144.006 ; deltat  =  0.0098242
              energy = 2.500e+01 ; Delta energy = +2.951e-06
              estimated remaining duration = 0:04:23
MEMORY_USAGE:                  466.33984375 Mo
it =  13707 ; t =      145.008 ; deltat  =  0.0098242
              energy = 2.500e+01 ; Delta energy = +2.669e-06
              estimated remaining duration = 0:04:19
MEMORY_USAGE:                  466.33984375 Mo
it =  13808 ; t =          146 ; deltat  =  0.0098242
              energy = 2.500e+01 ; Delta energy = +2.392e-06
              estimated remaining duration = 0:04:14
MEMORY_USAGE:                  466.33984375 Mo
it =  13910 ; t =      147.002 ; deltat  =  0.0098242
              energy = 2.500e+01 ; Delta energy = +2.187e-06
              estimated remaining duration = 0:04:09
MEMORY_USAGE:                  466.33984375 Mo
it =  14012 ; t =      148.004 ; deltat  =  0.0098242
              energy = 2.500e+01 ; Delta energy = +1.978e-06
              estimated remaining duration = 0:04:04
MEMORY_USAGE:                  466.33984375 Mo
it =  14114 ; t =      149.007 ; deltat  =  0.0098242
              energy = 2.500e+01 ; Delta energy = +1.790e-06
              estimated remaining duration = 0:04:00
MEMORY_USAGE:                  466.33984375 Mo
it =  14216 ; t =      150.009 ; deltat  =  0.0098242
              energy = 2.500e+01 ; Delta energy = +1.619e-06
              estimated remaining duration = 0:03:55
MEMORY_USAGE:                  466.33984375 Mo
it =  14317 ; t =      151.001 ; deltat  =  0.0098242
              energy = 2.500e+01 ; Delta energy = +1.451e-06
              estimated remaining duration = 0:03:50
MEMORY_USAGE:                  466.33984375 Mo
it =  14419 ; t =      152.003 ; deltat  =  0.0098242
              energy = 2.500e+01 ; Delta energy = +1.326e-06
              estimated remaining duration = 0:03:46
MEMORY_USAGE:                  466.33984375 Mo
it =  14521 ; t =      153.005 ; deltat  =  0.0098242
              energy = 2.500e+01 ; Delta energy = +1.200e-06
              estimated remaining duration = 0:03:41
MEMORY_USAGE:                  466.33984375 Mo
it =  14623 ; t =      154.007 ; deltat  =  0.0098242
              energy = 2.500e+01 ; Delta energy = +1.085e-06
              estimated remaining duration = 0:03:36
MEMORY_USAGE:                  466.33984375 Mo
it =  14725 ; t =      155.009 ; deltat  =  0.0098242
              energy = 2.500e+01 ; Delta energy = +9.819e-07
              estimated remaining duration = 0:03:31
MEMORY_USAGE:                  466.33984375 Mo
it =  14826 ; t =      156.001 ; deltat  =  0.0098242
              energy = 2.500e+01 ; Delta energy = +8.800e-07
              estimated remaining duration = 0:03:27
MEMORY_USAGE:                  466.33984375 Mo
it =  14928 ; t =      157.003 ; deltat  =  0.0098242
              energy = 2.500e+01 ; Delta energy = +8.044e-07
              estimated remaining duration = 0:03:22
MEMORY_USAGE:                  466.33984375 Mo
it =  15030 ; t =      158.006 ; deltat  =  0.0098242
              energy = 2.500e+01 ; Delta energy = +7.277e-07
              estimated remaining duration = 0:03:17
MEMORY_USAGE:                  466.33984375 Mo
it =  15132 ; t =      159.008 ; deltat  =  0.0098242
              energy = 2.500e+01 ; Delta energy = +6.583e-07
              estimated remaining duration = 0:03:13
MEMORY_USAGE:                  466.33984375 Mo
it =  15234 ; t =       160.01 ; deltat  =  0.0098242
              energy = 2.500e+01 ; Delta energy = +5.955e-07
              estimated remaining duration = 0:03:08
MEMORY_USAGE:                  466.33984375 Mo
it =  15335 ; t =      161.002 ; deltat  =  0.0098242
              energy = 2.500e+01 ; Delta energy = +5.337e-07
              estimated remaining duration = 0:03:03
MEMORY_USAGE:                  466.33984375 Mo
it =  15437 ; t =      162.004 ; deltat  =  0.0098242
              energy = 2.500e+01 ; Delta energy = +4.879e-07
              estimated remaining duration = 0:02:59
MEMORY_USAGE:                  466.33984375 Mo
it =  15539 ; t =      163.006 ; deltat  =  0.0098242
              energy = 2.500e+01 ; Delta energy = +4.413e-07
              estimated remaining duration = 0:02:54
MEMORY_USAGE:                  466.33984375 Mo
it =  15641 ; t =      164.008 ; deltat  =  0.0098242
              energy = 2.500e+01 ; Delta energy = +3.993e-07
              estimated remaining duration = 0:02:49
MEMORY_USAGE:                  466.33984375 Mo
it =  15742 ; t =          165 ; deltat  =  0.0098242
              energy = 2.500e+01 ; Delta energy = +3.578e-07
              estimated remaining duration = 0:02:44
MEMORY_USAGE:                  466.33984375 Mo
it =  15844 ; t =      166.002 ; deltat  =  0.0098242
              energy = 2.500e+01 ; Delta energy = +3.271e-07
              estimated remaining duration = 0:02:40
MEMORY_USAGE:                  466.33984375 Mo
it =  15946 ; t =      167.005 ; deltat  =  0.0098242
              energy = 2.500e+01 ; Delta energy = +2.959e-07
              estimated remaining duration = 0:02:35
MEMORY_USAGE:                  466.33984375 Mo
it =  16048 ; t =      168.007 ; deltat  =  0.0098242
              energy = 2.500e+01 ; Delta energy = +2.677e-07
              estimated remaining duration = 0:02:30
MEMORY_USAGE:                  466.33984375 Mo
it =  16150 ; t =      169.009 ; deltat  =  0.0098242
              energy = 2.500e+01 ; Delta energy = +2.421e-07
              estimated remaining duration = 0:02:26
MEMORY_USAGE:                  466.33984375 Mo
it =  16251 ; t =      170.001 ; deltat  =  0.0098242
              energy = 2.500e+01 ; Delta energy = +2.170e-07
              estimated remaining duration = 0:02:21
MEMORY_USAGE:                  466.33984375 Mo
it =  16353 ; t =      171.003 ; deltat  =  0.0098242
              energy = 2.500e+01 ; Delta energy = +1.984e-07
              estimated remaining duration = 0:02:16
MEMORY_USAGE:                  466.33984375 Mo
it =  16455 ; t =      172.005 ; deltat  =  0.0098242
              energy = 2.500e+01 ; Delta energy = +1.795e-07
              estimated remaining duration = 0:02:12
MEMORY_USAGE:                  466.33984375 Mo
it =  16557 ; t =      173.007 ; deltat  =  0.0098242
              energy = 2.500e+01 ; Delta energy = +1.623e-07
              estimated remaining duration = 0:02:07
MEMORY_USAGE:                  466.33984375 Mo
it =  16659 ; t =      174.009 ; deltat  =  0.0098242
              energy = 2.500e+01 ; Delta energy = +1.469e-07
              estimated remaining duration = 0:02:02
MEMORY_USAGE:                  466.33984375 Mo
it =  16760 ; t =      175.001 ; deltat  =  0.0098242
              energy = 2.500e+01 ; Delta energy = +1.316e-07
              estimated remaining duration = 0:01:57
MEMORY_USAGE:                  466.33984375 Mo
it =  16862 ; t =      176.004 ; deltat  =  0.0098242
              energy = 2.500e+01 ; Delta energy = +1.203e-07
              estimated remaining duration = 0:01:53
MEMORY_USAGE:                  466.33984375 Mo
it =  16964 ; t =      177.006 ; deltat  =  0.0098242
              energy = 2.500e+01 ; Delta energy = +1.088e-07
              estimated remaining duration = 0:01:48
MEMORY_USAGE:                  466.33984375 Mo
it =  17066 ; t =      178.008 ; deltat  =  0.0098242
              energy = 2.500e+01 ; Delta energy = +9.846e-08
              estimated remaining duration = 0:01:43
MEMORY_USAGE:                  466.33984375 Mo
it =  17168 ; t =       179.01 ; deltat  =  0.0098242
              energy = 2.500e+01 ; Delta energy = +8.907e-08
              estimated remaining duration = 0:01:39
MEMORY_USAGE:                  466.33984375 Mo
it =  17269 ; t =      180.002 ; deltat  =  0.0098242
              energy = 2.500e+01 ; Delta energy = +7.983e-08
              estimated remaining duration = 0:01:34
MEMORY_USAGE:                  466.33984375 Mo
it =  17371 ; t =      181.004 ; deltat  =  0.0098242
              energy = 2.500e+01 ; Delta energy = +7.297e-08
              estimated remaining duration = 0:01:29
MEMORY_USAGE:                  466.33984375 Mo
it =  17473 ; t =      182.006 ; deltat  =  0.0098242
              energy = 2.500e+01 ; Delta energy = +6.601e-08
              estimated remaining duration = 0:01:25
MEMORY_USAGE:                  466.33984375 Mo
it =  17575 ; t =      183.008 ; deltat  =  0.0098242
              energy = 2.500e+01 ; Delta energy = +5.972e-08
              estimated remaining duration = 0:01:20
MEMORY_USAGE:                  466.33984375 Mo
it =  17676 ; t =          184 ; deltat  =  0.0098242
              energy = 2.500e+01 ; Delta energy = +5.352e-08
              estimated remaining duration = 0:01:15
MEMORY_USAGE:                  466.33984375 Mo
it =  17778 ; t =      185.003 ; deltat  =  0.0098242
              energy = 2.500e+01 ; Delta energy = +4.892e-08
              estimated remaining duration = 0:01:10
MEMORY_USAGE:                  466.33984375 Mo
it =  17880 ; t =      186.005 ; deltat  =  0.0098242
              energy = 2.500e+01 ; Delta energy = +4.425e-08
              estimated remaining duration = 0:01:06
MEMORY_USAGE:                  466.33984375 Mo
it =  17982 ; t =      187.007 ; deltat  =  0.0098242
              energy = 2.500e+01 ; Delta energy = +4.003e-08
              estimated remaining duration = 0:01:01
MEMORY_USAGE:                  466.33984375 Mo
it =  18084 ; t =      188.009 ; deltat  =  0.0098242
              energy = 2.500e+01 ; Delta energy = +3.622e-08
              estimated remaining duration = 0:00:56
MEMORY_USAGE:                  466.33984375 Mo
it =  18185 ; t =      189.001 ; deltat  =  0.0098242
              energy = 2.500e+01 ; Delta energy = +3.246e-08
              estimated remaining duration = 0:00:52
MEMORY_USAGE:                  466.33984375 Mo
it =  18287 ; t =      190.003 ; deltat  =  0.0098242
              energy = 2.500e+01 ; Delta energy = +2.967e-08
              estimated remaining duration = 0:00:47
MEMORY_USAGE:                  466.33984375 Mo
it =  18389 ; t =      191.005 ; deltat  =  0.0098242
              energy = 2.500e+01 ; Delta energy = +2.684e-08
              estimated remaining duration = 0:00:42
MEMORY_USAGE:                  466.33984375 Mo
it =  18491 ; t =      192.007 ; deltat  =  0.0098242
              energy = 2.500e+01 ; Delta energy = +2.428e-08
              estimated remaining duration = 0:00:38
MEMORY_USAGE:                  466.33984375 Mo
it =  18593 ; t =      193.009 ; deltat  =  0.0098242
              energy = 2.500e+01 ; Delta energy = +2.197e-08
              estimated remaining duration = 0:00:33
MEMORY_USAGE:                  466.33984375 Mo
it =  18694 ; t =      194.002 ; deltat  =  0.0098242
              energy = 2.500e+01 ; Delta energy = +1.969e-08
              estimated remaining duration = 0:00:28
MEMORY_USAGE:                  466.33984375 Mo
it =  18796 ; t =      195.004 ; deltat  =  0.0098242
              energy = 2.500e+01 ; Delta energy = +1.799e-08
              estimated remaining duration = 0:00:23
MEMORY_USAGE:                  466.33984375 Mo
it =  18898 ; t =      196.006 ; deltat  =  0.0098242
              energy = 2.500e+01 ; Delta energy = +1.628e-08
              estimated remaining duration = 0:00:19
MEMORY_USAGE:                  466.33984375 Mo
it =  19000 ; t =      197.008 ; deltat  =  0.0098242
              energy = 2.500e+01 ; Delta energy = +1.473e-08
              estimated remaining duration = 0:00:14
MEMORY_USAGE:                  466.33984375 Mo
it =  19102 ; t =       198.01 ; deltat  =  0.0098242
              energy = 2.500e+01 ; Delta energy = +1.332e-08
              estimated remaining duration = 0:00:09
MEMORY_USAGE:                  466.33984375 Mo
it =  19203 ; t =      199.002 ; deltat  =  0.0098242
              energy = 2.500e+01 ; Delta energy = +1.194e-08
              estimated remaining duration = 0:00:05
MEMORY_USAGE:                  466.33984375 Mo
it =  19305 ; t =      200.004 ; deltat  =  0.0098242
              energy = 2.500e+01 ; Delta energy = +1.091e-08

MEMORY_USAGE:                  466.33984375 Mo
save state_phys in file state_phys_t00200.004.h5
Computation completed in  893.963 s
path_run =
/HA/sources/stg3/Sim_data/examples/ns3d_kolmo_64x64x64_V2pix2pix2pi_2022-12-02_03-40-17

To visualize the results, you can do:
cd /HA/sources/stg3/Sim_data/examples/ns3d_kolmo_64x64x64_V2pix2pix2pi_2022-12-02_03-40-17; fluidsim-ipy-load

sim.output.spatial_means.plot()

sim.output.phys_fields.set_equation_crosssection("y=0")
sim.output.phys_fields.animate('vx', dt_frame_in_sec=0.3, dt_equations=0.25)

tmin = 15
sim.output.horiz_means.plot(tmax=tmin)
sim.output.horiz_means.plot(tmin=tmin)

sim.output.spectra.plot1d(coef_compensate=5/3, tmin=tmin)
sim.output.spect_energy_budg.plot_fluxes(tmin=tmin)

