[31mWARNING [0m Module                                                                 
         [35m/HA/sources/stg3/mambaforge/envs/env_fluidsim/lib/python3.10/site-packa[0m
         [35mges/fluidsim/base/output/[0m[95mspatiotemporal_spectra.py[0m has not been        
         compiled for Transonic-Pythran                                         
[31mWARNING [0m Module                                                                 
         [35m/HA/sources/stg3/mambaforge/envs/env_fluidsim/lib/python3.10/site-packa[0m
         [35mges/fluidsim/base/output/[0m[95mspatiotemporal_spectra.py[0m has not been        
         compiled for Transonic-Pythran                                         
params.nu_2 = 1.00e-01

--------
nb_proc: 2
N0 = 16 ; N1 = 16 ; N2 = 16
Initialization (FFT3DMPIWithFFTWMPI3D) done in 0.010109 s
*************************************
Program fluidsim
sim:                <class 'fluidsim_core.extend_simul.extend_simul_class.<locals>.NewSimul'>
sim.output:         <class 'fluidsim.solvers.ns3d.output.Output'>
sim.oper:           <class 'fluidsim.operators.operators3d.OperatorsPseudoSpectral3D'>
sim.state:          <class 'fluidsim.solvers.ns3d.state.StateNS3D'>
sim.time_stepping:  <class 'fluidsim.solvers.ns3d.time_stepping.TimeSteppingPseudoSpectralNS3D'>
sim.init_fields:    <class 'fluidsim.solvers.ns3d.init_fields.InitFieldsNS3D'>
sim.forcing:        <class 'fluidsim.solvers.ns3d.forcing.ForcingNS3D'>

solver ns3d, RK4 and parallel (2 proc.)
type fft: fluidfft.fft3d.mpi_with_fftwmpi3d
nx =     16 ; ny =     16 ; nz =     16
Lx = 2pi ; Ly = 2pi ; Lz = 2pi
path_run =
/HA/sources/stg3/Sim_data/examples/ns3d_kolmo_16x16x16_V2pix2pix2pi_2022-12-09_08-33-14
init_fields.type: noise

Initialization outputs:
sim.output.cross_corr:        <class 'fluidsim.base.output.cross_corr3d.CrossCorrelations'>
sim.output.phys_fields:       <class 'fluidsim.base.output.phys_fields3d.PhysFieldsBase3D'>
sim.output.spatial_means:     <class 'fluidsim.solvers.ns3d.output.spatial_means.SpatialMeansNS3D'>
sim.output.spatiotemporal_spectra:<class 'fluidsim.solvers.ns3d.output.spatiotemporal_spectra.SpatioTemporalSpectraNS3D'>
sim.output.spectra:           <class 'fluidsim.solvers.ns3d.output.spectra.SpectraNS3D'>
sim.output.spect_energy_budg: <class 'fluidsim.solvers.ns3d.output.spect_energy_budget.SpectralEnergyBudgetNS3D'>
sim.output.temporal_spectra:  <class 'fluidsim.base.output.temporal_spectra.TemporalSpectra3D'>
sim.output.horiz_means:       <class 'fluidsim.base.output.horiz_means.HorizontalMeans'>
[0, 8] [256, 256] [8, 8]

Memory usage at the end of init. (equiv. seq.): 372.78125 Mo
Size of state_spect (equiv. seq.): 0.110592 Mo
*************************************
Beginning of the computation
save state_phys in file state_phys_t00000.000.h5
    compute until t =        200
it =      0 ; t =            0 ; deltat  =    0.15785
              energy = 8.598e-02 ; Delta energy = +0.000e+00

MEMORY_USAGE:                  375.82421875 Mo
it =      6 ; t =      1.15785 ; deltat  =        0.2
              energy = 2.950e-01 ; Delta energy = +2.090e-01
              estimated remaining duration = 0:00:01
MEMORY_USAGE:                  375.82421875 Mo
it =     11 ; t =      2.13344 ; deltat  =    0.17154
              energy = 9.081e-01 ; Delta energy = +6.131e-01
              estimated remaining duration = 0:00:01
MEMORY_USAGE:                  375.82421875 Mo
it =     17 ; t =      3.05961 ; deltat  =    0.13571
              energy = 1.715e+00 ; Delta energy = +8.067e-01
              estimated remaining duration = 0:00:01
MEMORY_USAGE:                  375.82421875 Mo
it =     25 ; t =      4.04697 ; deltat  =    0.11328
              energy = 2.740e+00 ; Delta energy = +1.026e+00
              estimated remaining duration = 0:00:01
MEMORY_USAGE:                  375.82421875 Mo
it =     35 ; t =       5.0902 ; deltat  =   0.096524
              energy = 3.944e+00 ; Delta energy = +1.204e+00
              estimated remaining duration = 0:00:02
MEMORY_USAGE:                  375.82421875 Mo
it =     46 ; t =      6.08431 ; deltat  =    0.08404
              energy = 5.156e+00 ; Delta energy = +1.212e+00
              estimated remaining duration = 0:00:02
MEMORY_USAGE:                  375.82421875 Mo
it =     58 ; t =      7.05322 ; deltat  =   0.075957
              energy = 6.362e+00 ; Delta energy = +1.206e+00
              estimated remaining duration = 0:00:02
MEMORY_USAGE:                  375.82421875 Mo
it =     71 ; t =      8.00991 ; deltat  =   0.070729
              energy = 7.550e+00 ; Delta energy = +1.189e+00
              estimated remaining duration = 0:00:02
MEMORY_USAGE:                  375.82421875 Mo
it =     86 ; t =      9.03107 ; deltat  =   0.066103
              energy = 8.797e+00 ; Delta energy = +1.246e+00
              estimated remaining duration = 0:00:02
MEMORY_USAGE:                  375.82421875 Mo
it =    102 ; t =      10.0477 ; deltat  =   0.061871
              energy = 9.998e+00 ; Delta energy = +1.202e+00
              estimated remaining duration = 0:00:03
MEMORY_USAGE:                  375.82421875 Mo
it =    118 ; t =      11.0098 ; deltat  =    0.05798
              energy = 1.109e+01 ; Delta energy = +1.092e+00
              estimated remaining duration = 0:00:03
MEMORY_USAGE:                  375.82421875 Mo
it =    136 ; t =      12.0387 ; deltat  =   0.055605
              energy = 1.220e+01 ; Delta energy = +1.111e+00
              estimated remaining duration = 0:00:03
MEMORY_USAGE:                  375.82421875 Mo
it =    154 ; t =       13.026 ; deltat  =   0.053353
              energy = 1.321e+01 ; Delta energy = +1.007e+00
              estimated remaining duration = 0:00:03
MEMORY_USAGE:                  375.82421875 Mo
it =    173 ; t =      14.0299 ; deltat  =   0.052261
              energy = 1.417e+01 ; Delta energy = +9.622e-01
              estimated remaining duration = 0:00:03
MEMORY_USAGE:                  375.82421875 Mo
it =    192 ; t =      15.0039 ; deltat  =   0.050133
              energy = 1.504e+01 ; Delta energy = +8.738e-01
              estimated remaining duration = 0:00:03
MEMORY_USAGE:                  375.82421875 Mo
it =    213 ; t =      16.0486 ; deltat  =   0.049129
              energy = 1.592e+01 ; Delta energy = +8.726e-01
              estimated remaining duration = 0:00:03
MEMORY_USAGE:                  375.82421875 Mo
it =    233 ; t =      17.0204 ; deltat  =   0.048142
              energy = 1.667e+01 ; Delta energy = +7.531e-01
              estimated remaining duration = 0:00:03
MEMORY_USAGE:                  375.82421875 Mo
it =    254 ; t =       18.019 ; deltat  =   0.047194
              energy = 1.739e+01 ; Delta energy = +7.172e-01
              estimated remaining duration = 0:00:03
MEMORY_USAGE:                  375.82421875 Mo
it =    276 ; t =      19.0451 ; deltat  =   0.046258
              energy = 1.807e+01 ; Delta energy = +6.798e-01
              estimated remaining duration = 0:00:03
MEMORY_USAGE:                  375.82421875 Mo
it =    297 ; t =      20.0091 ; deltat  =    0.04533
              energy = 1.865e+01 ; Delta energy = +5.886e-01
              estimated remaining duration = 0:00:03
MEMORY_USAGE:                  375.82421875 Mo
it =    319 ; t =      21.0063 ; deltat  =    0.04533
              energy = 1.922e+01 ; Delta energy = +5.609e-01
              estimated remaining duration = 0:00:03
MEMORY_USAGE:                  375.82421875 Mo
it =    342 ; t =      22.0289 ; deltat  =   0.044419
              energy = 1.974e+01 ; Delta energy = +5.275e-01
              estimated remaining duration = 0:00:03
MEMORY_USAGE:                  375.82421875 Mo
it =    365 ; t =      23.0435 ; deltat  =   0.043543
              energy = 2.022e+01 ; Delta energy = +4.790e-01
              estimated remaining duration = 0:00:03
MEMORY_USAGE:                  375.82421875 Mo
it =    387 ; t =      24.0014 ; deltat  =   0.043543
              energy = 2.064e+01 ; Delta energy = +4.144e-01
              estimated remaining duration = 0:00:03
MEMORY_USAGE:                  375.82421875 Mo
it =    411 ; t =      25.0404 ; deltat  =   0.042675
              energy = 2.105e+01 ; Delta energy = +4.111e-01
              estimated remaining duration = 0:00:03
MEMORY_USAGE:                  375.82421875 Mo
it =    434 ; t =      26.0219 ; deltat  =   0.042675
              energy = 2.140e+01 ; Delta energy = +3.543e-01
              estimated remaining duration = 0:00:03
MEMORY_USAGE:                  375.82421875 Mo
it =    457 ; t =      27.0034 ; deltat  =   0.042675
              energy = 2.173e+01 ; Delta energy = +3.239e-01
              estimated remaining duration = 0:00:03
MEMORY_USAGE:                  375.82421875 Mo
it =    481 ; t =      28.0142 ; deltat  =   0.041836
              energy = 2.203e+01 ; Delta energy = +3.042e-01
              estimated remaining duration = 0:00:03
MEMORY_USAGE:                  375.82421875 Mo
it =    505 ; t =      29.0183 ; deltat  =   0.041836
              energy = 2.231e+01 ; Delta energy = +2.751e-01
              estimated remaining duration = 0:00:03
MEMORY_USAGE:                  375.82421875 Mo
it =    529 ; t =      30.0223 ; deltat  =   0.041836
              energy = 2.256e+01 ; Delta energy = +2.504e-01
              estimated remaining duration = 0:00:03
MEMORY_USAGE:                  375.82421875 Mo
it =    553 ; t =      31.0256 ; deltat  =   0.041014
              energy = 2.278e+01 ; Delta energy = +2.276e-01
              estimated remaining duration = 0:00:03
MEMORY_USAGE:                  375.82421875 Mo
it =    577 ; t =      32.0099 ; deltat  =   0.041014
              energy = 2.299e+01 ; Delta energy = +2.032e-01
              estimated remaining duration = 0:00:03
MEMORY_USAGE:                  375.82421875 Mo
it =    602 ; t =      33.0353 ; deltat  =   0.041014
              energy = 2.318e+01 ; Delta energy = +1.923e-01
              estimated remaining duration = 0:00:03
MEMORY_USAGE:                  375.82421875 Mo
it =    626 ; t =      34.0196 ; deltat  =   0.041014
              energy = 2.335e+01 ; Delta energy = +1.676e-01
              estimated remaining duration = 0:00:03
MEMORY_USAGE:                  375.82421875 Mo
it =    650 ; t =      35.0039 ; deltat  =   0.041014
              energy = 2.350e+01 ; Delta energy = +1.525e-01
              estimated remaining duration = 0:00:03
MEMORY_USAGE:                  375.82421875 Mo
it =    675 ; t =      36.0293 ; deltat  =   0.041014
              energy = 2.364e+01 ; Delta energy = +1.441e-01
              estimated remaining duration = 0:00:03
MEMORY_USAGE:                  375.82421875 Mo
it =    699 ; t =      37.0128 ; deltat  =   0.040207
              energy = 2.377e+01 ; Delta energy = +1.254e-01
              estimated remaining duration = 0:00:03
MEMORY_USAGE:                  375.82421875 Mo
it =    724 ; t =       38.018 ; deltat  =   0.040207
              energy = 2.388e+01 ; Delta energy = +1.164e-01
              estimated remaining duration = 0:00:03
MEMORY_USAGE:                  375.82421875 Mo
it =    749 ; t =      39.0231 ; deltat  =   0.040207
              energy = 2.399e+01 ; Delta energy = +1.055e-01
              estimated remaining duration = 0:00:03
MEMORY_USAGE:                  375.82421875 Mo
it =    774 ; t =      40.0283 ; deltat  =   0.040207
              energy = 2.409e+01 ; Delta energy = +9.562e-02
              estimated remaining duration = 0:00:03
MEMORY_USAGE:                  375.82421875 Mo
it =    799 ; t =      41.0335 ; deltat  =   0.040207
              energy = 2.417e+01 ; Delta energy = +8.665e-02
              estimated remaining duration = 0:00:03
MEMORY_USAGE:                  375.82421875 Mo
it =    824 ; t =      42.0386 ; deltat  =   0.040207
              energy = 2.425e+01 ; Delta energy = +7.851e-02
              estimated remaining duration = 0:00:03
MEMORY_USAGE:                  375.82421875 Mo
it =    848 ; t =      43.0036 ; deltat  =   0.040207
              energy = 2.432e+01 ; Delta energy = +6.841e-02
              estimated remaining duration = 0:00:03
MEMORY_USAGE:                  375.82421875 Mo
it =    873 ; t =      44.0087 ; deltat  =   0.040207
              energy = 2.438e+01 ; Delta energy = +6.467e-02
              estimated remaining duration = 0:00:03
MEMORY_USAGE:                  375.82421875 Mo
it =    898 ; t =      45.0139 ; deltat  =   0.040207
              energy = 2.444e+01 ; Delta energy = +5.856e-02
              estimated remaining duration = 0:00:03
MEMORY_USAGE:                  375.82421875 Mo
it =    923 ; t =      46.0191 ; deltat  =   0.040207
              energy = 2.450e+01 ; Delta energy = +5.303e-02
              estimated remaining duration = 0:00:03
MEMORY_USAGE:                  375.82421875 Mo
it =    948 ; t =      47.0242 ; deltat  =   0.040207
              energy = 2.454e+01 ; Delta energy = +4.801e-02
              estimated remaining duration = 0:00:03
MEMORY_USAGE:                  375.82421875 Mo
it =    973 ; t =      48.0294 ; deltat  =   0.040207
              energy = 2.459e+01 ; Delta energy = +4.346e-02
              estimated remaining duration = 0:00:03
MEMORY_USAGE:                  375.82421875 Mo
it =    998 ; t =      49.0346 ; deltat  =   0.040207
              energy = 2.463e+01 ; Delta energy = +3.934e-02
              estimated remaining duration = 0:00:03
MEMORY_USAGE:                  375.82421875 Mo
it =   1023 ; t =      50.0397 ; deltat  =   0.040207
              energy = 2.466e+01 ; Delta energy = +3.561e-02
              estimated remaining duration = 0:00:03
MEMORY_USAGE:                  375.82421875 Mo
it =   1047 ; t =      51.0047 ; deltat  =   0.040207
              energy = 2.469e+01 ; Delta energy = +3.100e-02
              estimated remaining duration = 0:00:03
MEMORY_USAGE:                  375.82421875 Mo
it =   1072 ; t =      52.0099 ; deltat  =   0.040207
              energy = 2.472e+01 ; Delta energy = +2.928e-02
              estimated remaining duration = 0:00:03
MEMORY_USAGE:                  375.82421875 Mo
it =   1097 ; t =       53.015 ; deltat  =   0.040207
              energy = 2.475e+01 ; Delta energy = +2.650e-02
              estimated remaining duration = 0:00:03
MEMORY_USAGE:                  375.82421875 Mo
it =   1122 ; t =      54.0202 ; deltat  =   0.040207
              energy = 2.477e+01 ; Delta energy = +2.398e-02
              estimated remaining duration = 0:00:03
MEMORY_USAGE:                  375.82421875 Mo
it =   1147 ; t =      55.0254 ; deltat  =   0.040207
              energy = 2.479e+01 ; Delta energy = +2.170e-02
              estimated remaining duration = 0:00:03
MEMORY_USAGE:                  375.82421875 Mo
it =   1172 ; t =       56.014 ; deltat  =   0.039418
              energy = 2.481e+01 ; Delta energy = +1.932e-02
              estimated remaining duration = 0:00:03
MEMORY_USAGE:                  375.82421875 Mo
it =   1198 ; t =      57.0388 ; deltat  =   0.039418
              energy = 2.483e+01 ; Delta energy = +1.812e-02
              estimated remaining duration = 0:00:03
MEMORY_USAGE:                  375.82421875 Mo
it =   1223 ; t =      58.0243 ; deltat  =   0.039418
              energy = 2.485e+01 ; Delta energy = +1.576e-02
              estimated remaining duration = 0:00:03
MEMORY_USAGE:                  375.82421875 Mo
it =   1248 ; t =      59.0097 ; deltat  =   0.039418
              energy = 2.486e+01 ; Delta energy = +1.429e-02
              estimated remaining duration = 0:00:03
MEMORY_USAGE:                  375.82421875 Mo
it =   1274 ; t =      60.0346 ; deltat  =   0.039418
              energy = 2.488e+01 ; Delta energy = +1.344e-02
              estimated remaining duration = 0:00:03
MEMORY_USAGE:                  375.82421875 Mo
it =   1299 ; t =      61.0201 ; deltat  =   0.039418
              energy = 2.489e+01 ; Delta energy = +1.169e-02
              estimated remaining duration = 0:00:03
MEMORY_USAGE:                  375.82421875 Mo
it =   1324 ; t =      62.0055 ; deltat  =   0.039418
              energy = 2.490e+01 ; Delta energy = +1.060e-02
              estimated remaining duration = 0:00:03
MEMORY_USAGE:                  375.82421875 Mo
it =   1350 ; t =      63.0304 ; deltat  =   0.039418
              energy = 2.491e+01 ; Delta energy = +9.971e-03
              estimated remaining duration = 0:00:03
MEMORY_USAGE:                  375.82421875 Mo
it =   1375 ; t =      64.0158 ; deltat  =   0.039418
              energy = 2.492e+01 ; Delta energy = +8.672e-03
              estimated remaining duration = 0:00:03
MEMORY_USAGE:                  375.82421875 Mo
it =   1400 ; t =      65.0013 ; deltat  =   0.039418
              energy = 2.492e+01 ; Delta energy = +7.860e-03
              estimated remaining duration = 0:00:03
MEMORY_USAGE:                  375.82421875 Mo
it =   1426 ; t =      66.0261 ; deltat  =   0.039418
              energy = 2.493e+01 ; Delta energy = +7.394e-03
              estimated remaining duration = 0:00:03
MEMORY_USAGE:                  375.82421875 Mo
it =   1451 ; t =      67.0116 ; deltat  =   0.039418
              energy = 2.494e+01 ; Delta energy = +6.430e-03
              estimated remaining duration = 0:00:03
MEMORY_USAGE:                  375.82421875 Mo
it =   1477 ; t =      68.0365 ; deltat  =   0.039418
              energy = 2.494e+01 ; Delta energy = +6.049e-03
              estimated remaining duration = 0:00:03
MEMORY_USAGE:                  375.82421875 Mo
it =   1502 ; t =      69.0219 ; deltat  =   0.039418
              energy = 2.495e+01 ; Delta energy = +5.261e-03
              estimated remaining duration = 0:00:03
MEMORY_USAGE:                  375.82421875 Mo
it =   1527 ; t =      70.0074 ; deltat  =   0.039418
              energy = 2.495e+01 ; Delta energy = +4.768e-03
              estimated remaining duration = 0:00:03
MEMORY_USAGE:                  375.82421875 Mo
it =   1553 ; t =      71.0322 ; deltat  =   0.039418
              energy = 2.496e+01 ; Delta energy = +4.485e-03
              estimated remaining duration = 0:00:03
MEMORY_USAGE:                  375.82421875 Mo
it =   1578 ; t =      72.0177 ; deltat  =   0.039418
              energy = 2.496e+01 ; Delta energy = +3.900e-03
              estimated remaining duration = 0:00:03
MEMORY_USAGE:                  375.82421875 Mo
it =   1603 ; t =      73.0031 ; deltat  =   0.039418
              energy = 2.497e+01 ; Delta energy = +3.534e-03
              estimated remaining duration = 0:00:03
MEMORY_USAGE:                  375.82421875 Mo
it =   1629 ; t =       74.028 ; deltat  =   0.039418
              energy = 2.497e+01 ; Delta energy = +3.325e-03
              estimated remaining duration = 0:00:03
MEMORY_USAGE:                  375.82421875 Mo
it =   1654 ; t =      75.0135 ; deltat  =   0.039418
              energy = 2.497e+01 ; Delta energy = +2.891e-03
              estimated remaining duration = 0:00:03
MEMORY_USAGE:                  375.82421875 Mo
it =   1680 ; t =      76.0383 ; deltat  =   0.039418
              energy = 2.497e+01 ; Delta energy = +2.719e-03
              estimated remaining duration = 0:00:03
MEMORY_USAGE:                  376.49609375 Mo
it =   1705 ; t =      77.0238 ; deltat  =   0.039418
              energy = 2.498e+01 ; Delta energy = +2.365e-03
              estimated remaining duration = 0:00:03
MEMORY_USAGE:                  376.49609375 Mo
it =   1730 ; t =      78.0092 ; deltat  =   0.039418
              energy = 2.498e+01 ; Delta energy = +2.143e-03
              estimated remaining duration = 0:00:03
MEMORY_USAGE:                  376.49609375 Mo
it =   1756 ; t =      79.0341 ; deltat  =   0.039418
              energy = 2.498e+01 ; Delta energy = +2.016e-03
              estimated remaining duration = 0:00:03
MEMORY_USAGE:                  376.49609375 Mo
it =   1781 ; t =      80.0196 ; deltat  =   0.039418
              energy = 2.498e+01 ; Delta energy = +1.753e-03
              estimated remaining duration = 0:00:03
MEMORY_USAGE:                  376.49609375 Mo
it =   1806 ; t =       81.005 ; deltat  =   0.039418
              energy = 2.498e+01 ; Delta energy = +1.588e-03
              estimated remaining duration = 0:00:03
MEMORY_USAGE:                  377.30078125 Mo
it =   1832 ; t =      82.0299 ; deltat  =   0.039418
              energy = 2.499e+01 ; Delta energy = +1.494e-03
              estimated remaining duration = 0:00:02
MEMORY_USAGE:                  377.30078125 Mo
it =   1857 ; t =      83.0153 ; deltat  =   0.039418
              energy = 2.499e+01 ; Delta energy = +1.299e-03
              estimated remaining duration = 0:00:02
MEMORY_USAGE:                  377.30078125 Mo
it =   1882 ; t =      84.0008 ; deltat  =   0.039418
              energy = 2.499e+01 ; Delta energy = +1.177e-03
              estimated remaining duration = 0:00:02
MEMORY_USAGE:                  377.30078125 Mo
it =   1908 ; t =      85.0256 ; deltat  =   0.039418
              energy = 2.499e+01 ; Delta energy = +1.107e-03
              estimated remaining duration = 0:00:02
MEMORY_USAGE:                  377.30078125 Mo
it =   1933 ; t =      86.0111 ; deltat  =   0.039418
              energy = 2.499e+01 ; Delta energy = +9.630e-04
              estimated remaining duration = 0:00:02
MEMORY_USAGE:                  377.30078125 Mo
it =   1959 ; t =       87.036 ; deltat  =   0.039418
              energy = 2.499e+01 ; Delta energy = +9.058e-04
              estimated remaining duration = 0:00:02
MEMORY_USAGE:                  377.30078125 Mo
it =   1984 ; t =      88.0214 ; deltat  =   0.039418
              energy = 2.499e+01 ; Delta energy = +7.877e-04
              estimated remaining duration = 0:00:02
MEMORY_USAGE:                  377.30078125 Mo
it =   2009 ; t =      89.0069 ; deltat  =   0.039418
              energy = 2.499e+01 ; Delta energy = +7.138e-04
              estimated remaining duration = 0:00:02
MEMORY_USAGE:                  377.30078125 Mo
it =   2035 ; t =      90.0317 ; deltat  =   0.039418
              energy = 2.499e+01 ; Delta energy = +6.713e-04
              estimated remaining duration = 0:00:02
MEMORY_USAGE:                  377.30078125 Mo
it =   2060 ; t =      91.0172 ; deltat  =   0.039418
              energy = 2.499e+01 ; Delta energy = +5.838e-04
              estimated remaining duration = 0:00:02
MEMORY_USAGE:                  377.30078125 Mo
it =   2085 ; t =      92.0026 ; deltat  =   0.039418
              energy = 2.499e+01 ; Delta energy = +5.290e-04
              estimated remaining duration = 0:00:02
MEMORY_USAGE:                  377.30078125 Mo
it =   2111 ; t =      93.0275 ; deltat  =   0.039418
              energy = 2.500e+01 ; Delta energy = +4.976e-04
              estimated remaining duration = 0:00:02
MEMORY_USAGE:                  377.30078125 Mo
it =   2136 ; t =       94.013 ; deltat  =   0.039418
              energy = 2.500e+01 ; Delta energy = +4.327e-04
              estimated remaining duration = 0:00:02
MEMORY_USAGE:                  377.30078125 Mo
it =   2162 ; t =      95.0378 ; deltat  =   0.039418
              energy = 2.500e+01 ; Delta energy = +4.070e-04
              estimated remaining duration = 0:00:02
MEMORY_USAGE:                  377.30078125 Mo
it =   2187 ; t =      96.0233 ; deltat  =   0.039418
              energy = 2.500e+01 ; Delta energy = +3.539e-04
              estimated remaining duration = 0:00:02
MEMORY_USAGE:                  377.30078125 Mo
it =   2212 ; t =      97.0087 ; deltat  =   0.039418
              energy = 2.500e+01 ; Delta energy = +3.207e-04
              estimated remaining duration = 0:00:02
MEMORY_USAGE:                  377.30078125 Mo
it =   2238 ; t =      98.0336 ; deltat  =   0.039418
              energy = 2.500e+01 ; Delta energy = +3.016e-04
              estimated remaining duration = 0:00:02
MEMORY_USAGE:                  377.30078125 Mo
it =   2263 ; t =      99.0191 ; deltat  =   0.039418
              energy = 2.500e+01 ; Delta energy = +2.623e-04
              estimated remaining duration = 0:00:02
MEMORY_USAGE:                  377.30078125 Mo
it =   2288 ; t =      100.005 ; deltat  =   0.039418
              energy = 2.500e+01 ; Delta energy = +2.377e-04
              estimated remaining duration = 0:00:02
MEMORY_USAGE:                  377.30078125 Mo
it =   2314 ; t =      101.029 ; deltat  =   0.039418
              energy = 2.500e+01 ; Delta energy = +2.235e-04
              estimated remaining duration = 0:00:02
MEMORY_USAGE:                  377.30078125 Mo
it =   2339 ; t =      102.015 ; deltat  =   0.039418
              energy = 2.500e+01 ; Delta energy = +1.944e-04
              estimated remaining duration = 0:00:02
MEMORY_USAGE:                  377.30078125 Mo
it =   2364 ; t =          103 ; deltat  =   0.039418
              energy = 2.500e+01 ; Delta energy = +1.761e-04
              estimated remaining duration = 0:00:02
MEMORY_USAGE:                  377.30078125 Mo
it =   2390 ; t =      104.025 ; deltat  =   0.039418
              energy = 2.500e+01 ; Delta energy = +1.657e-04
              estimated remaining duration = 0:00:02
MEMORY_USAGE:                  377.30078125 Mo
it =   2415 ; t =      105.011 ; deltat  =   0.039418
              energy = 2.500e+01 ; Delta energy = +1.441e-04
              estimated remaining duration = 0:00:02
MEMORY_USAGE:                  377.30078125 Mo
it =   2441 ; t =      106.035 ; deltat  =   0.039418
              energy = 2.500e+01 ; Delta energy = +1.355e-04
              estimated remaining duration = 0:00:02
MEMORY_USAGE:                  377.30078125 Mo
it =   2466 ; t =      107.021 ; deltat  =   0.039418
              energy = 2.500e+01 ; Delta energy = +1.178e-04
              estimated remaining duration = 0:00:02
MEMORY_USAGE:                  377.30078125 Mo
it =   2491 ; t =      108.006 ; deltat  =   0.039418
              energy = 2.500e+01 ; Delta energy = +1.068e-04
              estimated remaining duration = 0:00:02
MEMORY_USAGE:                  377.30078125 Mo
it =   2517 ; t =      109.031 ; deltat  =   0.039418
              energy = 2.500e+01 ; Delta energy = +1.004e-04
              estimated remaining duration = 0:00:02
MEMORY_USAGE:                  377.30078125 Mo
it =   2542 ; t =      110.017 ; deltat  =   0.039418
              energy = 2.500e+01 ; Delta energy = +8.733e-05
              estimated remaining duration = 0:00:02
MEMORY_USAGE:                  377.30078125 Mo
it =   2567 ; t =      111.002 ; deltat  =   0.039418
              energy = 2.500e+01 ; Delta energy = +7.913e-05
              estimated remaining duration = 0:00:02
MEMORY_USAGE:                  377.30078125 Mo
it =   2593 ; t =      112.027 ; deltat  =   0.039418
              energy = 2.500e+01 ; Delta energy = +7.443e-05
              estimated remaining duration = 0:00:02
MEMORY_USAGE:                  377.30078125 Mo
it =   2618 ; t =      113.012 ; deltat  =   0.039418
              energy = 2.500e+01 ; Delta energy = +6.472e-05
              estimated remaining duration = 0:00:02
MEMORY_USAGE:                  377.30078125 Mo
it =   2644 ; t =      114.037 ; deltat  =   0.039418
              energy = 2.500e+01 ; Delta energy = +6.088e-05
              estimated remaining duration = 0:00:02
MEMORY_USAGE:                  377.30078125 Mo
it =   2669 ; t =      115.023 ; deltat  =   0.039418
              energy = 2.500e+01 ; Delta energy = +5.294e-05
              estimated remaining duration = 0:00:02
MEMORY_USAGE:                  377.30078125 Mo
it =   2694 ; t =      116.008 ; deltat  =   0.039418
              energy = 2.500e+01 ; Delta energy = +4.797e-05
              estimated remaining duration = 0:00:02
MEMORY_USAGE:                  377.30078125 Mo
it =   2720 ; t =      117.033 ; deltat  =   0.039418
              energy = 2.500e+01 ; Delta energy = +4.512e-05
              estimated remaining duration = 0:00:02
MEMORY_USAGE:                  377.30078125 Mo
it =   2745 ; t =      118.019 ; deltat  =   0.039418
              energy = 2.500e+01 ; Delta energy = +3.923e-05
              estimated remaining duration = 0:00:02
MEMORY_USAGE:                  377.30078125 Mo
it =   2770 ; t =      119.004 ; deltat  =   0.039418
              energy = 2.500e+01 ; Delta energy = +3.555e-05
              estimated remaining duration = 0:00:02
MEMORY_USAGE:                  377.30078125 Mo
it =   2796 ; t =      120.029 ; deltat  =   0.039418
              energy = 2.500e+01 ; Delta energy = +3.344e-05
              estimated remaining duration = 0:00:02
MEMORY_USAGE:                  377.30078125 Mo
it =   2821 ; t =      121.014 ; deltat  =   0.039418
              energy = 2.500e+01 ; Delta energy = +2.908e-05
              estimated remaining duration = 0:00:02
MEMORY_USAGE:                  377.30078125 Mo
it =   2847 ; t =      122.039 ; deltat  =   0.039418
              energy = 2.500e+01 ; Delta energy = +2.735e-05
              estimated remaining duration = 0:00:02
MEMORY_USAGE:                  377.30078125 Mo
it =   2872 ; t =      123.025 ; deltat  =   0.039418
              energy = 2.500e+01 ; Delta energy = +2.378e-05
              estimated remaining duration = 0:00:02
MEMORY_USAGE:                  377.30078125 Mo
it =   2897 ; t =       124.01 ; deltat  =   0.039418
              energy = 2.500e+01 ; Delta energy = +2.155e-05
              estimated remaining duration = 0:00:02
MEMORY_USAGE:                  377.30078125 Mo
it =   2923 ; t =      125.035 ; deltat  =   0.039418
              energy = 2.500e+01 ; Delta energy = +2.027e-05
              estimated remaining duration = 0:00:02
MEMORY_USAGE:                  377.30078125 Mo
it =   2948 ; t =       126.02 ; deltat  =   0.039418
              energy = 2.500e+01 ; Delta energy = +1.763e-05
              estimated remaining duration = 0:00:02
MEMORY_USAGE:                  377.30078125 Mo
it =   2973 ; t =      127.006 ; deltat  =   0.039418
              energy = 2.500e+01 ; Delta energy = +1.597e-05
              estimated remaining duration = 0:00:02
MEMORY_USAGE:                  377.30078125 Mo
it =   2999 ; t =      128.031 ; deltat  =   0.039418
              energy = 2.500e+01 ; Delta energy = +1.502e-05
              estimated remaining duration = 0:00:02
MEMORY_USAGE:                  377.30078125 Mo
it =   3024 ; t =      129.016 ; deltat  =   0.039418
              energy = 2.500e+01 ; Delta energy = +1.306e-05
              estimated remaining duration = 0:00:01
MEMORY_USAGE:                  377.30078125 Mo
it =   3049 ; t =      130.002 ; deltat  =   0.039418
              energy = 2.500e+01 ; Delta energy = +1.184e-05
              estimated remaining duration = 0:00:01
MEMORY_USAGE:                  377.30078125 Mo
it =   3075 ; t =      131.027 ; deltat  =   0.039418
              energy = 2.500e+01 ; Delta energy = +1.113e-05
              estimated remaining duration = 0:00:01
MEMORY_USAGE:                  377.30078125 Mo
it =   3100 ; t =      132.012 ; deltat  =   0.039418
              energy = 2.500e+01 ; Delta energy = +9.681e-06
              estimated remaining duration = 0:00:01
MEMORY_USAGE:                  377.30078125 Mo
it =   3126 ; t =      133.037 ; deltat  =   0.039418
              energy = 2.500e+01 ; Delta energy = +9.106e-06
              estimated remaining duration = 0:00:01
MEMORY_USAGE:                  377.30078125 Mo
it =   3151 ; t =      134.022 ; deltat  =   0.039418
              energy = 2.500e+01 ; Delta energy = +7.918e-06
              estimated remaining duration = 0:00:01
MEMORY_USAGE:                  377.30078125 Mo
it =   3176 ; t =      135.008 ; deltat  =   0.039418
              energy = 2.500e+01 ; Delta energy = +7.175e-06
              estimated remaining duration = 0:00:01
MEMORY_USAGE:                  377.30078125 Mo
it =   3202 ; t =      136.033 ; deltat  =   0.039418
              energy = 2.500e+01 ; Delta energy = +6.749e-06
              estimated remaining duration = 0:00:01
MEMORY_USAGE:                  377.30078125 Mo
it =   3227 ; t =      137.018 ; deltat  =   0.039418
              energy = 2.500e+01 ; Delta energy = +5.868e-06
              estimated remaining duration = 0:00:01
MEMORY_USAGE:                  377.30078125 Mo
it =   3252 ; t =      138.004 ; deltat  =   0.039418
              energy = 2.500e+01 ; Delta energy = +5.318e-06
              estimated remaining duration = 0:00:01
MEMORY_USAGE:                  377.30078125 Mo
it =   3278 ; t =      139.028 ; deltat  =   0.039418
              energy = 2.500e+01 ; Delta energy = +5.002e-06
              estimated remaining duration = 0:00:01
MEMORY_USAGE:                  377.30078125 Mo
it =   3303 ; t =      140.014 ; deltat  =   0.039418
              energy = 2.500e+01 ; Delta energy = +4.349e-06
              estimated remaining duration = 0:00:01
MEMORY_USAGE:                  377.30078125 Mo
it =   3329 ; t =      141.039 ; deltat  =   0.039418
              energy = 2.500e+01 ; Delta energy = +4.091e-06
              estimated remaining duration = 0:00:01
MEMORY_USAGE:                  377.30078125 Mo
it =   3354 ; t =      142.024 ; deltat  =   0.039418
              energy = 2.500e+01 ; Delta energy = +3.557e-06
              estimated remaining duration = 0:00:01
MEMORY_USAGE:                  377.30078125 Mo
it =   3379 ; t =       143.01 ; deltat  =   0.039418
              energy = 2.500e+01 ; Delta energy = +3.223e-06
              estimated remaining duration = 0:00:01
MEMORY_USAGE:                  377.30078125 Mo
it =   3405 ; t =      144.034 ; deltat  =   0.039418
              energy = 2.500e+01 ; Delta energy = +3.032e-06
              estimated remaining duration = 0:00:01
MEMORY_USAGE:                  377.30078125 Mo
it =   3430 ; t =       145.02 ; deltat  =   0.039418
              energy = 2.500e+01 ; Delta energy = +2.636e-06
              estimated remaining duration = 0:00:01
MEMORY_USAGE:                  377.30078125 Mo
it =   3455 ; t =      146.005 ; deltat  =   0.039418
              energy = 2.500e+01 ; Delta energy = +2.389e-06
              estimated remaining duration = 0:00:01
MEMORY_USAGE:                  377.30078125 Mo
it =   3481 ; t =       147.03 ; deltat  =   0.039418
              energy = 2.500e+01 ; Delta energy = +2.247e-06
              estimated remaining duration = 0:00:01
MEMORY_USAGE:                  377.30078125 Mo
it =   3506 ; t =      148.016 ; deltat  =   0.039418
              energy = 2.500e+01 ; Delta energy = +1.954e-06
              estimated remaining duration = 0:00:01
MEMORY_USAGE:                  377.30078125 Mo
it =   3531 ; t =      149.001 ; deltat  =   0.039418
              energy = 2.500e+01 ; Delta energy = +1.771e-06
              estimated remaining duration = 0:00:01
MEMORY_USAGE:                  377.30078125 Mo
it =   3557 ; t =      150.026 ; deltat  =   0.039418
              energy = 2.500e+01 ; Delta energy = +1.665e-06
              estimated remaining duration = 0:00:01
MEMORY_USAGE:                  377.30078125 Mo
it =   3582 ; t =      151.011 ; deltat  =   0.039418
              energy = 2.500e+01 ; Delta energy = +1.448e-06
              estimated remaining duration = 0:00:01
MEMORY_USAGE:                  377.30078125 Mo
it =   3608 ; t =      152.036 ; deltat  =   0.039418
              energy = 2.500e+01 ; Delta energy = +1.362e-06
              estimated remaining duration = 0:00:01
MEMORY_USAGE:                  377.30078125 Mo
it =   3633 ; t =      153.022 ; deltat  =   0.039418
              energy = 2.500e+01 ; Delta energy = +1.184e-06
              estimated remaining duration = 0:00:01
MEMORY_USAGE:                  377.30078125 Mo
it =   3658 ; t =      154.007 ; deltat  =   0.039418
              energy = 2.500e+01 ; Delta energy = +1.073e-06
              estimated remaining duration = 0:00:01
MEMORY_USAGE:                  377.30078125 Mo
it =   3684 ; t =      155.032 ; deltat  =   0.039418
              energy = 2.500e+01 ; Delta energy = +1.009e-06
              estimated remaining duration = 0:00:01
MEMORY_USAGE:                  377.30078125 Mo
it =   3709 ; t =      156.018 ; deltat  =   0.039418
              energy = 2.500e+01 ; Delta energy = +8.778e-07
              estimated remaining duration = 0:00:01
MEMORY_USAGE:                  377.30078125 Mo
it =   3734 ; t =      157.003 ; deltat  =   0.039418
              energy = 2.500e+01 ; Delta energy = +7.954e-07
              estimated remaining duration = 0:00:01
MEMORY_USAGE:                  377.30078125 Mo
it =   3760 ; t =      158.028 ; deltat  =   0.039418
              energy = 2.500e+01 ; Delta energy = +7.481e-07
              estimated remaining duration = 0:00:01
MEMORY_USAGE:                  377.30078125 Mo
it =   3785 ; t =      159.013 ; deltat  =   0.039418
              energy = 2.500e+01 ; Delta energy = +6.505e-07
              estimated remaining duration = 0:00:01
MEMORY_USAGE:                  377.30078125 Mo
it =   3811 ; t =      160.038 ; deltat  =   0.039418
              energy = 2.500e+01 ; Delta energy = +6.119e-07
              estimated remaining duration = 0:00:01
MEMORY_USAGE:                  377.30078125 Mo
it =   3836 ; t =      161.024 ; deltat  =   0.039418
              energy = 2.500e+01 ; Delta energy = +5.321e-07
              estimated remaining duration = 0:00:01
MEMORY_USAGE:                  377.30078125 Mo
it =   3861 ; t =      162.009 ; deltat  =   0.039418
              energy = 2.500e+01 ; Delta energy = +4.821e-07
              estimated remaining duration = 0:00:01
MEMORY_USAGE:                  377.30078125 Mo
it =   3887 ; t =      163.034 ; deltat  =   0.039418
              energy = 2.500e+01 ; Delta energy = +4.535e-07
              estimated remaining duration = 0:00:01
MEMORY_USAGE:                  377.30078125 Mo
it =   3912 ; t =      164.019 ; deltat  =   0.039418
              energy = 2.500e+01 ; Delta energy = +3.943e-07
              estimated remaining duration = 0:00:01
MEMORY_USAGE:                  377.30078125 Mo
it =   3937 ; t =      165.005 ; deltat  =   0.039418
              energy = 2.500e+01 ; Delta energy = +3.573e-07
              estimated remaining duration = 0:00:01
MEMORY_USAGE:                  377.30078125 Mo
it =   3963 ; t =       166.03 ; deltat  =   0.039418
              energy = 2.500e+01 ; Delta energy = +3.361e-07
              estimated remaining duration = 0:00:01
MEMORY_USAGE:                  377.30078125 Mo
it =   3988 ; t =      167.015 ; deltat  =   0.039418
              energy = 2.500e+01 ; Delta energy = +2.923e-07
              estimated remaining duration = 0:00:01
MEMORY_USAGE:                  377.30078125 Mo
it =   4013 ; t =      168.001 ; deltat  =   0.039418
              energy = 2.500e+01 ; Delta energy = +2.648e-07
              estimated remaining duration = 0:00:01
MEMORY_USAGE:                  377.30078125 Mo
it =   4039 ; t =      169.026 ; deltat  =   0.039418
              energy = 2.500e+01 ; Delta energy = +2.491e-07
              estimated remaining duration = 0:00:01
MEMORY_USAGE:                  377.30078125 Mo
it =   4064 ; t =      170.011 ; deltat  =   0.039418
              energy = 2.500e+01 ; Delta energy = +2.166e-07
              estimated remaining duration = 0:00:01
MEMORY_USAGE:                  377.30078125 Mo
it =   4090 ; t =      171.036 ; deltat  =   0.039418
              energy = 2.500e+01 ; Delta energy = +2.037e-07
              estimated remaining duration = 0:00:01
MEMORY_USAGE:                  377.30078125 Mo
it =   4115 ; t =      172.021 ; deltat  =   0.039418
              energy = 2.500e+01 ; Delta energy = +1.772e-07
              estimated remaining duration = 0:00:01
MEMORY_USAGE:                  377.30078125 Mo
it =   4140 ; t =      173.007 ; deltat  =   0.039418
              energy = 2.500e+01 ; Delta energy = +1.605e-07
              estimated remaining duration = 0:00:01
MEMORY_USAGE:                  377.30078125 Mo
it =   4166 ; t =      174.032 ; deltat  =   0.039418
              energy = 2.500e+01 ; Delta energy = +1.510e-07
              estimated remaining duration = 0:00:01
MEMORY_USAGE:                  377.30078125 Mo
it =   4191 ; t =      175.017 ; deltat  =   0.039418
              energy = 2.500e+01 ; Delta energy = +1.313e-07
              estimated remaining duration = 0:00:01
MEMORY_USAGE:                  377.30078125 Mo
it =   4216 ; t =      176.003 ; deltat  =   0.039418
              energy = 2.500e+01 ; Delta energy = +1.190e-07
              estimated remaining duration = 0:00:01
MEMORY_USAGE:                  377.30078125 Mo
it =   4242 ; t =      177.027 ; deltat  =   0.039418
              energy = 2.500e+01 ; Delta energy = +1.119e-07
              estimated remaining duration = 0:00:01
MEMORY_USAGE:                  377.30078125 Mo
it =   4267 ; t =      178.013 ; deltat  =   0.039418
              energy = 2.500e+01 ; Delta energy = +9.731e-08
              estimated remaining duration = 0:00:00
MEMORY_USAGE:                  377.30078125 Mo
it =   4293 ; t =      179.038 ; deltat  =   0.039418
              energy = 2.500e+01 ; Delta energy = +9.152e-08
              estimated remaining duration = 0:00:00
MEMORY_USAGE:                  377.30078125 Mo
it =   4318 ; t =      180.023 ; deltat  =   0.039418
              energy = 2.500e+01 ; Delta energy = +7.958e-08
              estimated remaining duration = 0:00:00
MEMORY_USAGE:                  377.30078125 Mo
it =   4343 ; t =      181.009 ; deltat  =   0.039418
              energy = 2.500e+01 ; Delta energy = +7.212e-08
              estimated remaining duration = 0:00:00
MEMORY_USAGE:                  377.30078125 Mo
it =   4369 ; t =      182.033 ; deltat  =   0.039418
              energy = 2.500e+01 ; Delta energy = +6.783e-08
              estimated remaining duration = 0:00:00
MEMORY_USAGE:                  377.30078125 Mo
it =   4394 ; t =      183.019 ; deltat  =   0.039418
              energy = 2.500e+01 ; Delta energy = +5.898e-08
              estimated remaining duration = 0:00:00
MEMORY_USAGE:                  377.30078125 Mo
it =   4419 ; t =      184.004 ; deltat  =   0.039418
              energy = 2.500e+01 ; Delta energy = +5.345e-08
              estimated remaining duration = 0:00:00
MEMORY_USAGE:                  377.30078125 Mo
it =   4445 ; t =      185.029 ; deltat  =   0.039418
              energy = 2.500e+01 ; Delta energy = +5.027e-08
              estimated remaining duration = 0:00:00
MEMORY_USAGE:                  377.30078125 Mo
it =   4470 ; t =      186.015 ; deltat  =   0.039418
              energy = 2.500e+01 ; Delta energy = +4.371e-08
              estimated remaining duration = 0:00:00
MEMORY_USAGE:                  377.30078125 Mo
it =   4495 ; t =          187 ; deltat  =   0.039418
              energy = 2.500e+01 ; Delta energy = +3.961e-08
              estimated remaining duration = 0:00:00
MEMORY_USAGE:                  377.30078125 Mo
it =   4521 ; t =      188.025 ; deltat  =   0.039418
              energy = 2.500e+01 ; Delta energy = +3.726e-08
              estimated remaining duration = 0:00:00
MEMORY_USAGE:                  377.30078125 Mo
it =   4546 ; t =       189.01 ; deltat  =   0.039418
              energy = 2.500e+01 ; Delta energy = +3.240e-08
              estimated remaining duration = 0:00:00
MEMORY_USAGE:                  377.30078125 Mo
it =   4572 ; t =      190.035 ; deltat  =   0.039418
              energy = 2.500e+01 ; Delta energy = +3.047e-08
              estimated remaining duration = 0:00:00
MEMORY_USAGE:                  377.30078125 Mo
it =   4597 ; t =      191.021 ; deltat  =   0.039418
              energy = 2.500e+01 ; Delta energy = +2.650e-08
              estimated remaining duration = 0:00:00
MEMORY_USAGE:                  377.30078125 Mo
it =   4622 ; t =      192.006 ; deltat  =   0.039418
              energy = 2.500e+01 ; Delta energy = +2.401e-08
              estimated remaining duration = 0:00:00
MEMORY_USAGE:                  377.30078125 Mo
it =   4648 ; t =      193.031 ; deltat  =   0.039418
              energy = 2.500e+01 ; Delta energy = +2.258e-08
              estimated remaining duration = 0:00:00
MEMORY_USAGE:                  377.30078125 Mo
it =   4673 ; t =      194.017 ; deltat  =   0.039418
              energy = 2.500e+01 ; Delta energy = +1.964e-08
              estimated remaining duration = 0:00:00
MEMORY_USAGE:                  377.30078125 Mo
it =   4698 ; t =      195.002 ; deltat  =   0.039418
              energy = 2.500e+01 ; Delta energy = +1.780e-08
              estimated remaining duration = 0:00:00
MEMORY_USAGE:                  377.30078125 Mo
it =   4724 ; t =      196.027 ; deltat  =   0.039418
              energy = 2.500e+01 ; Delta energy = +1.674e-08
              estimated remaining duration = 0:00:00
MEMORY_USAGE:                  377.30078125 Mo
it =   4749 ; t =      197.012 ; deltat  =   0.039418
              energy = 2.500e+01 ; Delta energy = +1.455e-08
              estimated remaining duration = 0:00:00
MEMORY_USAGE:                  377.30078125 Mo
it =   4775 ; t =      198.037 ; deltat  =   0.039418
              energy = 2.500e+01 ; Delta energy = +1.369e-08
              estimated remaining duration = 0:00:00
MEMORY_USAGE:                  377.30078125 Mo
it =   4800 ; t =      199.023 ; deltat  =   0.039418
              energy = 2.500e+01 ; Delta energy = +1.190e-08
              estimated remaining duration = 0:00:00
MEMORY_USAGE:                  377.30078125 Mo
it =   4825 ; t =      200.008 ; deltat  =   0.039418
              energy = 2.500e+01 ; Delta energy = +1.079e-08

MEMORY_USAGE:                  377.30078125 Mo
save state_phys in file state_phys_t00200.008.h5
Computation completed in  4.08059 s
path_run =
/HA/sources/stg3/Sim_data/examples/ns3d_kolmo_16x16x16_V2pix2pix2pi_2022-12-09_08-33-14

To visualize the results, you can do:
cd /HA/sources/stg3/Sim_data/examples/ns3d_kolmo_16x16x16_V2pix2pix2pi_2022-12-09_08-33-14; fluidsim-ipy-load

sim.output.spatial_means.plot()

sim.output.phys_fields.set_equation_crosssection("y=0")
sim.output.phys_fields.animate('vx', dt_frame_in_sec=0.3, dt_equations=0.25)

tmin = 15
sim.output.horiz_means.plot(tmax=tmin)
sim.output.horiz_means.plot(tmin=tmin)

sim.output.spectra.plot1d(coef_compensate=5/3, tmin=tmin)
sim.output.spect_energy_budg.plot_fluxes(tmin=tmin)

