[31mWARNING [0m Module                                                                 
         [35m/HA/sources/stg3/mambaforge/envs/env_fluidsim/lib/python3.10/site-packa[0m
         [35mges/fluidsim/base/output/[0m[95mspatiotemporal_spectra.py[0m has not been        
         compiled for Transonic-Pythran                                         
[31mWARNING [0m Module                                                                 
         [35m/HA/sources/stg3/mambaforge/envs/env_fluidsim/lib/python3.10/site-packa[0m
         [35mges/fluidsim/base/output/[0m[95mspatiotemporal_spectra.py[0m has not been        
         compiled for Transonic-Pythran                                         
[31mWARNING [0m Module                                                                 
         [35m/HA/sources/stg3/mambaforge/envs/env_fluidsim/lib/python3.10/site-packa[0m
         [35mges/fluidsim/base/output/[0m[95mspatiotemporal_spectra.py[0m has not been        
         compiled for Transonic-Pythran                                         
[31mWARNING [0m Module                                                                 
         [35m/HA/sources/stg3/mambaforge/envs/env_fluidsim/lib/python3.10/site-packa[0m
         [35mges/fluidsim/base/output/[0m[95mspatiotemporal_spectra.py[0m has not been        
         compiled for Transonic-Pythran                                         
[31mWARNING [0m Module                                                                 
         [35m/HA/sources/stg3/mambaforge/envs/env_fluidsim/lib/python3.10/site-packa[0m
         [35mges/fluidsim/base/output/[0m[95mspatiotemporal_spectra.py[0m has not been        
         compiled for Transonic-Pythran                                         
[31mWARNING [0m Module                                                                 
         [35m/HA/sources/stg3/mambaforge/envs/env_fluidsim/lib/python3.10/site-packa[0m
         [35mges/fluidsim/base/output/[0m[95mspatiotemporal_spectra.py[0m has not been        
         compiled for Transonic-Pythran                                         
[31mWARNING [0m Module                                                                 
         [35m/HA/sources/stg3/mambaforge/envs/env_fluidsim/lib/python3.10/site-packa[0m
         [35mges/fluidsim/base/output/[0m[95mspatiotemporal_spectra.py[0m has not been        
         compiled for Transonic-Pythran                                         
[31mWARNING [0m Module                                                                 
         [35m/HA/sources/stg3/mambaforge/envs/env_fluidsim/lib/python3.10/site-packa[0m
         [35mges/fluidsim/base/output/[0m[95mspatiotemporal_spectra.py[0m has not been        
         compiled for Transonic-Pythran                                         
[31mWARNING [0m Module                                                                 
         [35m/HA/sources/stg3/mambaforge/envs/env_fluidsim/lib/python3.10/site-packa[0m
         [35mges/fluidsim/base/output/[0m[95mspatiotemporal_spectra.py[0m has not been        
         compiled for Transonic-Pythran                                         
[31mWARNING [0m Module                                                                 
         [35m/HA/sources/stg3/mambaforge/envs/env_fluidsim/lib/python3.10/site-packa[0m
         [35mges/fluidsim/base/output/[0m[95mspatiotemporal_spectra.py[0m has not been        
         compiled for Transonic-Pythran                                         
[31mWARNING [0m Module                                                                 
         [35m/HA/sources/stg3/mambaforge/envs/env_fluidsim/lib/python3.10/site-packa[0m
         [35mges/fluidsim/base/output/[0m[95mspatiotemporal_spectra.py[0m has not been        
         compiled for Transonic-Pythran                                         
[31mWARNING [0m Module                                                                 
         [35m/HA/sources/stg3/mambaforge/envs/env_fluidsim/lib/python3.10/site-packa[0m
         [35mges/fluidsim/base/output/[0m[95mspatiotemporal_spectra.py[0m has not been        
         compiled for Transonic-Pythran                                         
[31mWARNING [0m Module                                                                 
         [35m/HA/sources/stg3/mambaforge/envs/env_fluidsim/lib/python3.10/site-packa[0m
         [35mges/fluidsim/base/output/[0m[95mspatiotemporal_spectra.py[0m has not been        
         compiled for Transonic-Pythran                                         
[31mWARNING [0m Module                                                                 
         [35m/HA/sources/stg3/mambaforge/envs/env_fluidsim/lib/python3.10/site-packa[0m
         [35mges/fluidsim/base/output/[0m[95mspatiotemporal_spectra.py[0m has not been        
         compiled for Transonic-Pythran                                         
[31mWARNING [0m Module                                                                 
         [35m/HA/sources/stg3/mambaforge/envs/env_fluidsim/lib/python3.10/site-packa[0m
         [35mges/fluidsim/base/output/[0m[95mspatiotemporal_spectra.py[0m has not been        
         compiled for Transonic-Pythran                                         
[31mWARNING [0m Module                                                                 
         [35m/HA/sources/stg3/mambaforge/envs/env_fluidsim/lib/python3.10/site-packa[0m
         [35mges/fluidsim/base/output/[0m[95mspatiotemporal_spectra.py[0m has not been        
         compiled for Transonic-Pythran                                         
[31mWARNING [0m Module                                                                 
         [35m/HA/sources/stg3/mambaforge/envs/env_fluidsim/lib/python3.10/site-packa[0m
         [35mges/fluidsim/base/output/[0m[95mspatiotemporal_spectra.py[0m has not been        
         compiled for Transonic-Pythran                                         
[31mWARNING [0m Module                                                                 
         [35m/HA/sources/stg3/mambaforge/envs/env_fluidsim/lib/python3.10/site-packa[0m
         [35mges/fluidsim/base/output/[0m[95mspatiotemporal_spectra.py[0m has not been        
         compiled for Transonic-Pythran                                         
[31mWARNING [0m Module                                                                 
         [35m/HA/sources/stg3/mambaforge/envs/env_fluidsim/lib/python3.10/site-packa[0m
         [35mges/fluidsim/base/output/[0m[95mspatiotemporal_spectra.py[0m has not been        
         compiled for Transonic-Pythran                                         
[31mWARNING [0m Module                                                                 
         [35m/HA/sources/stg3/mambaforge/envs/env_fluidsim/lib/python3.10/site-packa[0m
         [35mges/fluidsim/base/output/[0m[95mspatiotemporal_spectra.py[0m has not been        
         compiled for Transonic-Pythran                                         
[31mWARNING [0m Module                                                                 
         [35m/HA/sources/stg3/mambaforge/envs/env_fluidsim/lib/python3.10/site-packa[0m
         [35mges/fluidsim/base/output/[0m[95mspatiotemporal_spectra.py[0m has not been        
         compiled for Transonic-Pythran                                         
[31mWARNING [0m Module                                                                 
         [35m/HA/sources/stg3/mambaforge/envs/env_fluidsim/lib/python3.10/site-packa[0m
         [35mges/fluidsim/base/output/[0m[95mspatiotemporal_spectra.py[0m has not been        
         compiled for Transonic-Pythran                                         
[31mWARNING [0m Module                                                                 
         [35m/HA/sources/stg3/mambaforge/envs/env_fluidsim/lib/python3.10/site-packa[0m
         [35mges/fluidsim/base/output/[0m[95mspatiotemporal_spectra.py[0m has not been        
         compiled for Transonic-Pythran                                         
[31mWARNING [0m Module                                                                 
         [35m/HA/sources/stg3/mambaforge/envs/env_fluidsim/lib/python3.10/site-packa[0m
         [35mges/fluidsim/base/output/[0m[95mspatiotemporal_spectra.py[0m has not been        
         compiled for Transonic-Pythran                                         
[31mWARNING [0m Module                                                                 
         [35m/HA/sources/stg3/mambaforge/envs/env_fluidsim/lib/python3.10/site-packa[0m
         [35mges/fluidsim/base/output/[0m[95mspatiotemporal_spectra.py[0m has not been        
         compiled for Transonic-Pythran                                         
[31mWARNING [0m Module                                                                 
         [35m/HA/sources/stg3/mambaforge/envs/env_fluidsim/lib/python3.10/site-packa[0m
         [35mges/fluidsim/base/output/[0m[95mspatiotemporal_spectra.py[0m has not been        
         compiled for Transonic-Pythran                                         
[31mWARNING [0m Module                                                                 
         [35m/HA/sources/stg3/mambaforge/envs/env_fluidsim/lib/python3.10/site-packa[0m
         [35mges/fluidsim/base/output/[0m[95mspatiotemporal_spectra.py[0m has not been        
         compiled for Transonic-Pythran                                         
[31mWARNING [0m Module                                                                 
         [35m/HA/sources/stg3/mambaforge/envs/env_fluidsim/lib/python3.10/site-packa[0m
         [35mges/fluidsim/base/output/[0m[95mspatiotemporal_spectra.py[0m has not been        
         compiled for Transonic-Pythran                                         
[31mWARNING [0m Module                                                                 
         [35m/HA/sources/stg3/mambaforge/envs/env_fluidsim/lib/python3.10/site-packa[0m
         [35mges/fluidsim/base/output/[0m[95mspatiotemporal_spectra.py[0m has not been        
         compiled for Transonic-Pythran                                         
[31mWARNING [0m Module                                                                 
         [35m/HA/sources/stg3/mambaforge/envs/env_fluidsim/lib/python3.10/site-packa[0m
         [35mges/fluidsim/base/output/[0m[95mspatiotemporal_spectra.py[0m has not been        
         compiled for Transonic-Pythran                                         
[31mWARNING [0m Module                                                                 
         [35m/HA/sources/stg3/mambaforge/envs/env_fluidsim/lib/python3.10/site-packa[0m
         [35mges/fluidsim/base/output/[0m[95mspatiotemporal_spectra.py[0m has not been        
         compiled for Transonic-Pythran                                         
[31mWARNING [0m Module                                                                 
         [35m/HA/sources/stg3/mambaforge/envs/env_fluidsim/lib/python3.10/site-packa[0m
         [35mges/fluidsim/base/output/[0m[95mspatiotemporal_spectra.py[0m has not been        
         compiled for Transonic-Pythran                                         
Traceback (most recent call last):
  File "/HA/sources/stg3/num-methods-turb/book/part3/practical_chapter2/simul_ns3d_kolmo.py", line 72, in <module>
Traceback (most recent call last):
  File "/HA/sources/stg3/num-methods-turb/book/part3/practical_chapter2/simul_ns3d_kolmo.py", line 72, in <module>
    sim = Simul(params)
  File "/HA/sources/stg3/mambaforge/envs/env_fluidsim/lib/python3.10/site-packages/fluidsim/base/solvers/base.py", line 128, in __init__
    self.oper = Operators(params=params)
  File "/HA/sources/stg3/mambaforge/envs/env_fluidsim/lib/python3.10/site-packages/fluidsim/operators/operators3d.py", line 223, in __init__
    super().__init__(
  File "/HA/sources/stg3/mambaforge/envs/env_fluidsim/lib/python3.10/site-packages/fluidfft/fft3d/operators.py", line 190, in __init__
    op_fft = create_fft_object(fft, nz, ny, nx)
  File "/HA/sources/stg3/mambaforge/envs/env_fluidsim/lib/python3.10/site-packages/fluidfft/__init__.py", line 166, in create_fft_object
    return cls(n0, n1, n2)
  File "fluidfft/fft3d/fft3dmpi_with_fftwmpi3d.pyx", line 73, in fluidfft.fft3d.mpi_with_fftwmpi3d.FFT3DMPIWithFFTWMPI3D.__cinit__
  File "fluidfft/fft3d/fft3dmpi_with_fftwmpi3d.pyx", line 70, in fluidfft.fft3d.mpi_with_fftwmpi3d.FFT3DMPIWithFFTWMPI3D.__cinit__
ValueError: Invalid arguments

    sim = Simul(params)
  File "/HA/sources/stg3/mambaforge/envs/env_fluidsim/lib/python3.10/site-packages/fluidsim/base/solvers/base.py", line 128, in __init__
    self.oper = Operators(params=params)
  File "/HA/sources/stg3/mambaforge/envs/env_fluidsim/lib/python3.10/site-packages/fluidsim/operators/operators3d.py", line 223, in __init__
    super().__init__(
  File "/HA/sources/stg3/mambaforge/envs/env_fluidsim/lib/python3.10/site-packages/fluidfft/fft3d/operators.py", line 190, in __init__
    op_fft = create_fft_object(fft, nz, ny, nx)
  File "/HA/sources/stg3/mambaforge/envs/env_fluidsim/lib/python3.10/site-packages/fluidfft/__init__.py", line 166, in create_fft_object
    return cls(n0, n1, n2)
  File "fluidfft/fft3d/fft3dmpi_with_fftwmpi3d.pyx", line 73, in fluidfft.fft3d.mpi_with_fftwmpi3d.FFT3DMPIWithFFTWMPI3D.__cinit__
  File "fluidfft/fft3d/fft3dmpi_with_fftwmpi3d.pyx", line 70, in fluidfft.fft3d.mpi_with_fftwmpi3d.FFT3DMPIWithFFTWMPI3D.__cinit__
Traceback (most recent call last):
  File "/HA/sources/stg3/num-methods-turb/book/part3/practical_chapter2/simul_ns3d_kolmo.py", line 72, in <module>
    sim = Simul(params)
  File "/HA/sources/stg3/mambaforge/envs/env_fluidsim/lib/python3.10/site-packages/fluidsim/base/solvers/base.py", line 128, in __init__
    self.oper = Operators(params=params)
  File "/HA/sources/stg3/mambaforge/envs/env_fluidsim/lib/python3.10/site-packages/fluidsim/operators/operators3d.py", line 223, in __init__
    super().__init__(
  File "/HA/sources/stg3/mambaforge/envs/env_fluidsim/lib/python3.10/site-packages/fluidfft/fft3d/operators.py", line 190, in __init__
    op_fft = create_fft_object(fft, nz, ny, nx)
  File "/HA/sources/stg3/mambaforge/envs/env_fluidsim/lib/python3.10/site-packages/fluidfft/__init__.py", line 166, in create_fft_object
    return cls(n0, n1, n2)
  File "fluidfft/fft3d/fft3dmpi_with_fftwmpi3d.pyx", line 73, in fluidfft.fft3d.mpi_with_fftwmpi3d.FFT3DMPIWithFFTWMPI3D.__cinit__
  File "fluidfft/fft3d/fft3dmpi_with_fftwmpi3d.pyx", line 70, in fluidfft.fft3d.mpi_with_fftwmpi3d.FFT3DMPIWithFFTWMPI3D.__cinit__
ValueError: Invalid arguments

Traceback (most recent call last):
  File "/HA/sources/stg3/num-methods-turb/book/part3/practical_chapter2/simul_ns3d_kolmo.py", line 72, in <module>
ValueError: Invalid arguments
    sim = Simul(params)
  File "/HA/sources/stg3/mambaforge/envs/env_fluidsim/lib/python3.10/site-packages/fluidsim/base/solvers/base.py", line 128, in __init__
    self.oper = Operators(params=params)
  File "/HA/sources/stg3/mambaforge/envs/env_fluidsim/lib/python3.10/site-packages/fluidsim/operators/operators3d.py", line 223, in __init__
    super().__init__(
  File "/HA/sources/stg3/mambaforge/envs/env_fluidsim/lib/python3.10/site-packages/fluidfft/fft3d/operators.py", line 190, in __init__
    op_fft = create_fft_object(fft, nz, ny, nx)
  File "/HA/sources/stg3/mambaforge/envs/env_fluidsim/lib/python3.10/site-packages/fluidfft/__init__.py", line 166, in create_fft_object
    return cls(n0, n1, n2)
  File "fluidfft/fft3d/fft3dmpi_with_fftwmpi3d.pyx", line 73, in fluidfft.fft3d.mpi_with_fftwmpi3d.FFT3DMPIWithFFTWMPI3D.__cinit__
  File "fluidfft/fft3d/fft3dmpi_with_fftwmpi3d.pyx", line 70, in fluidfft.fft3d.mpi_with_fftwmpi3d.FFT3DMPIWithFFTWMPI3D.__cinit__
ValueError: Invalid arguments
--------------------------------------------------------------------------
MPI_ABORT was invoked on rank 6 in communicator MPI_COMM_WORLD
with errorcode 0.

NOTE: invoking MPI_ABORT causes Open MPI to kill all MPI processes.
You may or may not see output from other processes, depending on
exactly when Open MPI kills them.
--------------------------------------------------------------------------
[tenibre-0-0:290618] 1 more process has sent help message help-mpi-api.txt / mpi-abort
[tenibre-0-0:290618] Set MCA parameter "orte_base_help_aggregate" to 0 to see all help / error messages
