[31mWARNING [0m Module                                                                 
         [35m/HA/sources/stg3/mambaforge/envs/env_fluidsim/lib/python3.10/site-packa[0m
         [35mges/fluidsim/base/output/[0m[95mspatiotemporal_spectra.py[0m has not been        
         compiled for Transonic-Pythran                                         
[31mWARNING [0m Module                                                                 
         [35m/HA/sources/stg3/mambaforge/envs/env_fluidsim/lib/python3.10/site-packa[0m
         [35mges/fluidsim/base/output/[0m[95mspatiotemporal_spectra.py[0m has not been        
         compiled for Transonic-Pythran                                         
[31mWARNING [0m Module                                                                 
         [35m/HA/sources/stg3/mambaforge/envs/env_fluidsim/lib/python3.10/site-packa[0m
         [35mges/fluidsim/base/output/[0m[95mspatiotemporal_spectra.py[0m has not been        
         compiled for Transonic-Pythran                                         
[31mWARNING [0m Module                                                                 
         [35m/HA/sources/stg3/mambaforge/envs/env_fluidsim/lib/python3.10/site-packa[0m
         [35mges/fluidsim/base/output/[0m[95mspatiotemporal_spectra.py[0m has not been        
         compiled for Transonic-Pythran                                         
params.nu_2 = 1.00e-01

--------
nb_proc: 4
N0 = 64 ; N1 = 64 ; N2 = 64
Initialization (FFT3DMPIWithFFTWMPI3D) done in 0.109051 s
*************************************
Program fluidsim
sim:                <class 'fluidsim_core.extend_simul.extend_simul_class.<locals>.NewSimul'>
sim.output:         <class 'fluidsim.solvers.ns3d.output.Output'>
sim.oper:           <class 'fluidsim.operators.operators3d.OperatorsPseudoSpectral3D'>
sim.state:          <class 'fluidsim.solvers.ns3d.state.StateNS3D'>
sim.time_stepping:  <class 'fluidsim.solvers.ns3d.time_stepping.TimeSteppingPseudoSpectralNS3D'>
sim.init_fields:    <class 'fluidsim.solvers.ns3d.init_fields.InitFieldsNS3D'>
sim.forcing:        <class 'fluidsim.solvers.ns3d.forcing.ForcingNS3D'>

solver ns3d, RK4 and parallel (4 proc.)
type fft: fluidfft.fft3d.mpi_with_fftwmpi3d
nx =     64 ; ny =     64 ; nz =     64
Lx = 2pi ; Ly = 2pi ; Lz = 2pi
path_run =
/HA/sources/stg3/Sim_data/examples/ns3d_kolmo_64x64x64_V2pix2pix2pi_2022-11-25_11-12-41
init_fields.type: noise

Initialization outputs:
sim.output.cross_corr:        <class 'fluidsim.base.output.cross_corr3d.CrossCorrelations'>
sim.output.phys_fields:       <class 'fluidsim.base.output.phys_fields3d.PhysFieldsBase3D'>
sim.output.spatial_means:     <class 'fluidsim.solvers.ns3d.output.spatial_means.SpatialMeansNS3D'>
sim.output.spatiotemporal_spectra:<class 'fluidsim.solvers.ns3d.output.spatiotemporal_spectra.SpatioTemporalSpectraNS3D'>
sim.output.spectra:           <class 'fluidsim.solvers.ns3d.output.spectra.SpectraNS3D'>
sim.output.spect_energy_budg: <class 'fluidsim.solvers.ns3d.output.spect_energy_budget.SpectralEnergyBudgetNS3D'>
sim.output.temporal_spectra:  <class 'fluidsim.base.output.temporal_spectra.TemporalSpectra3D'>
sim.output.horiz_means:       <class 'fluidsim.base.output.horiz_means.HorizontalMeans'>
[0, 16, 32, 48] [4096, 4096, 4096, 4096] [16, 16, 16, 16]

Memory usage at the end of init. (equiv. seq.): 823.42578125 Mo
Size of state_spect (equiv. seq.): 6.488064 Mo
*************************************
Beginning of the computation
save state_phys in file state_phys_t00000.000.h5
    compute until t =        200
it =      0 ; t =            0 ; deltat  =    0.03895
              energy = 6.148e-02 ; Delta energy = +0.000e+00

MEMORY_USAGE:                  825.34765625 Mo
it =     17 ; t =      1.04336 ; deltat  =   0.063512
              energy = 2.602e-01 ; Delta energy = +1.987e-01
              estimated remaining duration = 0:01:13
MEMORY_USAGE:                  852.62109375 Mo
it =     35 ; t =      2.01771 ; deltat  =   0.045665
              energy = 8.532e-01 ; Delta energy = +5.930e-01
              estimated remaining duration = 0:01:25
MEMORY_USAGE:                  854.20703125 Mo
it =     60 ; t =       3.0143 ; deltat  =   0.034641
              energy = 1.715e+00 ; Delta energy = +8.615e-01
              estimated remaining duration = 0:01:50
MEMORY_USAGE:                  854.20703125 Mo
it =     92 ; t =      4.02303 ; deltat  =   0.028801
              energy = 2.766e+00 ; Delta energy = +1.051e+00
              estimated remaining duration = 0:02:18
MEMORY_USAGE:                  854.20703125 Mo
it =    130 ; t =      5.02449 ; deltat  =   0.024177
              energy = 3.923e+00 ; Delta energy = +1.157e+00
              estimated remaining duration = 0:02:45
MEMORY_USAGE:                  854.20703125 Mo
it =    173 ; t =      6.00885 ; deltat  =   0.021337
              energy = 5.123e+00 ; Delta energy = +1.200e+00
              estimated remaining duration = 0:03:07
MEMORY_USAGE:                  854.20703125 Mo
it =    222 ; t =      7.00922 ; deltat  =   0.019215
              energy = 6.368e+00 ; Delta energy = +1.245e+00
              estimated remaining duration = 0:03:30
MEMORY_USAGE:                  854.20703125 Mo
it =    276 ; t =      8.01096 ; deltat  =   0.017687
              energy = 7.613e+00 ; Delta energy = +1.245e+00
              estimated remaining duration = 0:03:51
MEMORY_USAGE:                  854.20703125 Mo
it =    334 ; t =       9.0048 ; deltat  =   0.016617
              energy = 8.825e+00 ; Delta energy = +1.212e+00
              estimated remaining duration = 0:04:06
MEMORY_USAGE:                  854.20703125 Mo
it =    397 ; t =      10.0138 ; deltat  =   0.015632
              energy = 1.002e+01 ; Delta energy = +1.192e+00
              estimated remaining duration = 0:04:23
MEMORY_USAGE:                  854.20703125 Mo
it =    463 ; t =       11.011 ; deltat  =   0.014714
              energy = 1.115e+01 ; Delta energy = +1.130e+00
              estimated remaining duration = 0:04:37
MEMORY_USAGE:                  854.20703125 Mo
it =    532 ; t =      12.0042 ; deltat  =   0.014137
              energy = 1.222e+01 ; Delta energy = +1.071e+00
              estimated remaining duration = 0:04:51
MEMORY_USAGE:                  854.20703125 Mo
it =    605 ; t =       13.011 ; deltat  =   0.013581
              energy = 1.324e+01 ; Delta energy = +1.026e+00
              estimated remaining duration = 0:04:59
MEMORY_USAGE:                  854.20703125 Mo
it =    680 ; t =      14.0078 ; deltat  =   0.013048
              energy = 1.420e+01 ; Delta energy = +9.537e-01
              estimated remaining duration = 0:05:09
MEMORY_USAGE:                  854.20703125 Mo
it =    757 ; t =      15.0001 ; deltat  =    0.01279
              energy = 1.509e+01 ; Delta energy = +8.882e-01
              estimated remaining duration = 0:05:17
MEMORY_USAGE:                  854.20703125 Mo
it =    837 ; t =      16.0007 ; deltat  =    0.01229
              energy = 1.592e+01 ; Delta energy = +8.345e-01
              estimated remaining duration = 0:05:27
MEMORY_USAGE:                  854.20703125 Mo
it =    919 ; t =      17.0012 ; deltat  =   0.012048
              energy = 1.669e+01 ; Delta energy = +7.745e-01
              estimated remaining duration = 0:05:31
MEMORY_USAGE:                  854.20703125 Mo
it =   1003 ; t =      18.0042 ; deltat  =   0.011811
              energy = 1.741e+01 ; Delta energy = +7.186e-01
              estimated remaining duration = 0:05:36
MEMORY_USAGE:                  854.20703125 Mo
it =   1089 ; t =      19.0116 ; deltat  =   0.011577
              energy = 1.808e+01 ; Delta energy = +6.660e-01
              estimated remaining duration = 0:05:41
MEMORY_USAGE:                  854.20703125 Mo
it =   1175 ; t =      20.0026 ; deltat  =   0.011349
              energy = 1.868e+01 ; Delta energy = +6.036e-01
              estimated remaining duration = 0:05:45
MEMORY_USAGE:                  854.20703125 Mo
it =   1263 ; t =      21.0013 ; deltat  =   0.011349
              energy = 1.924e+01 ; Delta energy = +5.595e-01
              estimated remaining duration = 0:05:49
MEMORY_USAGE:                  854.20703125 Mo
it =   1353 ; t =      22.0055 ; deltat  =   0.011125
              energy = 1.976e+01 ; Delta energy = +5.163e-01
              estimated remaining duration = 0:05:52
MEMORY_USAGE:                  854.20703125 Mo
it =   1443 ; t =      23.0021 ; deltat  =   0.010906
              energy = 2.023e+01 ; Delta energy = +4.697e-01
              estimated remaining duration = 0:05:53
MEMORY_USAGE:                  854.20703125 Mo
it =   1535 ; t =      24.0055 ; deltat  =   0.010906
              energy = 2.066e+01 ; Delta energy = +4.328e-01
              estimated remaining duration = 0:05:56
MEMORY_USAGE:                  854.484375 Mo
it =   1627 ; t =      25.0039 ; deltat  =   0.010691
              energy = 2.105e+01 ; Delta energy = +3.937e-01
              estimated remaining duration = 0:05:55
MEMORY_USAGE:                  854.484375 Mo
it =   1721 ; t =      26.0089 ; deltat  =   0.010691
              energy = 2.142e+01 ; Delta energy = +3.619e-01
              estimated remaining duration = 0:06:00
MEMORY_USAGE:                  854.484375 Mo
it =   1814 ; t =      27.0032 ; deltat  =   0.010691
              energy = 2.174e+01 ; Delta energy = +3.267e-01
              estimated remaining duration = 0:05:58
MEMORY_USAGE:                  854.484375 Mo
it =   1909 ; t =      28.0046 ; deltat  =   0.010482
              energy = 2.204e+01 ; Delta energy = +3.000e-01
              estimated remaining duration = 0:06:00
MEMORY_USAGE:                  854.484375 Mo
it =   2004 ; t =      29.0004 ; deltat  =   0.010482
              energy = 2.232e+01 ; Delta energy = +2.718e-01
              estimated remaining duration = 0:06:00
MEMORY_USAGE:                  854.48828125 Mo
it =   2100 ; t =      30.0066 ; deltat  =   0.010482
              energy = 2.257e+01 ; Delta energy = +2.500e-01
              estimated remaining duration = 0:05:57
MEMORY_USAGE:                  854.48828125 Mo
it =   2196 ; t =      31.0086 ; deltat  =   0.010276
              energy = 2.279e+01 ; Delta energy = +2.264e-01
              estimated remaining duration = 0:05:57
MEMORY_USAGE:                  854.48828125 Mo
it =   2293 ; t =      32.0053 ; deltat  =   0.010276
              energy = 2.300e+01 ; Delta energy = +2.048e-01
              estimated remaining duration = 0:06:00
MEMORY_USAGE:                  854.48828125 Mo
it =   2390 ; t =      33.0021 ; deltat  =   0.010276
              energy = 2.318e+01 ; Delta energy = +1.862e-01
              estimated remaining duration = 0:05:58
MEMORY_USAGE:                  854.48828125 Mo
it =   2488 ; t =      34.0091 ; deltat  =   0.010276
              energy = 2.335e+01 ; Delta energy = +1.709e-01
              estimated remaining duration = 0:05:55
MEMORY_USAGE:                  854.48828125 Mo
it =   2585 ; t =      35.0059 ; deltat  =   0.010276
              energy = 2.351e+01 ; Delta energy = +1.536e-01
              estimated remaining duration = 0:05:55
MEMORY_USAGE:                  854.48828125 Mo
it =   2682 ; t =      36.0026 ; deltat  =   0.010276
              energy = 2.365e+01 ; Delta energy = +1.395e-01
              estimated remaining duration = 0:05:51
MEMORY_USAGE:                  854.48828125 Mo
it =   2781 ; t =      37.0074 ; deltat  =   0.010074
              energy = 2.377e+01 ; Delta energy = +1.276e-01
              estimated remaining duration = 0:05:53
MEMORY_USAGE:                  854.48828125 Mo
it =   2880 ; t =      38.0048 ; deltat  =   0.010074
              energy = 2.389e+01 ; Delta energy = +1.149e-01
              estimated remaining duration = 0:05:54
MEMORY_USAGE:                  854.48828125 Mo
it =   2979 ; t =      39.0021 ; deltat  =   0.010074
              energy = 2.399e+01 ; Delta energy = +1.043e-01
              estimated remaining duration = 0:05:51
MEMORY_USAGE:                  854.48828125 Mo
it =   3079 ; t =      40.0095 ; deltat  =   0.010074
              energy = 2.409e+01 ; Delta energy = +9.548e-02
              estimated remaining duration = 0:05:49
MEMORY_USAGE:                  854.48828125 Mo
it =   3178 ; t =      41.0069 ; deltat  =   0.010074
              energy = 2.417e+01 ; Delta energy = +8.568e-02
              estimated remaining duration = 0:05:47
MEMORY_USAGE:                  854.48828125 Mo
it =   3277 ; t =      42.0042 ; deltat  =   0.010074
              energy = 2.425e+01 ; Delta energy = +7.769e-02
              estimated remaining duration = 0:05:46
MEMORY_USAGE:                  854.48828125 Mo
it =   3376 ; t =      43.0015 ; deltat  =   0.010074
              energy = 2.432e+01 ; Delta energy = +7.043e-02
              estimated remaining duration = 0:05:43
MEMORY_USAGE:                  855.03515625 Mo
it =   3476 ; t =       44.009 ; deltat  =   0.010074
              energy = 2.439e+01 ; Delta energy = +6.445e-02
              estimated remaining duration = 0:05:42
MEMORY_USAGE:                  855.03515625 Mo
it =   3575 ; t =      45.0063 ; deltat  =   0.010074
              energy = 2.445e+01 ; Delta energy = +5.780e-02
              estimated remaining duration = 0:05:38
MEMORY_USAGE:                  855.03515625 Mo
it =   3674 ; t =      46.0036 ; deltat  =   0.010074
              energy = 2.450e+01 ; Delta energy = +5.238e-02
              estimated remaining duration = 0:05:36
MEMORY_USAGE:                  855.03515625 Mo
it =   3773 ; t =       47.001 ; deltat  =   0.010074
              energy = 2.455e+01 ; Delta energy = +4.746e-02
              estimated remaining duration = 0:05:34
MEMORY_USAGE:                  855.03515625 Mo
it =   3873 ; t =      48.0084 ; deltat  =   0.010074
              energy = 2.459e+01 ; Delta energy = +4.341e-02
              estimated remaining duration = 0:05:32
MEMORY_USAGE:                  855.16015625 Mo
it =   3972 ; t =      49.0057 ; deltat  =   0.010074
              energy = 2.463e+01 ; Delta energy = +3.891e-02
              estimated remaining duration = 0:05:30
MEMORY_USAGE:                  855.16015625 Mo
it =   4071 ; t =       50.003 ; deltat  =   0.010074
              energy = 2.466e+01 ; Delta energy = +3.524e-02
              estimated remaining duration = 0:05:27
MEMORY_USAGE:                  855.16015625 Mo
it =   4171 ; t =      51.0075 ; deltat  =  0.0098766
              energy = 2.469e+01 ; Delta energy = +3.214e-02
              estimated remaining duration = 0:05:26
MEMORY_USAGE:                  855.16015625 Mo
it =   4272 ; t =       52.005 ; deltat  =  0.0098766
              energy = 2.472e+01 ; Delta energy = +2.890e-02
              estimated remaining duration = 0:05:30
MEMORY_USAGE:                  855.16015625 Mo
it =   4373 ; t =      53.0026 ; deltat  =  0.0098766
              energy = 2.475e+01 ; Delta energy = +2.617e-02
              estimated remaining duration = 0:05:28
MEMORY_USAGE:                  855.16015625 Mo
it =   4474 ; t =      54.0001 ; deltat  =  0.0098766
              energy = 2.477e+01 ; Delta energy = +2.370e-02
              estimated remaining duration = 0:05:26
MEMORY_USAGE:                  855.16015625 Mo
it =   4576 ; t =      55.0075 ; deltat  =  0.0098766
              energy = 2.480e+01 ; Delta energy = +2.166e-02
              estimated remaining duration = 0:05:23
MEMORY_USAGE:                  855.16015625 Mo
it =   4677 ; t =       56.005 ; deltat  =  0.0098766
              energy = 2.481e+01 ; Delta energy = +1.941e-02
              estimated remaining duration = 0:05:21
MEMORY_USAGE:                  855.16015625 Mo
it =   4778 ; t =      57.0026 ; deltat  =  0.0098766
              energy = 2.483e+01 ; Delta energy = +1.757e-02
              estimated remaining duration = 0:05:19
MEMORY_USAGE:                  855.16015625 Mo
it =   4879 ; t =      58.0001 ; deltat  =  0.0098766
              energy = 2.485e+01 ; Delta energy = +1.591e-02
              estimated remaining duration = 0:05:16
MEMORY_USAGE:                  855.16015625 Mo
it =   4981 ; t =      59.0075 ; deltat  =  0.0098766
              energy = 2.486e+01 ; Delta energy = +1.454e-02
              estimated remaining duration = 0:05:14
MEMORY_USAGE:                  855.16015625 Mo
it =   5082 ; t =       60.005 ; deltat  =  0.0098766
              energy = 2.488e+01 ; Delta energy = +1.303e-02
              estimated remaining duration = 0:05:12
MEMORY_USAGE:                  855.16015625 Mo
it =   5183 ; t =      61.0026 ; deltat  =  0.0098766
              energy = 2.489e+01 ; Delta energy = +1.180e-02
              estimated remaining duration = 0:05:10
MEMORY_USAGE:                  855.16015625 Mo
it =   5284 ; t =      62.0001 ; deltat  =  0.0098766
              energy = 2.490e+01 ; Delta energy = +1.068e-02
              estimated remaining duration = 0:05:08
MEMORY_USAGE:                  855.23046875 Mo
it =   5386 ; t =      63.0075 ; deltat  =  0.0098766
              energy = 2.491e+01 ; Delta energy = +9.758e-03
              estimated remaining duration = 0:05:05
MEMORY_USAGE:                  855.23046875 Mo
it =   5487 ; t =       64.005 ; deltat  =  0.0098766
              energy = 2.492e+01 ; Delta energy = +8.742e-03
              estimated remaining duration = 0:05:03
MEMORY_USAGE:                  855.23046875 Mo
it =   5588 ; t =      65.0026 ; deltat  =  0.0098766
              energy = 2.492e+01 ; Delta energy = +7.914e-03
              estimated remaining duration = 0:05:01
MEMORY_USAGE:                  855.23046875 Mo
it =   5689 ; t =      66.0001 ; deltat  =  0.0098766
              energy = 2.493e+01 ; Delta energy = +7.163e-03
              estimated remaining duration = 0:04:59
MEMORY_USAGE:                  855.234375 Mo
it =   5791 ; t =      67.0075 ; deltat  =  0.0098766
              energy = 2.494e+01 ; Delta energy = +6.545e-03
              estimated remaining duration = 0:04:57
MEMORY_USAGE:                  855.234375 Mo
it =   5892 ; t =       68.005 ; deltat  =  0.0098766
              energy = 2.494e+01 ; Delta energy = +5.864e-03
              estimated remaining duration = 0:04:54
MEMORY_USAGE:                  855.234375 Mo
it =   5993 ; t =      69.0026 ; deltat  =  0.0098766
              energy = 2.495e+01 ; Delta energy = +5.308e-03
              estimated remaining duration = 0:04:52
MEMORY_USAGE:                  855.234375 Mo
it =   6094 ; t =      70.0001 ; deltat  =  0.0098766
              energy = 2.495e+01 ; Delta energy = +4.804e-03
              estimated remaining duration = 0:04:50
MEMORY_USAGE:                  855.234375 Mo
it =   6196 ; t =      71.0075 ; deltat  =  0.0098766
              energy = 2.496e+01 ; Delta energy = +4.389e-03
              estimated remaining duration = 0:04:47
MEMORY_USAGE:                  855.234375 Mo
it =   6297 ; t =      72.0051 ; deltat  =  0.0098766
              energy = 2.496e+01 ; Delta energy = +3.932e-03
              estimated remaining duration = 0:04:45
MEMORY_USAGE:                  855.234375 Mo
it =   6398 ; t =      73.0026 ; deltat  =  0.0098766
              energy = 2.497e+01 ; Delta energy = +3.559e-03
              estimated remaining duration = 0:04:42
MEMORY_USAGE:                  855.234375 Mo
it =   6499 ; t =      74.0001 ; deltat  =  0.0098766
              energy = 2.497e+01 ; Delta energy = +3.221e-03
              estimated remaining duration = 0:04:39
MEMORY_USAGE:                  855.234375 Mo
it =   6601 ; t =      75.0075 ; deltat  =  0.0098766
              energy = 2.497e+01 ; Delta energy = +2.943e-03
              estimated remaining duration = 0:04:37
MEMORY_USAGE:                  855.234375 Mo
it =   6702 ; t =      76.0051 ; deltat  =  0.0098766
              energy = 2.497e+01 ; Delta energy = +2.637e-03
              estimated remaining duration = 0:04:35
MEMORY_USAGE:                  855.234375 Mo
it =   6803 ; t =      77.0026 ; deltat  =  0.0098766
              energy = 2.498e+01 ; Delta energy = +2.386e-03
              estimated remaining duration = 0:04:33
MEMORY_USAGE:                  855.234375 Mo
it =   6904 ; t =      78.0001 ; deltat  =  0.0098766
              energy = 2.498e+01 ; Delta energy = +2.160e-03
              estimated remaining duration = 0:04:30
MEMORY_USAGE:                  855.234375 Mo
it =   7006 ; t =      79.0075 ; deltat  =  0.0098766
              energy = 2.498e+01 ; Delta energy = +1.973e-03
              estimated remaining duration = 0:04:28
MEMORY_USAGE:                  855.234375 Mo
it =   7107 ; t =      80.0051 ; deltat  =  0.0098766
              energy = 2.498e+01 ; Delta energy = +1.768e-03
              estimated remaining duration = 0:04:26
MEMORY_USAGE:                  855.30078125 Mo
it =   7208 ; t =      81.0026 ; deltat  =  0.0098766
              energy = 2.498e+01 ; Delta energy = +1.600e-03
              estimated remaining duration = 0:04:24
MEMORY_USAGE:                  855.30078125 Mo
it =   7309 ; t =      82.0001 ; deltat  =  0.0098766
              energy = 2.499e+01 ; Delta energy = +1.448e-03
              estimated remaining duration = 0:04:22
MEMORY_USAGE:                  855.30078125 Mo
it =   7411 ; t =      83.0075 ; deltat  =  0.0098766
              energy = 2.499e+01 ; Delta energy = +1.323e-03
              estimated remaining duration = 0:04:19
MEMORY_USAGE:                  855.30078125 Mo
it =   7512 ; t =      84.0051 ; deltat  =  0.0098766
              energy = 2.499e+01 ; Delta energy = +1.185e-03
              estimated remaining duration = 0:04:17
MEMORY_USAGE:                  855.30078125 Mo
it =   7613 ; t =      85.0026 ; deltat  =  0.0098766
              energy = 2.499e+01 ; Delta energy = +1.073e-03
              estimated remaining duration = 0:04:15
MEMORY_USAGE:                  855.45703125 Mo
it =   7714 ; t =      86.0001 ; deltat  =  0.0098766
              energy = 2.499e+01 ; Delta energy = +9.708e-04
              estimated remaining duration = 0:04:13
MEMORY_USAGE:                  855.45703125 Mo
it =   7816 ; t =      87.0075 ; deltat  =  0.0098766
              energy = 2.499e+01 ; Delta energy = +8.869e-04
              estimated remaining duration = 0:04:10
MEMORY_USAGE:                  855.45703125 Mo
it =   7917 ; t =      88.0051 ; deltat  =  0.0098766
              energy = 2.499e+01 ; Delta energy = +7.944e-04
              estimated remaining duration = 0:04:08
MEMORY_USAGE:                  855.45703125 Mo
it =   8018 ; t =      89.0026 ; deltat  =  0.0098766
              energy = 2.499e+01 ; Delta energy = +7.190e-04
              estimated remaining duration = 0:04:06
MEMORY_USAGE:                  855.51953125 Mo
it =   8119 ; t =      90.0001 ; deltat  =  0.0098766
              energy = 2.499e+01 ; Delta energy = +6.508e-04
              estimated remaining duration = 0:04:04
MEMORY_USAGE:                  855.51953125 Mo
it =   8221 ; t =      91.0076 ; deltat  =  0.0098766
              energy = 2.499e+01 ; Delta energy = +5.945e-04
              estimated remaining duration = 0:04:02
MEMORY_USAGE:                  855.51953125 Mo
it =   8322 ; t =      92.0051 ; deltat  =  0.0098766
              energy = 2.499e+01 ; Delta energy = +5.326e-04
              estimated remaining duration = 0:04:01
MEMORY_USAGE:                  855.51953125 Mo
it =   8423 ; t =      93.0026 ; deltat  =  0.0098766
              energy = 2.500e+01 ; Delta energy = +4.820e-04
              estimated remaining duration = 0:03:57
MEMORY_USAGE:                  855.51953125 Mo
it =   8524 ; t =      94.0001 ; deltat  =  0.0098766
              energy = 2.500e+01 ; Delta energy = +4.362e-04
              estimated remaining duration = 0:03:55
MEMORY_USAGE:                  855.51953125 Mo
it =   8626 ; t =      95.0076 ; deltat  =  0.0098766
              energy = 2.500e+01 ; Delta energy = +3.985e-04
              estimated remaining duration = 0:03:53
MEMORY_USAGE:                  855.51953125 Mo
it =   8727 ; t =      96.0051 ; deltat  =  0.0098766
              energy = 2.500e+01 ; Delta energy = +3.570e-04
              estimated remaining duration = 0:03:51
MEMORY_USAGE:                  855.51953125 Mo
it =   8828 ; t =      97.0026 ; deltat  =  0.0098766
              energy = 2.500e+01 ; Delta energy = +3.231e-04
              estimated remaining duration = 0:03:48
MEMORY_USAGE:                  855.51953125 Mo
it =   8929 ; t =      98.0002 ; deltat  =  0.0098766
              energy = 2.500e+01 ; Delta energy = +2.924e-04
              estimated remaining duration = 0:03:46
MEMORY_USAGE:                  856.09375 Mo
it =   9031 ; t =      99.0076 ; deltat  =  0.0098766
              energy = 2.500e+01 ; Delta energy = +2.672e-04
              estimated remaining duration = 0:03:44
MEMORY_USAGE:                  856.09375 Mo
it =   9132 ; t =      100.005 ; deltat  =  0.0098766
              energy = 2.500e+01 ; Delta energy = +2.393e-04
              estimated remaining duration = 0:03:42
MEMORY_USAGE:                  856.09375 Mo
it =   9233 ; t =      101.003 ; deltat  =  0.0098766
              energy = 2.500e+01 ; Delta energy = +2.166e-04
              estimated remaining duration = 0:03:39
MEMORY_USAGE:                  856.09375 Mo
it =   9334 ; t =          102 ; deltat  =  0.0098766
              energy = 2.500e+01 ; Delta energy = +1.960e-04
              estimated remaining duration = 0:03:37
MEMORY_USAGE:                  856.09375 Mo
it =   9436 ; t =      103.008 ; deltat  =  0.0098766
              energy = 2.500e+01 ; Delta energy = +1.791e-04
              estimated remaining duration = 0:03:35
MEMORY_USAGE:                  856.09765625 Mo
it =   9537 ; t =      104.005 ; deltat  =  0.0098766
              energy = 2.500e+01 ; Delta energy = +1.604e-04
              estimated remaining duration = 0:03:32
MEMORY_USAGE:                  856.09765625 Mo
it =   9638 ; t =      105.003 ; deltat  =  0.0098766
              energy = 2.500e+01 ; Delta energy = +1.452e-04
              estimated remaining duration = 0:03:30
MEMORY_USAGE:                  856.09765625 Mo
it =   9739 ; t =          106 ; deltat  =  0.0098766
              energy = 2.500e+01 ; Delta energy = +1.314e-04
              estimated remaining duration = 0:03:28
MEMORY_USAGE:                  856.09765625 Mo
it =   9841 ; t =      107.008 ; deltat  =  0.0098766
              energy = 2.500e+01 ; Delta energy = +1.200e-04
              estimated remaining duration = 0:03:26
MEMORY_USAGE:                  856.09765625 Mo
it =   9942 ; t =      108.005 ; deltat  =  0.0098766
              energy = 2.500e+01 ; Delta energy = +1.075e-04
              estimated remaining duration = 0:03:24
MEMORY_USAGE:                  856.8984375 Mo
it =  10043 ; t =      109.003 ; deltat  =  0.0098766
              energy = 2.500e+01 ; Delta energy = +9.732e-05
              estimated remaining duration = 0:03:21
MEMORY_USAGE:                  856.8984375 Mo
it =  10144 ; t =          110 ; deltat  =  0.0098766
              energy = 2.500e+01 ; Delta energy = +8.808e-05
              estimated remaining duration = 0:03:19
MEMORY_USAGE:                  856.8984375 Mo
it =  10246 ; t =      111.008 ; deltat  =  0.0098766
              energy = 2.500e+01 ; Delta energy = +8.047e-05
              estimated remaining duration = 0:03:17
MEMORY_USAGE:                  856.8984375 Mo
it =  10347 ; t =      112.005 ; deltat  =  0.0098766
              energy = 2.500e+01 ; Delta energy = +7.208e-05
              estimated remaining duration = 0:03:15
MEMORY_USAGE:                  856.8984375 Mo
it =  10448 ; t =      113.003 ; deltat  =  0.0098766
              energy = 2.500e+01 ; Delta energy = +6.524e-05
              estimated remaining duration = 0:03:13
MEMORY_USAGE:                  856.8984375 Mo
it =  10549 ; t =          114 ; deltat  =  0.0098766
              energy = 2.500e+01 ; Delta energy = +5.904e-05
              estimated remaining duration = 0:03:11
MEMORY_USAGE:                  856.8984375 Mo
it =  10651 ; t =      115.008 ; deltat  =  0.0098766
              energy = 2.500e+01 ; Delta energy = +5.394e-05
              estimated remaining duration = 0:03:08
MEMORY_USAGE:                  856.8984375 Mo
it =  10752 ; t =      116.005 ; deltat  =  0.0098766
              energy = 2.500e+01 ; Delta energy = +4.832e-05
              estimated remaining duration = 0:03:07
MEMORY_USAGE:                  856.8984375 Mo
it =  10853 ; t =      117.003 ; deltat  =  0.0098766
              energy = 2.500e+01 ; Delta energy = +4.373e-05
              estimated remaining duration = 0:03:04
MEMORY_USAGE:                  858.5859375 Mo
it =  10954 ; t =          118 ; deltat  =  0.0098766
              energy = 2.500e+01 ; Delta energy = +3.958e-05
              estimated remaining duration = 0:03:02
MEMORY_USAGE:                  858.5859375 Mo
it =  11056 ; t =      119.008 ; deltat  =  0.0098766
              energy = 2.500e+01 ; Delta energy = +3.616e-05
              estimated remaining duration = 0:03:00
MEMORY_USAGE:                  858.5859375 Mo
it =  11157 ; t =      120.005 ; deltat  =  0.0098766
              energy = 2.500e+01 ; Delta energy = +3.239e-05
              estimated remaining duration = 0:02:58
MEMORY_USAGE:                  858.5859375 Mo
it =  11258 ; t =      121.003 ; deltat  =  0.0098766
              energy = 2.500e+01 ; Delta energy = +2.931e-05
              estimated remaining duration = 0:02:55
MEMORY_USAGE:                  858.5859375 Mo
it =  11359 ; t =          122 ; deltat  =  0.0098766
              energy = 2.500e+01 ; Delta energy = +2.653e-05
              estimated remaining duration = 0:02:53
MEMORY_USAGE:                  859.08984375 Mo
it =  11461 ; t =      123.008 ; deltat  =  0.0098766
              energy = 2.500e+01 ; Delta energy = +2.424e-05
              estimated remaining duration = 0:02:51
MEMORY_USAGE:                  859.08984375 Mo
it =  11562 ; t =      124.005 ; deltat  =  0.0098766
              energy = 2.500e+01 ; Delta energy = +2.171e-05
              estimated remaining duration = 0:02:49
MEMORY_USAGE:                  859.08984375 Mo
it =  11663 ; t =      125.003 ; deltat  =  0.0098766
              energy = 2.500e+01 ; Delta energy = +1.965e-05
              estimated remaining duration = 0:02:47
MEMORY_USAGE:                  859.08984375 Mo
it =  11764 ; t =          126 ; deltat  =  0.0098766
              energy = 2.500e+01 ; Delta energy = +1.778e-05
              estimated remaining duration = 0:02:44
MEMORY_USAGE:                  859.12109375 Mo
it =  11866 ; t =      127.008 ; deltat  =  0.0098766
              energy = 2.500e+01 ; Delta energy = +1.625e-05
              estimated remaining duration = 0:02:42
MEMORY_USAGE:                  859.12109375 Mo
it =  11967 ; t =      128.005 ; deltat  =  0.0098766
              energy = 2.500e+01 ; Delta energy = +1.455e-05
              estimated remaining duration = 0:02:40
MEMORY_USAGE:                  859.12109375 Mo
it =  12068 ; t =      129.003 ; deltat  =  0.0098766
              energy = 2.500e+01 ; Delta energy = +1.317e-05
              estimated remaining duration = 0:02:38
MEMORY_USAGE:                  859.12109375 Mo
it =  12169 ; t =          130 ; deltat  =  0.0098766
              energy = 2.500e+01 ; Delta energy = +1.192e-05
              estimated remaining duration = 0:02:36
MEMORY_USAGE:                  859.12109375 Mo
it =  12271 ; t =      131.008 ; deltat  =  0.0098766
              energy = 2.500e+01 ; Delta energy = +1.089e-05
              estimated remaining duration = 0:02:33
MEMORY_USAGE:                  859.12109375 Mo
it =  12372 ; t =      132.005 ; deltat  =  0.0098766
              energy = 2.500e+01 ; Delta energy = +9.755e-06
              estimated remaining duration = 0:02:31
MEMORY_USAGE:                  859.12109375 Mo
it =  12473 ; t =      133.003 ; deltat  =  0.0098766
              energy = 2.500e+01 ; Delta energy = +8.829e-06
              estimated remaining duration = 0:02:29
MEMORY_USAGE:                  859.12109375 Mo
it =  12574 ; t =          134 ; deltat  =  0.0098766
              energy = 2.500e+01 ; Delta energy = +7.991e-06
              estimated remaining duration = 0:02:27
MEMORY_USAGE:                  859.12109375 Mo
it =  12676 ; t =      135.008 ; deltat  =  0.0098766
              energy = 2.500e+01 ; Delta energy = +7.300e-06
              estimated remaining duration = 0:02:24
MEMORY_USAGE:                  859.12109375 Mo
it =  12777 ; t =      136.005 ; deltat  =  0.0098766
              energy = 2.500e+01 ; Delta energy = +6.539e-06
              estimated remaining duration = 0:02:22
MEMORY_USAGE:                  859.12109375 Mo
it =  12878 ; t =      137.003 ; deltat  =  0.0098766
              energy = 2.500e+01 ; Delta energy = +5.918e-06
              estimated remaining duration = 0:02:20
MEMORY_USAGE:                  859.12109375 Mo
it =  12979 ; t =          138 ; deltat  =  0.0098766
              energy = 2.500e+01 ; Delta energy = +5.356e-06
              estimated remaining duration = 0:02:18
MEMORY_USAGE:                  859.12109375 Mo
it =  13081 ; t =      139.008 ; deltat  =  0.0098766
              energy = 2.500e+01 ; Delta energy = +4.893e-06
              estimated remaining duration = 0:02:16
MEMORY_USAGE:                  859.12109375 Mo
it =  13182 ; t =      140.005 ; deltat  =  0.0098766
              energy = 2.500e+01 ; Delta energy = +4.383e-06
              estimated remaining duration = 0:02:13
MEMORY_USAGE:                  859.12109375 Mo
it =  13283 ; t =      141.003 ; deltat  =  0.0098766
              energy = 2.500e+01 ; Delta energy = +3.967e-06
              estimated remaining duration = 0:02:11
MEMORY_USAGE:                  859.12109375 Mo
it =  13384 ; t =          142 ; deltat  =  0.0098766
              energy = 2.500e+01 ; Delta energy = +3.591e-06
              estimated remaining duration = 0:02:09
MEMORY_USAGE:                  859.12109375 Mo
it =  13486 ; t =      143.008 ; deltat  =  0.0098766
              energy = 2.500e+01 ; Delta energy = +3.280e-06
              estimated remaining duration = 0:02:07
MEMORY_USAGE:                  859.12109375 Mo
it =  13587 ; t =      144.005 ; deltat  =  0.0098766
              energy = 2.500e+01 ; Delta energy = +2.938e-06
              estimated remaining duration = 0:02:04
MEMORY_USAGE:                  859.12109375 Mo
it =  13688 ; t =      145.003 ; deltat  =  0.0098766
              energy = 2.500e+01 ; Delta energy = +2.659e-06
              estimated remaining duration = 0:02:02
MEMORY_USAGE:                  859.12109375 Mo
it =  13789 ; t =          146 ; deltat  =  0.0098766
              energy = 2.500e+01 ; Delta energy = +2.407e-06
              estimated remaining duration = 0:02:00
MEMORY_USAGE:                  859.12109375 Mo
it =  13891 ; t =      147.008 ; deltat  =  0.0098766
              energy = 2.500e+01 ; Delta energy = +2.199e-06
              estimated remaining duration = 0:01:58
MEMORY_USAGE:                  859.12109375 Mo
it =  13992 ; t =      148.005 ; deltat  =  0.0098766
              energy = 2.500e+01 ; Delta energy = +1.970e-06
              estimated remaining duration = 0:01:56
MEMORY_USAGE:                  859.12109375 Mo
it =  14093 ; t =      149.003 ; deltat  =  0.0098766
              energy = 2.500e+01 ; Delta energy = +1.783e-06
              estimated remaining duration = 0:01:53
MEMORY_USAGE:                  859.12109375 Mo
it =  14194 ; t =          150 ; deltat  =  0.0098766
              energy = 2.500e+01 ; Delta energy = +1.613e-06
              estimated remaining duration = 0:01:51
MEMORY_USAGE:                  859.12109375 Mo
it =  14296 ; t =      151.008 ; deltat  =  0.0098766
              energy = 2.500e+01 ; Delta energy = +1.474e-06
              estimated remaining duration = 0:01:49
MEMORY_USAGE:                  859.12109375 Mo
it =  14397 ; t =      152.005 ; deltat  =  0.0098766
              energy = 2.500e+01 ; Delta energy = +1.320e-06
              estimated remaining duration = 0:01:47
MEMORY_USAGE:                  859.12109375 Mo
it =  14498 ; t =      153.003 ; deltat  =  0.0098766
              energy = 2.500e+01 ; Delta energy = +1.195e-06
              estimated remaining duration = 0:01:44
MEMORY_USAGE:                  859.12109375 Mo
it =  14599 ; t =          154 ; deltat  =  0.0098766
              energy = 2.500e+01 ; Delta energy = +1.081e-06
              estimated remaining duration = 0:01:42
MEMORY_USAGE:                  859.12109375 Mo
it =  14701 ; t =      155.008 ; deltat  =  0.0098766
              energy = 2.500e+01 ; Delta energy = +9.880e-07
              estimated remaining duration = 0:01:40
MEMORY_USAGE:                  859.12109375 Mo
it =  14802 ; t =      156.005 ; deltat  =  0.0098766
              energy = 2.500e+01 ; Delta energy = +8.850e-07
              estimated remaining duration = 0:01:38
MEMORY_USAGE:                  859.12109375 Mo
it =  14903 ; t =      157.003 ; deltat  =  0.0098766
              energy = 2.500e+01 ; Delta energy = +8.010e-07
              estimated remaining duration = 0:01:36
MEMORY_USAGE:                  859.12109375 Mo
it =  15004 ; t =          158 ; deltat  =  0.0098766
              energy = 2.500e+01 ; Delta energy = +7.249e-07
              estimated remaining duration = 0:01:33
MEMORY_USAGE:                  859.12109375 Mo
it =  15106 ; t =      159.008 ; deltat  =  0.0098766
              energy = 2.500e+01 ; Delta energy = +6.623e-07
              estimated remaining duration = 0:01:31
MEMORY_USAGE:                  859.12109375 Mo
it =  15207 ; t =      160.005 ; deltat  =  0.0098766
              energy = 2.500e+01 ; Delta energy = +5.932e-07
              estimated remaining duration = 0:01:29
MEMORY_USAGE:                  859.12109375 Mo
it =  15308 ; t =      161.003 ; deltat  =  0.0098766
              energy = 2.500e+01 ; Delta energy = +5.369e-07
              estimated remaining duration = 0:01:27
MEMORY_USAGE:                  859.12109375 Mo
it =  15409 ; t =          162 ; deltat  =  0.0098766
              energy = 2.500e+01 ; Delta energy = +4.859e-07
              estimated remaining duration = 0:01:24
MEMORY_USAGE:                  859.12109375 Mo
it =  15511 ; t =      163.008 ; deltat  =  0.0098766
              energy = 2.500e+01 ; Delta energy = +4.439e-07
              estimated remaining duration = 0:01:22
MEMORY_USAGE:                  859.12109375 Mo
it =  15612 ; t =      164.005 ; deltat  =  0.0098766
              energy = 2.500e+01 ; Delta energy = +3.976e-07
              estimated remaining duration = 0:01:20
MEMORY_USAGE:                  859.12109375 Mo
it =  15713 ; t =      165.003 ; deltat  =  0.0098766
              energy = 2.500e+01 ; Delta energy = +3.599e-07
              estimated remaining duration = 0:01:18
MEMORY_USAGE:                  859.12109375 Mo
it =  15814 ; t =          166 ; deltat  =  0.0098766
              energy = 2.500e+01 ; Delta energy = +3.257e-07
              estimated remaining duration = 0:01:16
MEMORY_USAGE:                  859.12109375 Mo
it =  15916 ; t =      167.008 ; deltat  =  0.0098766
              energy = 2.500e+01 ; Delta energy = +2.976e-07
              estimated remaining duration = 0:01:13
MEMORY_USAGE:                  859.12109375 Mo
it =  16017 ; t =      168.005 ; deltat  =  0.0098766
              energy = 2.500e+01 ; Delta energy = +2.665e-07
              estimated remaining duration = 0:01:11
MEMORY_USAGE:                  859.12109375 Mo
it =  16118 ; t =      169.003 ; deltat  =  0.0098766
              energy = 2.500e+01 ; Delta energy = +2.412e-07
              estimated remaining duration = 0:01:09
MEMORY_USAGE:                  859.12109375 Mo
it =  16219 ; t =          170 ; deltat  =  0.0098766
              energy = 2.500e+01 ; Delta energy = +2.183e-07
              estimated remaining duration = 0:01:07
MEMORY_USAGE:                  859.12109375 Mo
it =  16321 ; t =      171.008 ; deltat  =  0.0098766
              energy = 2.500e+01 ; Delta energy = +1.995e-07
              estimated remaining duration = 0:01:04
MEMORY_USAGE:                  859.12109375 Mo
it =  16422 ; t =      172.005 ; deltat  =  0.0098766
              energy = 2.500e+01 ; Delta energy = +1.787e-07
              estimated remaining duration = 0:01:02
MEMORY_USAGE:                  860.73046875 Mo
it =  16523 ; t =      173.003 ; deltat  =  0.0098766
              energy = 2.500e+01 ; Delta energy = +1.617e-07
              estimated remaining duration = 0:01:00
MEMORY_USAGE:                  860.73046875 Mo
it =  16624 ; t =          174 ; deltat  =  0.0098766
              energy = 2.500e+01 ; Delta energy = +1.464e-07
              estimated remaining duration = 0:00:58
MEMORY_USAGE:                  860.73046875 Mo
it =  16726 ; t =      175.008 ; deltat  =  0.0098766
              energy = 2.500e+01 ; Delta energy = +1.337e-07
              estimated remaining duration = 0:00:56
MEMORY_USAGE:                  860.73046875 Mo
it =  16827 ; t =      176.005 ; deltat  =  0.0098766
              energy = 2.500e+01 ; Delta energy = +1.198e-07
              estimated remaining duration = 0:00:53
MEMORY_USAGE:                  860.73046875 Mo
it =  16928 ; t =      177.003 ; deltat  =  0.0098766
              energy = 2.500e+01 ; Delta energy = +1.084e-07
              estimated remaining duration = 0:00:51
MEMORY_USAGE:                  860.73046875 Mo
it =  17029 ; t =          178 ; deltat  =  0.0098766
              energy = 2.500e+01 ; Delta energy = +9.811e-08
              estimated remaining duration = 0:00:49
MEMORY_USAGE:                  860.73046875 Mo
it =  17131 ; t =      179.008 ; deltat  =  0.0098766
              energy = 2.500e+01 ; Delta energy = +8.963e-08
              estimated remaining duration = 0:00:47
MEMORY_USAGE:                  860.73046875 Mo
it =  17232 ; t =      180.005 ; deltat  =  0.0098766
              energy = 2.500e+01 ; Delta energy = +8.028e-08
              estimated remaining duration = 0:00:44
MEMORY_USAGE:                  860.73046875 Mo
it =  17333 ; t =      181.003 ; deltat  =  0.0098766
              energy = 2.500e+01 ; Delta energy = +7.266e-08
              estimated remaining duration = 0:00:42
MEMORY_USAGE:                  860.73046875 Mo
it =  17434 ; t =          182 ; deltat  =  0.0098766
              energy = 2.500e+01 ; Delta energy = +6.576e-08
              estimated remaining duration = 0:00:40
MEMORY_USAGE:                  860.73046875 Mo
it =  17536 ; t =      183.008 ; deltat  =  0.0098766
              energy = 2.500e+01 ; Delta energy = +6.008e-08
              estimated remaining duration = 0:00:38
MEMORY_USAGE:                  860.73046875 Mo
it =  17637 ; t =      184.005 ; deltat  =  0.0098766
              energy = 2.500e+01 ; Delta energy = +5.381e-08
              estimated remaining duration = 0:00:35
MEMORY_USAGE:                  860.73046875 Mo
it =  17738 ; t =      185.003 ; deltat  =  0.0098766
              energy = 2.500e+01 ; Delta energy = +4.871e-08
              estimated remaining duration = 0:00:33
MEMORY_USAGE:                  860.73046875 Mo
it =  17839 ; t =          186 ; deltat  =  0.0098766
              energy = 2.500e+01 ; Delta energy = +4.408e-08
              estimated remaining duration = 0:00:31
MEMORY_USAGE:                  860.8984375 Mo
it =  17941 ; t =      187.008 ; deltat  =  0.0098766
              energy = 2.500e+01 ; Delta energy = +4.027e-08
              estimated remaining duration = 0:00:29
MEMORY_USAGE:                  860.8984375 Mo
it =  18042 ; t =      188.005 ; deltat  =  0.0098766
              energy = 2.500e+01 ; Delta energy = +3.607e-08
              estimated remaining duration = 0:00:26
MEMORY_USAGE:                  860.8984375 Mo
it =  18143 ; t =      189.003 ; deltat  =  0.0098766
              energy = 2.500e+01 ; Delta energy = +3.265e-08
              estimated remaining duration = 0:00:24
MEMORY_USAGE:                  860.8984375 Mo
it =  18244 ; t =          190 ; deltat  =  0.0098766
              energy = 2.500e+01 ; Delta energy = +2.955e-08
              estimated remaining duration = 0:00:22
MEMORY_USAGE:                  860.8984375 Mo
it =  18346 ; t =      191.008 ; deltat  =  0.0098766
              energy = 2.500e+01 ; Delta energy = +2.700e-08
              estimated remaining duration = 0:00:20
MEMORY_USAGE:                  860.9453125 Mo
it =  18447 ; t =      192.005 ; deltat  =  0.0098766
              energy = 2.500e+01 ; Delta energy = +2.418e-08
              estimated remaining duration = 0:00:18
MEMORY_USAGE:                  860.9453125 Mo
it =  18548 ; t =      193.003 ; deltat  =  0.0098766
              energy = 2.500e+01 ; Delta energy = +2.188e-08
              estimated remaining duration = 0:00:15
MEMORY_USAGE:                  860.9453125 Mo
it =  18649 ; t =          194 ; deltat  =  0.0098766
              energy = 2.500e+01 ; Delta energy = +1.981e-08
              estimated remaining duration = 0:00:13
MEMORY_USAGE:                  860.9453125 Mo
it =  18751 ; t =      195.008 ; deltat  =  0.0098766
              energy = 2.500e+01 ; Delta energy = +1.810e-08
              estimated remaining duration = 0:00:11
MEMORY_USAGE:                  861.0703125 Mo
it =  18852 ; t =      196.005 ; deltat  =  0.0098766
              energy = 2.500e+01 ; Delta energy = +1.621e-08
              estimated remaining duration = 0:00:09
MEMORY_USAGE:                  861.0703125 Mo
it =  18953 ; t =      197.003 ; deltat  =  0.0098766
              energy = 2.500e+01 ; Delta energy = +1.467e-08
              estimated remaining duration = 0:00:07
MEMORY_USAGE:                  861.0703125 Mo
it =  19054 ; t =          198 ; deltat  =  0.0098766
              energy = 2.500e+01 ; Delta energy = +1.328e-08
              estimated remaining duration = 0:00:04
MEMORY_USAGE:                  861.0703125 Mo
it =  19156 ; t =      199.008 ; deltat  =  0.0098766
              energy = 2.500e+01 ; Delta energy = +1.213e-08
              estimated remaining duration = 0:00:02
MEMORY_USAGE:                  861.0703125 Mo
it =  19257 ; t =      200.005 ; deltat  =  0.0098766
              energy = 2.500e+01 ; Delta energy = +1.087e-08

MEMORY_USAGE:                  861.0703125 Mo
save state_phys in file state_phys_t00200.005.h5
Computation completed in  422.672 s
path_run =
/HA/sources/stg3/Sim_data/examples/ns3d_kolmo_64x64x64_V2pix2pix2pi_2022-11-25_11-12-41

To visualize the results, you can do:
cd /HA/sources/stg3/Sim_data/examples/ns3d_kolmo_64x64x64_V2pix2pix2pi_2022-11-25_11-12-41; fluidsim-ipy-load

sim.output.spatial_means.plot()

sim.output.phys_fields.set_equation_crosssection("y=0")
sim.output.phys_fields.animate('vx', dt_frame_in_sec=0.3, dt_equations=0.25)

tmin = 15
sim.output.horiz_means.plot(tmax=tmin)
sim.output.horiz_means.plot(tmin=tmin)

sim.output.spectra.plot1d(coef_compensate=5/3, tmin=tmin)
sim.output.spect_energy_budg.plot_fluxes(tmin=tmin)

