[31mWARNING [0m Module                                                                 
         [35m/HA/sources/stg3/mambaforge/envs/env_fluidsim/lib/python3.10/site-packa[0m
         [35mges/fluidsim/base/output/[0m[95mspatiotemporal_spectra.py[0m has not been        
         compiled for Transonic-Pythran                                         
[31mWARNING [0m Module                                                                 
         [35m/HA/sources/stg3/mambaforge/envs/env_fluidsim/lib/python3.10/site-packa[0m
         [35mges/fluidsim/base/output/[0m[95mspatiotemporal_spectra.py[0m has not been        
         compiled for Transonic-Pythran                                         
[31mWARNING [0m Module                                                                 
         [35m/HA/sources/stg3/mambaforge/envs/env_fluidsim/lib/python3.10/site-packa[0m
         [35mges/fluidsim/base/output/[0m[95mspatiotemporal_spectra.py[0m has not been        
         compiled for Transonic-Pythran                                         
[31mWARNING [0m Module                                                                 
         [35m/HA/sources/stg3/mambaforge/envs/env_fluidsim/lib/python3.10/site-packa[0m
         [35mges/fluidsim/base/output/[0m[95mspatiotemporal_spectra.py[0m has not been        
         compiled for Transonic-Pythran                                         
[31mWARNING [0m Module                                                                 
         [35m/HA/sources/stg3/mambaforge/envs/env_fluidsim/lib/python3.10/site-packa[0m
         [35mges/fluidsim/base/output/[0m[95mspatiotemporal_spectra.py[0m has not been        
         compiled for Transonic-Pythran                                         
[31mWARNING [0m Module                                                                 
         [35m/HA/sources/stg3/mambaforge/envs/env_fluidsim/lib/python3.10/site-packa[0m
         [35mges/fluidsim/base/output/[0m[95mspatiotemporal_spectra.py[0m has not been        
         compiled for Transonic-Pythran                                         
[31mWARNING [0m Module                                                                 
         [35m/HA/sources/stg3/mambaforge/envs/env_fluidsim/lib/python3.10/site-packa[0m
         [35mges/fluidsim/base/output/[0m[95mspatiotemporal_spectra.py[0m has not been        
         compiled for Transonic-Pythran                                         
[31mWARNING [0m Module                                                                 
         [35m/HA/sources/stg3/mambaforge/envs/env_fluidsim/lib/python3.10/site-packa[0m
         [35mges/fluidsim/base/output/[0m[95mspatiotemporal_spectra.py[0m has not been        
         compiled for Transonic-Pythran                                         
params.nu_2 = 1.00e-01

--------
nb_proc: 8
N0 = 64 ; N1 = 64 ; N2 = 64
Initialization (FFT3DMPIWithFFTWMPI3D) done in 0.103366 s
*************************************
Program fluidsim
sim:                <class 'fluidsim_core.extend_simul.extend_simul_class.<locals>.NewSimul'>
sim.output:         <class 'fluidsim.solvers.ns3d.output.Output'>
sim.oper:           <class 'fluidsim.operators.operators3d.OperatorsPseudoSpectral3D'>
sim.state:          <class 'fluidsim.solvers.ns3d.state.StateNS3D'>
sim.time_stepping:  <class 'fluidsim.solvers.ns3d.time_stepping.TimeSteppingPseudoSpectralNS3D'>
sim.init_fields:    <class 'fluidsim.solvers.ns3d.init_fields.InitFieldsNS3D'>
sim.forcing:        <class 'fluidsim.solvers.ns3d.forcing.ForcingNS3D'>

solver ns3d, RK4 and parallel (8 proc.)
type fft: fluidfft.fft3d.mpi_with_fftwmpi3d
nx =     64 ; ny =     64 ; nz =     64
Lx = 2pi ; Ly = 2pi ; Lz = 2pi
path_run =
/HA/sources/stg3/Sim_data/examples/ns3d_kolmo_64x64x64_V2pix2pix2pi_2022-11-25_11-23-49
init_fields.type: noise

Initialization outputs:
sim.output.cross_corr:        <class 'fluidsim.base.output.cross_corr3d.CrossCorrelations'>
sim.output.phys_fields:       <class 'fluidsim.base.output.phys_fields3d.PhysFieldsBase3D'>
sim.output.spatial_means:     <class 'fluidsim.solvers.ns3d.output.spatial_means.SpatialMeansNS3D'>
sim.output.spatiotemporal_spectra:<class 'fluidsim.solvers.ns3d.output.spatiotemporal_spectra.SpatioTemporalSpectraNS3D'>
sim.output.spectra:           <class 'fluidsim.solvers.ns3d.output.spectra.SpectraNS3D'>
sim.output.spect_energy_budg: <class 'fluidsim.solvers.ns3d.output.spect_energy_budget.SpectralEnergyBudgetNS3D'>
sim.output.temporal_spectra:  <class 'fluidsim.base.output.temporal_spectra.TemporalSpectra3D'>
sim.output.horiz_means:       <class 'fluidsim.base.output.horiz_means.HorizontalMeans'>
[0, 8, 16, 24, 32, 40, 48, 56] [4096, 4096, 4096, 4096, 4096, 4096, 4096, 4096] [8, 8, 8, 8, 8, 8, 8, 8]

Memory usage at the end of init. (equiv. seq.): 1572.9453125 Mo
Size of state_spect (equiv. seq.): 6.488064 Mo
*************************************
Beginning of the computation
save state_phys in file state_phys_t00000.000.h5
    compute until t =        200
it =      0 ; t =            0 ; deltat  =   0.036743
              energy = 6.943e-02 ; Delta energy = +0.000e+00

MEMORY_USAGE:                  1584.18359375 Mo
it =     18 ; t =      1.02424 ; deltat  =   0.065286
              energy = 2.500e-01 ; Delta energy = +1.806e-01
              estimated remaining duration = 0:00:51
MEMORY_USAGE:                  1612.49609375 Mo
it =     36 ; t =      2.01297 ; deltat  =   0.045679
              energy = 8.458e-01 ; Delta energy = +5.957e-01
              estimated remaining duration = 0:00:52
MEMORY_USAGE:                  1612.49609375 Mo
it =     61 ; t =      3.00792 ; deltat  =   0.034781
              energy = 1.704e+00 ; Delta energy = +8.579e-01
              estimated remaining duration = 0:01:11
MEMORY_USAGE:                  1612.49609375 Mo
it =     93 ; t =      4.00771 ; deltat  =   0.028211
              energy = 2.743e+00 ; Delta energy = +1.040e+00
              estimated remaining duration = 0:01:33
MEMORY_USAGE:                  1615.296875 Mo
it =    131 ; t =      5.00085 ; deltat  =   0.024266
              energy = 3.890e+00 ; Delta energy = +1.146e+00
              estimated remaining duration = 0:01:47
MEMORY_USAGE:                  1615.296875 Mo
it =    175 ; t =      6.00054 ; deltat  =   0.021363
              energy = 5.108e+00 ; Delta energy = +1.218e+00
              estimated remaining duration = 0:02:04
MEMORY_USAGE:                  1615.296875 Mo
it =    225 ; t =      7.01181 ; deltat  =   0.019235
              energy = 6.367e+00 ; Delta energy = +1.260e+00
              estimated remaining duration = 0:02:22
MEMORY_USAGE:                  1615.296875 Mo
it =    279 ; t =      8.00477 ; deltat  =   0.017714
              energy = 7.603e+00 ; Delta energy = +1.235e+00
              estimated remaining duration = 0:02:29
MEMORY_USAGE:                  1615.296875 Mo
it =    338 ; t =        9.007 ; deltat  =   0.016347
              energy = 8.827e+00 ; Delta energy = +1.224e+00
              estimated remaining duration = 0:02:44
MEMORY_USAGE:                  1615.296875 Mo
it =    401 ; t =      10.0082 ; deltat  =   0.015379
              energy = 1.001e+01 ; Delta energy = +1.185e+00
              estimated remaining duration = 0:02:57
MEMORY_USAGE:                  1615.296875 Mo
it =    468 ; t =      11.0147 ; deltat  =   0.014486
              energy = 1.115e+01 ; Delta energy = +1.142e+00
              estimated remaining duration = 0:03:00
MEMORY_USAGE:                  1615.296875 Mo
it =    537 ; t =      12.0007 ; deltat  =   0.013921
              energy = 1.222e+01 ; Delta energy = +1.065e+00
              estimated remaining duration = 0:03:13
MEMORY_USAGE:                  1615.296875 Mo
it =    610 ; t =       13.002 ; deltat  =   0.013376
              energy = 1.324e+01 ; Delta energy = +1.022e+00
              estimated remaining duration = 0:03:21
MEMORY_USAGE:                  1615.296875 Mo
it =    686 ; t =      14.0074 ; deltat  =   0.013111
              energy = 1.420e+01 ; Delta energy = +9.637e-01
              estimated remaining duration = 0:03:24
MEMORY_USAGE:                  1615.296875 Mo
it =    764 ; t =      15.0054 ; deltat  =   0.012597
              energy = 1.510e+01 ; Delta energy = +8.943e-01
              estimated remaining duration = 0:03:32
MEMORY_USAGE:                  1615.296875 Mo
it =    844 ; t =      16.0021 ; deltat  =   0.012346
              energy = 1.593e+01 ; Delta energy = +8.320e-01
              estimated remaining duration = 0:03:38
MEMORY_USAGE:                  1615.296875 Mo
it =    927 ; t =      17.0117 ; deltat  =   0.012102
              energy = 1.671e+01 ; Delta energy = +7.819e-01
              estimated remaining duration = 0:03:39
MEMORY_USAGE:                  1615.296875 Mo
it =   1011 ; t =       18.011 ; deltat  =   0.011861
              energy = 1.743e+01 ; Delta energy = +7.159e-01
              estimated remaining duration = 0:03:38
MEMORY_USAGE:                  1615.296875 Mo
it =   1096 ; t =      19.0021 ; deltat  =   0.011628
              energy = 1.808e+01 ; Delta energy = +6.558e-01
              estimated remaining duration = 0:03:48
MEMORY_USAGE:                  1615.3046875 Mo
it =   1184 ; t =       20.011 ; deltat  =   0.011398
              energy = 1.870e+01 ; Delta energy = +6.147e-01
              estimated remaining duration = 0:03:51
MEMORY_USAGE:                  1615.3046875 Mo
it =   1272 ; t =       21.006 ; deltat  =   0.011175
              energy = 1.926e+01 ; Delta energy = +5.572e-01
              estimated remaining duration = 0:03:53
MEMORY_USAGE:                  1615.44140625 Mo
it =   1361 ; t =      22.0005 ; deltat  =   0.011175
              energy = 1.977e+01 ; Delta energy = +5.113e-01
              estimated remaining duration = 0:03:53
MEMORY_USAGE:                  1615.4609375 Mo
it =   1452 ; t =      23.0004 ; deltat  =   0.010954
              energy = 2.024e+01 ; Delta energy = +4.712e-01
              estimated remaining duration = 0:03:52
MEMORY_USAGE:                  1615.4609375 Mo
it =   1544 ; t =      24.0082 ; deltat  =   0.010954
              energy = 2.067e+01 ; Delta energy = +4.344e-01
              estimated remaining duration = 0:03:56
MEMORY_USAGE:                  1615.4609375 Mo
it =   1637 ; t =      25.0075 ; deltat  =   0.010739
              energy = 2.107e+01 ; Delta energy = +3.936e-01
              estimated remaining duration = 0:03:59
MEMORY_USAGE:                  1615.4609375 Mo
it =   1730 ; t =      26.0062 ; deltat  =   0.010739
              energy = 2.143e+01 ; Delta energy = +3.592e-01
              estimated remaining duration = 0:03:58
MEMORY_USAGE:                  1615.4609375 Mo
it =   1824 ; t =       27.004 ; deltat  =   0.010527
              energy = 2.175e+01 ; Delta energy = +3.274e-01
              estimated remaining duration = 0:04:01
MEMORY_USAGE:                  1615.4609375 Mo
it =   1919 ; t =      28.0041 ; deltat  =   0.010527
              energy = 2.205e+01 ; Delta energy = +2.991e-01
              estimated remaining duration = 0:03:55
MEMORY_USAGE:                  1615.4609375 Mo
it =   2014 ; t =      29.0042 ; deltat  =   0.010527
              energy = 2.232e+01 ; Delta energy = +2.725e-01
              estimated remaining duration = 0:03:59
MEMORY_USAGE:                  1615.4609375 Mo
it =   2110 ; t =      30.0076 ; deltat  =   0.010321
              energy = 2.257e+01 ; Delta energy = +2.488e-01
              estimated remaining duration = 0:03:59
MEMORY_USAGE:                  1615.4609375 Mo
it =   2207 ; t =      31.0087 ; deltat  =   0.010321
              energy = 2.280e+01 ; Delta energy = +2.257e-01
              estimated remaining duration = 0:04:00
MEMORY_USAGE:                  1615.4609375 Mo
it =   2304 ; t =      32.0099 ; deltat  =   0.010321
              energy = 2.300e+01 ; Delta energy = +2.052e-01
              estimated remaining duration = 0:03:59
MEMORY_USAGE:                  1615.4609375 Mo
it =   2400 ; t =      33.0006 ; deltat  =   0.010321
              energy = 2.319e+01 ; Delta energy = +1.846e-01
              estimated remaining duration = 0:03:57
MEMORY_USAGE:                  1615.4609375 Mo
it =   2497 ; t =      34.0017 ; deltat  =   0.010321
              energy = 2.336e+01 ; Delta energy = +1.695e-01
              estimated remaining duration = 0:03:58
MEMORY_USAGE:                  1615.4609375 Mo
it =   2595 ; t =      35.0045 ; deltat  =   0.010118
              energy = 2.351e+01 ; Delta energy = +1.542e-01
              estimated remaining duration = 0:03:52
MEMORY_USAGE:                  1615.4609375 Mo
it =   2694 ; t =      36.0062 ; deltat  =   0.010118
              energy = 2.365e+01 ; Delta energy = +1.398e-01
              estimated remaining duration = 0:03:57
MEMORY_USAGE:                  1616.1796875 Mo
it =   2793 ; t =      37.0079 ; deltat  =   0.010118
              energy = 2.378e+01 ; Delta energy = +1.268e-01
              estimated remaining duration = 0:03:54
MEMORY_USAGE:                  1616.1796875 Mo
it =   2892 ; t =      38.0096 ; deltat  =   0.010118
              energy = 2.389e+01 ; Delta energy = +1.150e-01
              estimated remaining duration = 0:03:55
MEMORY_USAGE:                  1616.1796875 Mo
it =   2990 ; t =      39.0012 ; deltat  =   0.010118
              energy = 2.400e+01 ; Delta energy = +1.033e-01
              estimated remaining duration = 0:03:54
MEMORY_USAGE:                  1616.1796875 Mo
it =   3089 ; t =      40.0029 ; deltat  =   0.010118
              energy = 2.409e+01 ; Delta energy = +9.465e-02
              estimated remaining duration = 0:03:52
MEMORY_USAGE:                  1616.1796875 Mo
it =   3188 ; t =      41.0046 ; deltat  =   0.010118
              energy = 2.418e+01 ; Delta energy = +8.579e-02
              estimated remaining duration = 0:03:51
MEMORY_USAGE:                  1616.1796875 Mo
it =   3287 ; t =      42.0063 ; deltat  =   0.010118
              energy = 2.426e+01 ; Delta energy = +7.775e-02
              estimated remaining duration = 0:03:49
MEMORY_USAGE:                  1616.1796875 Mo
it =   3386 ; t =       43.008 ; deltat  =   0.010118
              energy = 2.433e+01 ; Delta energy = +7.045e-02
              estimated remaining duration = 0:03:48
MEMORY_USAGE:                  1616.30859375 Mo
it =   3485 ; t =      44.0097 ; deltat  =   0.010118
              energy = 2.439e+01 ; Delta energy = +6.382e-02
              estimated remaining duration = 0:03:46
MEMORY_USAGE:                  1616.30859375 Mo
it =   3583 ; t =      45.0013 ; deltat  =   0.010118
              energy = 2.445e+01 ; Delta energy = +5.726e-02
              estimated remaining duration = 0:03:45
MEMORY_USAGE:                  1616.30859375 Mo
it =   3684 ; t =      46.0056 ; deltat  =  0.0099199
              energy = 2.450e+01 ; Delta energy = +5.254e-02
              estimated remaining duration = 0:03:44
MEMORY_USAGE:                  1616.30859375 Mo
it =   3785 ; t =      47.0075 ; deltat  =  0.0099199
              energy = 2.455e+01 ; Delta energy = +4.746e-02
              estimated remaining duration = 0:03:47
MEMORY_USAGE:                  1616.30859375 Mo
it =   3886 ; t =      48.0094 ; deltat  =  0.0099199
              energy = 2.459e+01 ; Delta energy = +4.298e-02
              estimated remaining duration = 0:03:45
MEMORY_USAGE:                  1616.30859375 Mo
it =   3986 ; t =      49.0014 ; deltat  =  0.0099199
              energy = 2.463e+01 ; Delta energy = +3.855e-02
              estimated remaining duration = 0:03:43
MEMORY_USAGE:                  1616.30859375 Mo
it =   4087 ; t =      50.0033 ; deltat  =  0.0099199
              energy = 2.466e+01 ; Delta energy = +3.527e-02
              estimated remaining duration = 0:03:42
MEMORY_USAGE:                  1616.30859375 Mo
it =   4188 ; t =      51.0052 ; deltat  =  0.0099199
              energy = 2.470e+01 ; Delta energy = +3.193e-02
              estimated remaining duration = 0:03:41
MEMORY_USAGE:                  1616.30859375 Mo
it =   4289 ; t =      52.0072 ; deltat  =  0.0099199
              energy = 2.472e+01 ; Delta energy = +2.890e-02
              estimated remaining duration = 0:03:39
MEMORY_USAGE:                  1616.30859375 Mo
it =   4390 ; t =      53.0091 ; deltat  =  0.0099199
              energy = 2.475e+01 ; Delta energy = +2.616e-02
              estimated remaining duration = 0:03:37
MEMORY_USAGE:                  1616.30859375 Mo
it =   4490 ; t =      54.0011 ; deltat  =  0.0099199
              energy = 2.477e+01 ; Delta energy = +2.346e-02
              estimated remaining duration = 0:03:38
MEMORY_USAGE:                  1616.30859375 Mo
it =   4591 ; t =       55.003 ; deltat  =  0.0099199
              energy = 2.480e+01 ; Delta energy = +2.145e-02
              estimated remaining duration = 0:03:33
MEMORY_USAGE:                  1616.30859375 Mo
it =   4692 ; t =      56.0049 ; deltat  =  0.0099199
              energy = 2.482e+01 ; Delta energy = +1.942e-02
              estimated remaining duration = 0:03:33
MEMORY_USAGE:                  1616.30859375 Mo
it =   4793 ; t =      57.0068 ; deltat  =  0.0099199
              energy = 2.483e+01 ; Delta energy = +1.757e-02
              estimated remaining duration = 0:03:32
MEMORY_USAGE:                  1616.30859375 Mo
it =   4894 ; t =      58.0087 ; deltat  =  0.0099199
              energy = 2.485e+01 ; Delta energy = +1.590e-02
              estimated remaining duration = 0:03:30
MEMORY_USAGE:                  1616.30859375 Mo
it =   4994 ; t =      59.0007 ; deltat  =  0.0099199
              energy = 2.486e+01 ; Delta energy = +1.425e-02
              estimated remaining duration = 0:03:29
MEMORY_USAGE:                  1616.30859375 Mo
it =   5095 ; t =      60.0026 ; deltat  =  0.0099199
              energy = 2.488e+01 ; Delta energy = +1.304e-02
              estimated remaining duration = 0:03:27
MEMORY_USAGE:                  1616.30859375 Mo
it =   5196 ; t =      61.0045 ; deltat  =  0.0099199
              energy = 2.489e+01 ; Delta energy = +1.180e-02
              estimated remaining duration = 0:03:26
MEMORY_USAGE:                  1616.30859375 Mo
it =   5297 ; t =      62.0064 ; deltat  =  0.0099199
              energy = 2.490e+01 ; Delta energy = +1.067e-02
              estimated remaining duration = 0:03:24
MEMORY_USAGE:                  1616.30859375 Mo
it =   5398 ; t =      63.0083 ; deltat  =  0.0099199
              energy = 2.491e+01 ; Delta energy = +9.658e-03
              estimated remaining duration = 0:03:23
MEMORY_USAGE:                  1616.30859375 Mo
it =   5498 ; t =      64.0003 ; deltat  =  0.0099199
              energy = 2.492e+01 ; Delta energy = +8.657e-03
              estimated remaining duration = 0:03:21
MEMORY_USAGE:                  1616.30859375 Mo
it =   5599 ; t =      65.0022 ; deltat  =  0.0099199
              energy = 2.492e+01 ; Delta energy = +7.915e-03
              estimated remaining duration = 0:03:20
MEMORY_USAGE:                  1616.30859375 Mo
it =   5700 ; t =      66.0041 ; deltat  =  0.0099199
              energy = 2.493e+01 ; Delta energy = +7.161e-03
              estimated remaining duration = 0:03:18
MEMORY_USAGE:                  1616.30859375 Mo
it =   5801 ; t =       67.006 ; deltat  =  0.0099199
              energy = 2.494e+01 ; Delta energy = +6.480e-03
              estimated remaining duration = 0:03:17
MEMORY_USAGE:                  1616.30859375 Mo
it =   5902 ; t =      68.0079 ; deltat  =  0.0099199
              energy = 2.494e+01 ; Delta energy = +5.863e-03
              estimated remaining duration = 0:03:15
MEMORY_USAGE:                  1616.30859375 Mo
it =   6003 ; t =      69.0098 ; deltat  =  0.0099199
              energy = 2.495e+01 ; Delta energy = +5.304e-03
              estimated remaining duration = 0:03:13
MEMORY_USAGE:                  1616.30859375 Mo
it =   6103 ; t =      70.0018 ; deltat  =  0.0099199
              energy = 2.495e+01 ; Delta energy = +4.754e-03
              estimated remaining duration = 0:03:10
MEMORY_USAGE:                  1616.30859375 Mo
it =   6204 ; t =      71.0037 ; deltat  =  0.0099199
              energy = 2.496e+01 ; Delta energy = +4.346e-03
              estimated remaining duration = 0:03:11
MEMORY_USAGE:                  1616.30859375 Mo
it =   6305 ; t =      72.0056 ; deltat  =  0.0099199
              energy = 2.496e+01 ; Delta energy = +3.932e-03
              estimated remaining duration = 0:03:09
MEMORY_USAGE:                  1616.30859375 Mo
it =   6406 ; t =      73.0075 ; deltat  =  0.0099199
              energy = 2.497e+01 ; Delta energy = +3.558e-03
              estimated remaining duration = 0:03:08
MEMORY_USAGE:                  1616.30859375 Mo
it =   6507 ; t =      74.0094 ; deltat  =  0.0099199
              energy = 2.497e+01 ; Delta energy = +3.219e-03
              estimated remaining duration = 0:03:06
MEMORY_USAGE:                  1616.30859375 Mo
it =   6607 ; t =      75.0014 ; deltat  =  0.0099199
              energy = 2.497e+01 ; Delta energy = +2.885e-03
              estimated remaining duration = 0:03:05
MEMORY_USAGE:                  1616.30859375 Mo
it =   6708 ; t =      76.0033 ; deltat  =  0.0099199
              energy = 2.497e+01 ; Delta energy = +2.637e-03
              estimated remaining duration = 0:03:03
MEMORY_USAGE:                  1616.30859375 Mo
it =   6809 ; t =      77.0052 ; deltat  =  0.0099199
              energy = 2.498e+01 ; Delta energy = +2.386e-03
              estimated remaining duration = 0:03:02
MEMORY_USAGE:                  1616.30859375 Mo
it =   6910 ; t =      78.0071 ; deltat  =  0.0099199
              energy = 2.498e+01 ; Delta energy = +2.159e-03
              estimated remaining duration = 0:03:01
MEMORY_USAGE:                  1616.30859375 Mo
it =   7011 ; t =      79.0091 ; deltat  =  0.0099199
              energy = 2.498e+01 ; Delta energy = +1.953e-03
              estimated remaining duration = 0:02:59
MEMORY_USAGE:                  1616.30859375 Mo
it =   7111 ; t =       80.001 ; deltat  =  0.0099199
              energy = 2.498e+01 ; Delta energy = +1.750e-03
              estimated remaining duration = 0:02:58
MEMORY_USAGE:                  1616.30859375 Mo
it =   7212 ; t =       81.003 ; deltat  =  0.0099199
              energy = 2.498e+01 ; Delta energy = +1.600e-03
              estimated remaining duration = 0:02:56
MEMORY_USAGE:                  1616.30859375 Mo
it =   7313 ; t =      82.0049 ; deltat  =  0.0099199
              energy = 2.499e+01 ; Delta energy = +1.447e-03
              estimated remaining duration = 0:02:54
MEMORY_USAGE:                  1616.30859375 Mo
it =   7414 ; t =      83.0068 ; deltat  =  0.0099199
              energy = 2.499e+01 ; Delta energy = +1.310e-03
              estimated remaining duration = 0:02:53
MEMORY_USAGE:                  1616.30859375 Mo
it =   7515 ; t =      84.0087 ; deltat  =  0.0099199
              energy = 2.499e+01 ; Delta energy = +1.185e-03
              estimated remaining duration = 0:02:51
MEMORY_USAGE:                  1616.30859375 Mo
it =   7615 ; t =      85.0007 ; deltat  =  0.0099199
              energy = 2.499e+01 ; Delta energy = +1.062e-03
              estimated remaining duration = 0:02:50
MEMORY_USAGE:                  1616.30859375 Mo
it =   7716 ; t =      86.0026 ; deltat  =  0.0099199
              energy = 2.499e+01 ; Delta energy = +9.706e-04
              estimated remaining duration = 0:02:48
MEMORY_USAGE:                  1616.30859375 Mo
it =   7817 ; t =      87.0045 ; deltat  =  0.0099199
              energy = 2.499e+01 ; Delta energy = +8.781e-04
              estimated remaining duration = 0:02:48
MEMORY_USAGE:                  1616.30859375 Mo
it =   7918 ; t =      88.0064 ; deltat  =  0.0099199
              energy = 2.499e+01 ; Delta energy = +7.944e-04
              estimated remaining duration = 0:02:44
MEMORY_USAGE:                  1616.30859375 Mo
it =   8019 ; t =      89.0083 ; deltat  =  0.0099199
              energy = 2.499e+01 ; Delta energy = +7.186e-04
              estimated remaining duration = 0:02:44
MEMORY_USAGE:                  1616.30859375 Mo
it =   8119 ; t =      90.0003 ; deltat  =  0.0099199
              energy = 2.499e+01 ; Delta energy = +6.440e-04
              estimated remaining duration = 0:02:43
MEMORY_USAGE:                  1616.30859375 Mo
it =   8220 ; t =      91.0022 ; deltat  =  0.0099199
              energy = 2.499e+01 ; Delta energy = +5.888e-04
              estimated remaining duration = 0:02:41
MEMORY_USAGE:                  1616.30859375 Mo
it =   8321 ; t =      92.0041 ; deltat  =  0.0099199
              energy = 2.499e+01 ; Delta energy = +5.326e-04
              estimated remaining duration = 0:02:40
MEMORY_USAGE:                  1616.30859375 Mo
it =   8422 ; t =       93.006 ; deltat  =  0.0099199
              energy = 2.500e+01 ; Delta energy = +4.819e-04
              estimated remaining duration = 0:02:38
MEMORY_USAGE:                  1616.30859375 Mo
it =   8523 ; t =      94.0079 ; deltat  =  0.0099199
              energy = 2.500e+01 ; Delta energy = +4.359e-04
              estimated remaining duration = 0:02:37
MEMORY_USAGE:                  1616.30859375 Mo
it =   8624 ; t =      95.0098 ; deltat  =  0.0099199
              energy = 2.500e+01 ; Delta energy = +3.944e-04
              estimated remaining duration = 0:02:35
MEMORY_USAGE:                  1616.30859375 Mo
it =   8724 ; t =      96.0018 ; deltat  =  0.0099199
              energy = 2.500e+01 ; Delta energy = +3.534e-04
              estimated remaining duration = 0:02:34
MEMORY_USAGE:                  1616.30859375 Mo
it =   8825 ; t =      97.0037 ; deltat  =  0.0099199
              energy = 2.500e+01 ; Delta energy = +3.231e-04
              estimated remaining duration = 0:02:32
MEMORY_USAGE:                  1616.30859375 Mo
it =   8926 ; t =      98.0056 ; deltat  =  0.0099199
              energy = 2.500e+01 ; Delta energy = +2.923e-04
              estimated remaining duration = 0:02:31
MEMORY_USAGE:                  1616.30859375 Mo
it =   9027 ; t =      99.0075 ; deltat  =  0.0099199
              energy = 2.500e+01 ; Delta energy = +2.644e-04
              estimated remaining duration = 0:02:30
MEMORY_USAGE:                  1616.30859375 Mo
it =   9128 ; t =      100.009 ; deltat  =  0.0099199
              energy = 2.500e+01 ; Delta energy = +2.392e-04
              estimated remaining duration = 0:02:29
MEMORY_USAGE:                  1616.30859375 Mo
it =   9228 ; t =      101.001 ; deltat  =  0.0099199
              energy = 2.500e+01 ; Delta energy = +2.144e-04
              estimated remaining duration = 0:02:26
MEMORY_USAGE:                  1616.30859375 Mo
it =   9329 ; t =      102.003 ; deltat  =  0.0099199
              energy = 2.500e+01 ; Delta energy = +1.960e-04
              estimated remaining duration = 0:02:25
MEMORY_USAGE:                  1616.30859375 Mo
it =   9430 ; t =      103.005 ; deltat  =  0.0099199
              energy = 2.500e+01 ; Delta energy = +1.773e-04
              estimated remaining duration = 0:02:23
MEMORY_USAGE:                  1616.30859375 Mo
it =   9531 ; t =      104.007 ; deltat  =  0.0099199
              energy = 2.500e+01 ; Delta energy = +1.604e-04
              estimated remaining duration = 0:02:22
MEMORY_USAGE:                  1616.30859375 Mo
it =   9632 ; t =      105.009 ; deltat  =  0.0099199
              energy = 2.500e+01 ; Delta energy = +1.451e-04
              estimated remaining duration = 0:02:20
MEMORY_USAGE:                  1616.30859375 Mo
it =   9732 ; t =      106.001 ; deltat  =  0.0099199
              energy = 2.500e+01 ; Delta energy = +1.300e-04
              estimated remaining duration = 0:02:19
MEMORY_USAGE:                  1616.30859375 Mo
it =   9833 ; t =      107.003 ; deltat  =  0.0099199
              energy = 2.500e+01 ; Delta energy = +1.189e-04
              estimated remaining duration = 0:02:17
MEMORY_USAGE:                  1616.30859375 Mo
it =   9934 ; t =      108.005 ; deltat  =  0.0099199
              energy = 2.500e+01 ; Delta energy = +1.075e-04
              estimated remaining duration = 0:02:16
MEMORY_USAGE:                  1616.30859375 Mo
it =  10035 ; t =      109.007 ; deltat  =  0.0099199
              energy = 2.500e+01 ; Delta energy = +9.729e-05
              estimated remaining duration = 0:02:14
MEMORY_USAGE:                  1616.30859375 Mo
it =  10136 ; t =      110.009 ; deltat  =  0.0099199
              energy = 2.500e+01 ; Delta energy = +8.801e-05
              estimated remaining duration = 0:02:13
MEMORY_USAGE:                  1616.30859375 Mo
it =  10236 ; t =      111.001 ; deltat  =  0.0099199
              energy = 2.500e+01 ; Delta energy = +7.887e-05
              estimated remaining duration = 0:02:12
MEMORY_USAGE:                  1616.30859375 Mo
it =  10337 ; t =      112.003 ; deltat  =  0.0099199
              energy = 2.500e+01 ; Delta energy = +7.210e-05
              estimated remaining duration = 0:02:10
MEMORY_USAGE:                  1616.30859375 Mo
it =  10438 ; t =      113.004 ; deltat  =  0.0099199
              energy = 2.500e+01 ; Delta energy = +6.523e-05
              estimated remaining duration = 0:02:09
MEMORY_USAGE:                  1616.30859375 Mo
it =  10539 ; t =      114.006 ; deltat  =  0.0099199
              energy = 2.500e+01 ; Delta energy = +5.901e-05
              estimated remaining duration = 0:02:07
MEMORY_USAGE:                  1616.30859375 Mo
it =  10640 ; t =      115.008 ; deltat  =  0.0099199
              energy = 2.500e+01 ; Delta energy = +5.338e-05
              estimated remaining duration = 0:02:06
MEMORY_USAGE:                  1616.30859375 Mo
it =  10740 ; t =          116 ; deltat  =  0.0099199
              energy = 2.500e+01 ; Delta energy = +4.784e-05
              estimated remaining duration = 0:02:04
MEMORY_USAGE:                  1616.30859375 Mo
it =  10841 ; t =      117.002 ; deltat  =  0.0099199
              energy = 2.500e+01 ; Delta energy = +4.373e-05
              estimated remaining duration = 0:02:03
MEMORY_USAGE:                  1616.30859375 Mo
it =  10942 ; t =      118.004 ; deltat  =  0.0099199
              energy = 2.500e+01 ; Delta energy = +3.956e-05
              estimated remaining duration = 0:02:01
MEMORY_USAGE:                  1616.30859375 Mo
it =  11043 ; t =      119.006 ; deltat  =  0.0099199
              energy = 2.500e+01 ; Delta energy = +3.579e-05
              estimated remaining duration = 0:02:00
MEMORY_USAGE:                  1616.31640625 Mo
it =  11144 ; t =      120.008 ; deltat  =  0.0099199
              energy = 2.500e+01 ; Delta energy = +3.238e-05
              estimated remaining duration = 0:01:58
MEMORY_USAGE:                  1616.31640625 Mo
it =  11245 ; t =       121.01 ; deltat  =  0.0099199
              energy = 2.500e+01 ; Delta energy = +2.929e-05
              estimated remaining duration = 0:01:57
MEMORY_USAGE:                  1616.31640625 Mo
it =  11345 ; t =      122.002 ; deltat  =  0.0099199
              energy = 2.500e+01 ; Delta energy = +2.625e-05
              estimated remaining duration = 0:01:55
MEMORY_USAGE:                  1616.31640625 Mo
it =  11446 ; t =      123.004 ; deltat  =  0.0099199
              energy = 2.500e+01 ; Delta energy = +2.400e-05
              estimated remaining duration = 0:01:54
MEMORY_USAGE:                  1616.31640625 Mo
it =  11547 ; t =      124.006 ; deltat  =  0.0099199
              energy = 2.500e+01 ; Delta energy = +2.171e-05
              estimated remaining duration = 0:01:52
MEMORY_USAGE:                  1616.31640625 Mo
it =  11648 ; t =      125.008 ; deltat  =  0.0099199
              energy = 2.500e+01 ; Delta energy = +1.964e-05
              estimated remaining duration = 0:01:51
MEMORY_USAGE:                  1616.31640625 Mo
it =  11749 ; t =      126.009 ; deltat  =  0.0099199
              energy = 2.500e+01 ; Delta energy = +1.777e-05
              estimated remaining duration = 0:01:50
MEMORY_USAGE:                  1616.31640625 Mo
it =  11849 ; t =      127.001 ; deltat  =  0.0099199
              energy = 2.500e+01 ; Delta energy = +1.592e-05
              estimated remaining duration = 0:01:48
MEMORY_USAGE:                  1616.31640625 Mo
it =  11950 ; t =      128.003 ; deltat  =  0.0099199
              energy = 2.500e+01 ; Delta energy = +1.456e-05
              estimated remaining duration = 0:01:46
MEMORY_USAGE:                  1616.31640625 Mo
it =  12051 ; t =      129.005 ; deltat  =  0.0099199
              energy = 2.500e+01 ; Delta energy = +1.317e-05
              estimated remaining duration = 0:01:45
MEMORY_USAGE:                  1616.31640625 Mo
it =  12152 ; t =      130.007 ; deltat  =  0.0099199
              energy = 2.500e+01 ; Delta energy = +1.191e-05
              estimated remaining duration = 0:01:43
MEMORY_USAGE:                  1616.31640625 Mo
it =  12253 ; t =      131.009 ; deltat  =  0.0099199
              energy = 2.500e+01 ; Delta energy = +1.078e-05
              estimated remaining duration = 0:01:42
MEMORY_USAGE:                  1616.31640625 Mo
it =  12353 ; t =      132.001 ; deltat  =  0.0099199
              energy = 2.500e+01 ; Delta energy = +9.658e-06
              estimated remaining duration = 0:01:40
MEMORY_USAGE:                  1616.31640625 Mo
it =  12454 ; t =      133.003 ; deltat  =  0.0099199
              energy = 2.500e+01 ; Delta energy = +8.829e-06
              estimated remaining duration = 0:01:39
MEMORY_USAGE:                  1617.45703125 Mo
it =  12555 ; t =      134.005 ; deltat  =  0.0099199
              energy = 2.500e+01 ; Delta energy = +7.987e-06
              estimated remaining duration = 0:01:38
MEMORY_USAGE:                  1617.45703125 Mo
it =  12656 ; t =      135.007 ; deltat  =  0.0099199
              energy = 2.500e+01 ; Delta energy = +7.226e-06
              estimated remaining duration = 0:01:36
MEMORY_USAGE:                  1617.45703125 Mo
it =  12757 ; t =      136.009 ; deltat  =  0.0099199
              energy = 2.500e+01 ; Delta energy = +6.537e-06
              estimated remaining duration = 0:01:35
MEMORY_USAGE:                  1617.45703125 Mo
it =  12857 ; t =      137.001 ; deltat  =  0.0099199
              energy = 2.500e+01 ; Delta energy = +5.858e-06
              estimated remaining duration = 0:01:33
MEMORY_USAGE:                  1617.45703125 Mo
it =  12958 ; t =      138.003 ; deltat  =  0.0099199
              energy = 2.500e+01 ; Delta energy = +5.355e-06
              estimated remaining duration = 0:01:32
MEMORY_USAGE:                  1617.45703125 Mo
it =  13059 ; t =      139.004 ; deltat  =  0.0099199
              energy = 2.500e+01 ; Delta energy = +4.845e-06
              estimated remaining duration = 0:01:30
MEMORY_USAGE:                  1617.45703125 Mo
it =  13160 ; t =      140.006 ; deltat  =  0.0099199
              energy = 2.500e+01 ; Delta energy = +4.383e-06
              estimated remaining duration = 0:01:30
MEMORY_USAGE:                  1617.58203125 Mo
it =  13261 ; t =      141.008 ; deltat  =  0.0099199
              energy = 2.500e+01 ; Delta energy = +3.965e-06
              estimated remaining duration = 0:01:28
MEMORY_USAGE:                  1617.58203125 Mo
it =  13361 ; t =          142 ; deltat  =  0.0099199
              energy = 2.500e+01 ; Delta energy = +3.553e-06
              estimated remaining duration = 0:01:26
MEMORY_USAGE:                  1617.58203125 Mo
it =  13462 ; t =      143.002 ; deltat  =  0.0099199
              energy = 2.500e+01 ; Delta energy = +3.248e-06
              estimated remaining duration = 0:01:24
MEMORY_USAGE:                  1617.58203125 Mo
it =  13563 ; t =      144.004 ; deltat  =  0.0099199
              energy = 2.500e+01 ; Delta energy = +2.939e-06
              estimated remaining duration = 0:01:22
MEMORY_USAGE:                  1617.58203125 Mo
it =  13664 ; t =      145.006 ; deltat  =  0.0099199
              energy = 2.500e+01 ; Delta energy = +2.658e-06
              estimated remaining duration = 0:01:21
MEMORY_USAGE:                  1617.58203125 Mo
it =  13765 ; t =      146.008 ; deltat  =  0.0099199
              energy = 2.500e+01 ; Delta energy = +2.405e-06
              estimated remaining duration = 0:01:20
MEMORY_USAGE:                  1617.58203125 Mo
it =  13866 ; t =       147.01 ; deltat  =  0.0099199
              energy = 2.500e+01 ; Delta energy = +2.176e-06
              estimated remaining duration = 0:01:18
MEMORY_USAGE:                  1617.58203125 Mo
it =  13966 ; t =      148.002 ; deltat  =  0.0099199
              energy = 2.500e+01 ; Delta energy = +1.950e-06
              estimated remaining duration = 0:01:17
MEMORY_USAGE:                  1617.58203125 Mo
it =  14067 ; t =      149.004 ; deltat  =  0.0099199
              energy = 2.500e+01 ; Delta energy = +1.782e-06
              estimated remaining duration = 0:01:15
MEMORY_USAGE:                  1617.58203125 Mo
it =  14168 ; t =      150.006 ; deltat  =  0.0099199
              energy = 2.500e+01 ; Delta energy = +1.612e-06
              estimated remaining duration = 0:01:14
MEMORY_USAGE:                  1617.58203125 Mo
it =  14269 ; t =      151.008 ; deltat  =  0.0099199
              energy = 2.500e+01 ; Delta energy = +1.459e-06
              estimated remaining duration = 0:01:12
MEMORY_USAGE:                  1617.58203125 Mo
it =  14370 ; t =      152.009 ; deltat  =  0.0099199
              energy = 2.500e+01 ; Delta energy = +1.320e-06
              estimated remaining duration = 0:01:11
MEMORY_USAGE:                  1617.58203125 Mo
it =  14470 ; t =      153.001 ; deltat  =  0.0099199
              energy = 2.500e+01 ; Delta energy = +1.183e-06
              estimated remaining duration = 0:01:09
MEMORY_USAGE:                  1617.58203125 Mo
it =  14571 ; t =      154.003 ; deltat  =  0.0099199
              energy = 2.500e+01 ; Delta energy = +1.081e-06
              estimated remaining duration = 0:01:08
MEMORY_USAGE:                  1618.0390625 Mo
it =  14672 ; t =      155.005 ; deltat  =  0.0099199
              energy = 2.500e+01 ; Delta energy = +9.781e-07
              estimated remaining duration = 0:01:06
MEMORY_USAGE:                  1618.0390625 Mo
it =  14773 ; t =      156.007 ; deltat  =  0.0099199
              energy = 2.500e+01 ; Delta energy = +8.848e-07
              estimated remaining duration = 0:01:05
MEMORY_USAGE:                  1618.0390625 Mo
it =  14874 ; t =      157.009 ; deltat  =  0.0099199
              energy = 2.500e+01 ; Delta energy = +8.005e-07
              estimated remaining duration = 0:01:03
MEMORY_USAGE:                  1618.0390625 Mo
it =  14974 ; t =      158.001 ; deltat  =  0.0099199
              energy = 2.500e+01 ; Delta energy = +7.173e-07
              estimated remaining duration = 0:01:02
MEMORY_USAGE:                  1618.0390625 Mo
it =  15075 ; t =      159.003 ; deltat  =  0.0099199
              energy = 2.500e+01 ; Delta energy = +6.558e-07
              estimated remaining duration = 0:01:01
MEMORY_USAGE:                  1618.0390625 Mo
it =  15176 ; t =      160.005 ; deltat  =  0.0099199
              energy = 2.500e+01 ; Delta energy = +5.933e-07
              estimated remaining duration = 0:00:59
MEMORY_USAGE:                  1618.0390625 Mo
it =  15277 ; t =      161.007 ; deltat  =  0.0099199
              energy = 2.500e+01 ; Delta energy = +5.367e-07
              estimated remaining duration = 0:00:58
MEMORY_USAGE:                  1618.0390625 Mo
it =  15378 ; t =      162.009 ; deltat  =  0.0099199
              energy = 2.500e+01 ; Delta energy = +4.855e-07
              estimated remaining duration = 0:00:56
MEMORY_USAGE:                  1618.0390625 Mo
it =  15478 ; t =      163.001 ; deltat  =  0.0099199
              energy = 2.500e+01 ; Delta energy = +4.351e-07
              estimated remaining duration = 0:00:55
MEMORY_USAGE:                  1618.0390625 Mo
it =  15579 ; t =      164.003 ; deltat  =  0.0099199
              energy = 2.500e+01 ; Delta energy = +3.978e-07
              estimated remaining duration = 0:00:53
MEMORY_USAGE:                  1618.0390625 Mo
it =  15680 ; t =      165.004 ; deltat  =  0.0099199
              energy = 2.500e+01 ; Delta energy = +3.598e-07
              estimated remaining duration = 0:00:52
MEMORY_USAGE:                  1618.0390625 Mo
it =  15781 ; t =      166.006 ; deltat  =  0.0099199
              energy = 2.500e+01 ; Delta energy = +3.255e-07
              estimated remaining duration = 0:00:50
MEMORY_USAGE:                  1618.0390625 Mo
it =  15882 ; t =      167.008 ; deltat  =  0.0099199
              energy = 2.500e+01 ; Delta energy = +2.945e-07
              estimated remaining duration = 0:00:49
MEMORY_USAGE:                  1618.0390625 Mo
it =  15982 ; t =          168 ; deltat  =  0.0099199
              energy = 2.500e+01 ; Delta energy = +2.639e-07
              estimated remaining duration = 0:00:47
MEMORY_USAGE:                  1618.3359375 Mo
it =  16083 ; t =      169.002 ; deltat  =  0.0099199
              energy = 2.500e+01 ; Delta energy = +2.413e-07
              estimated remaining duration = 0:00:46
MEMORY_USAGE:                  1618.3359375 Mo
it =  16184 ; t =      170.004 ; deltat  =  0.0099199
              energy = 2.500e+01 ; Delta energy = +2.183e-07
              estimated remaining duration = 0:00:44
MEMORY_USAGE:                  1618.3359375 Mo
it =  16285 ; t =      171.006 ; deltat  =  0.0099199
              energy = 2.500e+01 ; Delta energy = +1.975e-07
              estimated remaining duration = 0:00:43
MEMORY_USAGE:                  1618.3359375 Mo
it =  16386 ; t =      172.008 ; deltat  =  0.0099199
              energy = 2.500e+01 ; Delta energy = +1.786e-07
              estimated remaining duration = 0:00:41
MEMORY_USAGE:                  1618.3359375 Mo
it =  16487 ; t =       173.01 ; deltat  =  0.0099199
              energy = 2.500e+01 ; Delta energy = +1.616e-07
              estimated remaining duration = 0:00:40
MEMORY_USAGE:                  1618.3359375 Mo
it =  16587 ; t =      174.002 ; deltat  =  0.0099199
              energy = 2.500e+01 ; Delta energy = +1.448e-07
              estimated remaining duration = 0:00:38
MEMORY_USAGE:                  1618.3359375 Mo
it =  16688 ; t =      175.004 ; deltat  =  0.0099199
              energy = 2.500e+01 ; Delta energy = +1.324e-07
              estimated remaining duration = 0:00:37
MEMORY_USAGE:                  1618.96875 Mo
it =  16789 ; t =      176.006 ; deltat  =  0.0099199
              energy = 2.500e+01 ; Delta energy = +1.198e-07
              estimated remaining duration = 0:00:36
MEMORY_USAGE:                  1618.96875 Mo
it =  16890 ; t =      177.008 ; deltat  =  0.0099199
              energy = 2.500e+01 ; Delta energy = +1.083e-07
              estimated remaining duration = 0:00:34
MEMORY_USAGE:                  1618.96875 Mo
it =  16991 ; t =      178.009 ; deltat  =  0.0099199
              energy = 2.500e+01 ; Delta energy = +9.802e-08
              estimated remaining duration = 0:00:32
MEMORY_USAGE:                  1618.96875 Mo
it =  17091 ; t =      179.001 ; deltat  =  0.0099199
              energy = 2.500e+01 ; Delta energy = +8.784e-08
              estimated remaining duration = 0:00:31
MEMORY_USAGE:                  1618.96875 Mo
it =  17192 ; t =      180.003 ; deltat  =  0.0099199
              energy = 2.500e+01 ; Delta energy = +8.030e-08
              estimated remaining duration = 0:00:30
MEMORY_USAGE:                  1618.96875 Mo
it =  17293 ; t =      181.005 ; deltat  =  0.0099199
              energy = 2.500e+01 ; Delta energy = +7.264e-08
              estimated remaining duration = 0:00:28
MEMORY_USAGE:                  1618.96875 Mo
it =  17394 ; t =      182.007 ; deltat  =  0.0099199
              energy = 2.500e+01 ; Delta energy = +6.572e-08
              estimated remaining duration = 0:00:27
MEMORY_USAGE:                  1619.0625 Mo
it =  17495 ; t =      183.009 ; deltat  =  0.0099199
              energy = 2.500e+01 ; Delta energy = +5.945e-08
              estimated remaining duration = 0:00:25
MEMORY_USAGE:                  1619.0625 Mo
it =  17595 ; t =      184.001 ; deltat  =  0.0099199
              energy = 2.500e+01 ; Delta energy = +5.328e-08
              estimated remaining duration = 0:00:24
MEMORY_USAGE:                  1619.0625 Mo
it =  17696 ; t =      185.003 ; deltat  =  0.0099199
              energy = 2.500e+01 ; Delta energy = +4.871e-08
              estimated remaining duration = 0:00:22
MEMORY_USAGE:                  1619.0625 Mo
it =  17797 ; t =      186.005 ; deltat  =  0.0099199
              energy = 2.500e+01 ; Delta energy = +4.406e-08
              estimated remaining duration = 0:00:21
MEMORY_USAGE:                  1619.0625 Mo
it =  17898 ; t =      187.007 ; deltat  =  0.0099199
              energy = 2.500e+01 ; Delta energy = +3.986e-08
              estimated remaining duration = 0:00:19
MEMORY_USAGE:                  1619.0625 Mo
it =  17999 ; t =      188.009 ; deltat  =  0.0099199
              energy = 2.500e+01 ; Delta energy = +3.606e-08
              estimated remaining duration = 0:00:18
MEMORY_USAGE:                  1619.0625 Mo
it =  18099 ; t =      189.001 ; deltat  =  0.0099199
              energy = 2.500e+01 ; Delta energy = +3.232e-08
              estimated remaining duration = 0:00:16
MEMORY_USAGE:                  1619.0625 Mo
it =  18200 ; t =      190.003 ; deltat  =  0.0099199
              energy = 2.500e+01 ; Delta energy = +2.954e-08
              estimated remaining duration = 0:00:15
MEMORY_USAGE:                  1619.0625 Mo
it =  18301 ; t =      191.004 ; deltat  =  0.0099199
              energy = 2.500e+01 ; Delta energy = +2.673e-08
              estimated remaining duration = 0:00:13
MEMORY_USAGE:                  1619.0625 Mo
it =  18402 ; t =      192.006 ; deltat  =  0.0099199
              energy = 2.500e+01 ; Delta energy = +2.418e-08
              estimated remaining duration = 0:00:12
MEMORY_USAGE:                  1619.0625 Mo
it =  18503 ; t =      193.008 ; deltat  =  0.0099199
              energy = 2.500e+01 ; Delta energy = +2.187e-08
              estimated remaining duration = 0:00:10
MEMORY_USAGE:                  1619.0625 Mo
it =  18603 ; t =          194 ; deltat  =  0.0099199
              energy = 2.500e+01 ; Delta energy = +1.960e-08
              estimated remaining duration = 0:00:09
MEMORY_USAGE:                  1619.0625 Mo
it =  18704 ; t =      195.002 ; deltat  =  0.0099199
              energy = 2.500e+01 ; Delta energy = +1.792e-08
              estimated remaining duration = 0:00:07
MEMORY_USAGE:                  1619.0625 Mo
it =  18805 ; t =      196.004 ; deltat  =  0.0099199
              energy = 2.500e+01 ; Delta energy = +1.621e-08
              estimated remaining duration = 0:00:06
MEMORY_USAGE:                  1619.0625 Mo
it =  18906 ; t =      197.006 ; deltat  =  0.0099199
              energy = 2.500e+01 ; Delta energy = +1.467e-08
              estimated remaining duration = 0:00:04
MEMORY_USAGE:                  1619.0625 Mo
it =  19007 ; t =      198.008 ; deltat  =  0.0099199
              energy = 2.500e+01 ; Delta energy = +1.327e-08
              estimated remaining duration = 0:00:03
MEMORY_USAGE:                  1619.0625 Mo
it =  19108 ; t =       199.01 ; deltat  =  0.0099199
              energy = 2.500e+01 ; Delta energy = +1.200e-08
              estimated remaining duration = 0:00:01
MEMORY_USAGE:                  1619.0625 Mo
it =  19208 ; t =      200.002 ; deltat  =  0.0099199
              energy = 2.500e+01 ; Delta energy = +1.076e-08

MEMORY_USAGE:                  1619.0625 Mo
save state_phys in file state_phys_t00200.002.h5
Computation completed in  281.638 s
path_run =
/HA/sources/stg3/Sim_data/examples/ns3d_kolmo_64x64x64_V2pix2pix2pi_2022-11-25_11-23-49

To visualize the results, you can do:
cd /HA/sources/stg3/Sim_data/examples/ns3d_kolmo_64x64x64_V2pix2pix2pi_2022-11-25_11-23-49; fluidsim-ipy-load

sim.output.spatial_means.plot()

sim.output.phys_fields.set_equation_crosssection("y=0")
sim.output.phys_fields.animate('vx', dt_frame_in_sec=0.3, dt_equations=0.25)

tmin = 15
sim.output.horiz_means.plot(tmax=tmin)
sim.output.horiz_means.plot(tmin=tmin)

sim.output.spectra.plot1d(coef_compensate=5/3, tmin=tmin)
sim.output.spect_energy_budg.plot_fluxes(tmin=tmin)

